$MeshFormat
2.2 0 8
$EndMeshFormat
$PhysicalNames
2
1 1 "Gamma"
2 2 "Omega"
$EndPhysicalNames
$Nodes
900
1 0 0 0
2 0.034482758620689655 0 0
3 0.068965517241379309 0 0
4 0.10344827586206896 0 0
5 0.13793103448275862 0 0
6 0.17241379310344829 0 0
7 0.20689655172413793 0 0
8 0.2413793103448276 0 0
9 0.27586206896551724 0 0
10 0.31034482758620691 0 0
11 0.34482758620689657 0 0
12 0.37931034482758619 0 0
13 0.41379310344827586 0 0
14 0.44827586206896552 0 0
15 0.48275862068965519 0 0
16 0.51724137931034486 0 0
17 0.55172413793103448 0 0
18 0.58620689655172409 0 0
19 0.62068965517241381 0 0
20 0.65517241379310343 0 0
21 0.68965517241379315 0 0
22 0.72413793103448276 0 0
23 0.75862068965517238 0 0
24 0.7931034482758621 0 0
25 0.82758620689655171 0 0
26 0.86206896551724133 0 0
27 0.89655172413793105 0 0
28 0.93103448275862066 0 0
29 0.96551724137931039 0 0
30 1 0 0
31 0 0.034482758620689655 0
32 0.034482758620689655 0.034482758620689655 0
33 0.068965517241379309 0.034482758620689655 0
34 0.10344827586206896 0.034482758620689655 0
35 0.13793103448275862 0.034482758620689655 0
36 0.17241379310344829 0.034482758620689655 0
37 0.20689655172413793 0.034482758620689655 0
38 0.2413793103448276 0.034482758620689655 0
39 0.27586206896551724 0.034482758620689655 0
40 0.31034482758620691 0.034482758620689655 0
41 0.34482758620689657 0.034482758620689655 0
42 0.37931034482758619 0.034482758620689655 0
43 0.41379310344827586 0.034482758620689655 0
44 0.44827586206896552 0.034482758620689655 0
45 0.48275862068965519 0.034482758620689655 0
46 0.51724137931034486 0.034482758620689655 0
47 0.55172413793103448 0.034482758620689655 0
48 0.58620689655172409 0.034482758620689655 0
49 0.62068965517241381 0.034482758620689655 0
50 0.65517241379310343 0.034482758620689655 0
51 0.68965517241379315 0.034482758620689655 0
52 0.72413793103448276 0.034482758620689655 0
53 0.75862068965517238 0.034482758620689655 0
54 0.7931034482758621 0.034482758620689655 0
55 0.82758620689655171 0.034482758620689655 0
56 0.86206896551724133 0.034482758620689655 0
57 0.89655172413793105 0.034482758620689655 0
58 0.93103448275862066 0.034482758620689655 0
59 0.96551724137931039 0.034482758620689655 0
60 1 0.034482758620689655 0
61 0 0.068965517241379309 0
62 0.034482758620689655 0.068965517241379309 0
63 0.068965517241379309 0.068965517241379309 0
64 0.10344827586206896 0.068965517241379309 0
65 0.13793103448275862 0.068965517241379309 0
66 0.17241379310344829 0.068965517241379309 0
67 0.20689655172413793 0.068965517241379309 0
68 0.2413793103448276 0.068965517241379309 0
69 0.27586206896551724 0.068965517241379309 0
70 0.31034482758620691 0.068965517241379309 0
71 0.34482758620689657 0.068965517241379309 0
72 0.37931034482758619 0.068965517241379309 0
73 0.41379310344827586 0.068965517241379309 0
74 0.44827586206896552 0.068965517241379309 0
75 0.48275862068965519 0.068965517241379309 0
76 0.51724137931034486 0.068965517241379309 0
77 0.55172413793103448 0.068965517241379309 0
78 0.58620689655172409 0.068965517241379309 0
79 0.62068965517241381 0.068965517241379309 0
80 0.65517241379310343 0.068965517241379309 0
81 0.68965517241379315 0.068965517241379309 0
82 0.72413793103448276 0.068965517241379309 0
83 0.75862068965517238 0.068965517241379309 0
84 0.7931034482758621 0.068965517241379309 0
85 0.82758620689655171 0.068965517241379309 0
86 0.86206896551724133 0.068965517241379309 0
87 0.89655172413793105 0.068965517241379309 0
88 0.93103448275862066 0.068965517241379309 0
89 0.96551724137931039 0.068965517241379309 0
90 1 0.068965517241379309 0
91 0 0.10344827586206896 0
92 0.034482758620689655 0.10344827586206896 0
93 0.068965517241379309 0.10344827586206896 0
94 0.10344827586206896 0.10344827586206896 0
95 0.13793103448275862 0.10344827586206896 0
96 0.17241379310344829 0.10344827586206896 0
97 0.20689655172413793 0.10344827586206896 0
98 0.2413793103448276 0.10344827586206896 0
99 0.27586206896551724 0.10344827586206896 0
100 0.31034482758620691 0.10344827586206896 0
101 0.34482758620689657 0.10344827586206896 0
102 0.37931034482758619 0.10344827586206896 0
103 0.41379310344827586 0.10344827586206896 0
104 0.44827586206896552 0.10344827586206896 0
105 0.48275862068965519 0.10344827586206896 0
106 0.51724137931034486 0.10344827586206896 0
107 0.55172413793103448 0.10344827586206896 0
108 0.58620689655172409 0.10344827586206896 0
109 0.62068965517241381 0.10344827586206896 0
110 0.65517241379310343 0.10344827586206896 0
111 0.68965517241379315 0.10344827586206896 0
112 0.72413793103448276 0.10344827586206896 0
113 0.75862068965517238 0.10344827586206896 0
114 0.7931034482758621 0.10344827586206896 0
115 0.82758620689655171 0.10344827586206896 0
116 0.86206896551724133 0.10344827586206896 0
117 0.89655172413793105 0.10344827586206896 0
118 0.93103448275862066 0.10344827586206896 0
119 0.96551724137931039 0.10344827586206896 0
120 1 0.10344827586206896 0
121 0 0.13793103448275862 0
122 0.034482758620689655 0.13793103448275862 0
123 0.068965517241379309 0.13793103448275862 0
124 0.10344827586206896 0.13793103448275862 0
125 0.13793103448275862 0.13793103448275862 0
126 0.17241379310344829 0.13793103448275862 0
127 0.20689655172413793 0.13793103448275862 0
128 0.2413793103448276 0.13793103448275862 0
129 0.27586206896551724 0.13793103448275862 0
130 0.31034482758620691 0.13793103448275862 0
131 0.34482758620689657 0.13793103448275862 0
132 0.37931034482758619 0.13793103448275862 0
133 0.41379310344827586 0.13793103448275862 0
134 0.44827586206896552 0.13793103448275862 0
135 0.48275862068965519 0.13793103448275862 0
136 0.51724137931034486 0.13793103448275862 0
137 0.55172413793103448 0.13793103448275862 0
138 0.58620689655172409 0.13793103448275862 0
139 0.62068965517241381 0.13793103448275862 0
140 0.65517241379310343 0.13793103448275862 0
141 0.68965517241379315 0.13793103448275862 0
142 0.72413793103448276 0.13793103448275862 0
143 0.75862068965517238 0.13793103448275862 0
144 0.7931034482758621 0.13793103448275862 0
145 0.82758620689655171 0.13793103448275862 0
146 0.86206896551724133 0.13793103448275862 0
147 0.89655172413793105 0.13793103448275862 0
148 0.93103448275862066 0.13793103448275862 0
149 0.96551724137931039 0.13793103448275862 0
150 1 0.13793103448275862 0
151 0 0.17241379310344829 0
152 0.034482758620689655 0.17241379310344829 0
153 0.068965517241379309 0.17241379310344829 0
154 0.10344827586206896 0.17241379310344829 0
155 0.13793103448275862 0.17241379310344829 0
156 0.17241379310344829 0.17241379310344829 0
157 0.20689655172413793 0.17241379310344829 0
158 0.2413793103448276 0.17241379310344829 0
159 0.27586206896551724 0.17241379310344829 0
160 0.31034482758620691 0.17241379310344829 0
161 0.34482758620689657 0.17241379310344829 0
162 0.37931034482758619 0.17241379310344829 0
163 0.41379310344827586 0.17241379310344829 0
164 0.44827586206896552 0.17241379310344829 0
165 0.48275862068965519 0.17241379310344829 0
166 0.51724137931034486 0.17241379310344829 0
167 0.55172413793103448 0.17241379310344829 0
168 0.58620689655172409 0.17241379310344829 0
169 0.62068965517241381 0.17241379310344829 0
170 0.65517241379310343 0.17241379310344829 0
171 0.68965517241379315 0.17241379310344829 0
172 0.72413793103448276 0.17241379310344829 0
173 0.75862068965517238 0.17241379310344829 0
174 0.7931034482758621 0.17241379310344829 0
175 0.82758620689655171 0.17241379310344829 0
176 0.86206896551724133 0.17241379310344829 0
177 0.89655172413793105 0.17241379310344829 0
178 0.93103448275862066 0.17241379310344829 0
179 0.96551724137931039 0.17241379310344829 0
180 1 0.17241379310344829 0
181 0 0.20689655172413793 0
182 0.034482758620689655 0.20689655172413793 0
183 0.068965517241379309 0.20689655172413793 0
184 0.10344827586206896 0.20689655172413793 0
185 0.13793103448275862 0.20689655172413793 0
186 0.17241379310344829 0.20689655172413793 0
187 0.20689655172413793 0.20689655172413793 0
188 0.2413793103448276 0.20689655172413793 0
189 0.27586206896551724 0.20689655172413793 0
190 0.31034482758620691 0.20689655172413793 0
191 0.34482758620689657 0.20689655172413793 0
192 0.37931034482758619 0.20689655172413793 0
193 0.41379310344827586 0.20689655172413793 0
194 0.44827586206896552 0.20689655172413793 0
195 0.48275862068965519 0.20689655172413793 0
196 0.51724137931034486 0.20689655172413793 0
197 0.55172413793103448 0.20689655172413793 0
198 0.58620689655172409 0.20689655172413793 0
199 0.62068965517241381 0.20689655172413793 0
200 0.65517241379310343 0.20689655172413793 0
201 0.68965517241379315 0.20689655172413793 0
202 0.72413793103448276 0.20689655172413793 0
203 0.75862068965517238 0.20689655172413793 0
204 0.7931034482758621 0.20689655172413793 0
205 0.82758620689655171 0.20689655172413793 0
206 0.86206896551724133 0.20689655172413793 0
207 0.89655172413793105 0.20689655172413793 0
208 0.93103448275862066 0.20689655172413793 0
209 0.96551724137931039 0.20689655172413793 0
210 1 0.20689655172413793 0
211 0 0.2413793103448276 0
212 0.034482758620689655 0.2413793103448276 0
213 0.068965517241379309 0.2413793103448276 0
214 0.10344827586206896 0.2413793103448276 0
215 0.13793103448275862 0.2413793103448276 0
216 0.17241379310344829 0.2413793103448276 0
217 0.20689655172413793 0.2413793103448276 0
218 0.2413793103448276 0.2413793103448276 0
219 0.27586206896551724 0.2413793103448276 0
220 0.31034482758620691 0.2413793103448276 0
221 0.34482758620689657 0.2413793103448276 0
222 0.37931034482758619 0.2413793103448276 0
223 0.41379310344827586 0.2413793103448276 0
224 0.44827586206896552 0.2413793103448276 0
225 0.48275862068965519 0.2413793103448276 0
226 0.51724137931034486 0.2413793103448276 0
227 0.55172413793103448 0.2413793103448276 0
228 0.58620689655172409 0.2413793103448276 0
229 0.62068965517241381 0.2413793103448276 0
230 0.65517241379310343 0.2413793103448276 0
231 0.68965517241379315 0.2413793103448276 0
232 0.72413793103448276 0.2413793103448276 0
233 0.75862068965517238 0.2413793103448276 0
234 0.7931034482758621 0.2413793103448276 0
235 0.82758620689655171 0.2413793103448276 0
236 0.86206896551724133 0.2413793103448276 0
237 0.89655172413793105 0.2413793103448276 0
238 0.93103448275862066 0.2413793103448276 0
239 0.96551724137931039 0.2413793103448276 0
240 1 0.2413793103448276 0
241 0 0.27586206896551724 0
242 0.034482758620689655 0.27586206896551724 0
243 0.068965517241379309 0.27586206896551724 0
244 0.10344827586206896 0.27586206896551724 0
245 0.13793103448275862 0.27586206896551724 0
246 0.17241379310344829 0.27586206896551724 0
247 0.20689655172413793 0.27586206896551724 0
248 0.2413793103448276 0.27586206896551724 0
249 0.27586206896551724 0.27586206896551724 0
250 0.31034482758620691 0.27586206896551724 0
251 0.34482758620689657 0.27586206896551724 0
252 0.37931034482758619 0.27586206896551724 0
253 0.41379310344827586 0.27586206896551724 0
254 0.44827586206896552 0.27586206896551724 0
255 0.48275862068965519 0.27586206896551724 0
256 0.51724137931034486 0.27586206896551724 0
257 0.55172413793103448 0.27586206896551724 0
258 0.58620689655172409 0.27586206896551724 0
259 0.62068965517241381 0.27586206896551724 0
260 0.65517241379310343 0.27586206896551724 0
261 0.68965517241379315 0.27586206896551724 0
262 0.72413793103448276 0.27586206896551724 0
263 0.75862068965517238 0.27586206896551724 0
264 0.7931034482758621 0.27586206896551724 0
265 0.82758620689655171 0.27586206896551724 0
266 0.86206896551724133 0.27586206896551724 0
267 0.89655172413793105 0.27586206896551724 0
268 0.93103448275862066 0.27586206896551724 0
269 0.96551724137931039 0.27586206896551724 0
270 1 0.27586206896551724 0
271 0 0.31034482758620691 0
272 0.034482758620689655 0.31034482758620691 0
273 0.068965517241379309 0.31034482758620691 0
274 0.10344827586206896 0.31034482758620691 0
275 0.13793103448275862 0.31034482758620691 0
276 0.17241379310344829 0.31034482758620691 0
277 0.20689655172413793 0.31034482758620691 0
278 0.2413793103448276 0.31034482758620691 0
279 0.27586206896551724 0.31034482758620691 0
280 0.31034482758620691 0.31034482758620691 0
281 0.34482758620689657 0.31034482758620691 0
282 0.37931034482758619 0.31034482758620691 0
283 0.41379310344827586 0.31034482758620691 0
284 0.44827586206896552 0.31034482758620691 0
285 0.48275862068965519 0.31034482758620691 0
286 0.51724137931034486 0.31034482758620691 0
287 0.55172413793103448 0.31034482758620691 0
288 0.58620689655172409 0.31034482758620691 0
289 0.62068965517241381 0.31034482758620691 0
290 0.65517241379310343 0.31034482758620691 0
291 0.68965517241379315 0.31034482758620691 0
292 0.72413793103448276 0.31034482758620691 0
293 0.75862068965517238 0.31034482758620691 0
294 0.7931034482758621 0.31034482758620691 0
295 0.82758620689655171 0.31034482758620691 0
296 0.86206896551724133 0.31034482758620691 0
297 0.89655172413793105 0.31034482758620691 0
298 0.93103448275862066 0.31034482758620691 0
299 0.96551724137931039 0.31034482758620691 0
300 1 0.31034482758620691 0
301 0 0.34482758620689657 0
302 0.034482758620689655 0.34482758620689657 0
303 0.068965517241379309 0.34482758620689657 0
304 0.10344827586206896 0.34482758620689657 0
305 0.13793103448275862 0.34482758620689657 0
306 0.17241379310344829 0.34482758620689657 0
307 0.20689655172413793 0.34482758620689657 0
308 0.2413793103448276 0.34482758620689657 0
309 0.27586206896551724 0.34482758620689657 0
310 0.31034482758620691 0.34482758620689657 0
311 0.34482758620689657 0.34482758620689657 0
312 0.37931034482758619 0.34482758620689657 0
313 0.41379310344827586 0.34482758620689657 0
314 0.44827586206896552 0.34482758620689657 0
315 0.48275862068965519 0.34482758620689657 0
316 0.51724137931034486 0.34482758620689657 0
317 0.55172413793103448 0.34482758620689657 0
318 0.58620689655172409 0.34482758620689657 0
319 0.62068965517241381 0.34482758620689657 0
320 0.65517241379310343 0.34482758620689657 0
321 0.68965517241379315 0.34482758620689657 0
322 0.72413793103448276 0.34482758620689657 0
323 0.75862068965517238 0.34482758620689657 0
324 0.7931034482758621 0.34482758620689657 0
325 0.82758620689655171 0.34482758620689657 0
326 0.86206896551724133 0.34482758620689657 0
327 0.89655172413793105 0.34482758620689657 0
328 0.93103448275862066 0.34482758620689657 0
329 0.96551724137931039 0.34482758620689657 0
330 1 0.34482758620689657 0
331 0 0.37931034482758619 0
332 0.034482758620689655 0.37931034482758619 0
333 0.068965517241379309 0.37931034482758619 0
334 0.10344827586206896 0.37931034482758619 0
335 0.13793103448275862 0.37931034482758619 0
336 0.17241379310344829 0.37931034482758619 0
337 0.20689655172413793 0.37931034482758619 0
338 0.2413793103448276 0.37931034482758619 0
339 0.27586206896551724 0.37931034482758619 0
340 0.31034482758620691 0.37931034482758619 0
341 0.34482758620689657 0.37931034482758619 0
342 0.37931034482758619 0.37931034482758619 0
343 0.41379310344827586 0.37931034482758619 0
344 0.44827586206896552 0.37931034482758619 0
345 0.48275862068965519 0.37931034482758619 0
346 0.51724137931034486 0.37931034482758619 0
347 0.55172413793103448 0.37931034482758619 0
348 0.58620689655172409 0.37931034482758619 0
349 0.62068965517241381 0.37931034482758619 0
350 0.65517241379310343 0.37931034482758619 0
351 0.68965517241379315 0.37931034482758619 0
352 0.72413793103448276 0.37931034482758619 0
353 0.75862068965517238 0.37931034482758619 0
354 0.7931034482758621 0.37931034482758619 0
355 0.82758620689655171 0.37931034482758619 0
356 0.86206896551724133 0.37931034482758619 0
357 0.89655172413793105 0.37931034482758619 0
358 0.93103448275862066 0.37931034482758619 0
359 0.96551724137931039 0.37931034482758619 0
360 1 0.37931034482758619 0
361 0 0.41379310344827586 0
362 0.034482758620689655 0.41379310344827586 0
363 0.068965517241379309 0.41379310344827586 0
364 0.10344827586206896 0.41379310344827586 0
365 0.13793103448275862 0.41379310344827586 0
366 0.17241379310344829 0.41379310344827586 0
367 0.20689655172413793 0.41379310344827586 0
368 0.2413793103448276 0.41379310344827586 0
369 0.27586206896551724 0.41379310344827586 0
370 0.31034482758620691 0.41379310344827586 0
371 0.34482758620689657 0.41379310344827586 0
372 0.37931034482758619 0.41379310344827586 0
373 0.41379310344827586 0.41379310344827586 0
374 0.44827586206896552 0.41379310344827586 0
375 0.48275862068965519 0.41379310344827586 0
376 0.51724137931034486 0.41379310344827586 0
377 0.55172413793103448 0.41379310344827586 0
378 0.58620689655172409 0.41379310344827586 0
379 0.62068965517241381 0.41379310344827586 0
380 0.65517241379310343 0.41379310344827586 0
381 0.68965517241379315 0.41379310344827586 0
382 0.72413793103448276 0.41379310344827586 0
383 0.75862068965517238 0.41379310344827586 0
384 0.7931034482758621 0.41379310344827586 0
385 0.82758620689655171 0.41379310344827586 0
386 0.86206896551724133 0.41379310344827586 0
387 0.89655172413793105 0.41379310344827586 0
388 0.93103448275862066 0.41379310344827586 0
389 0.96551724137931039 0.41379310344827586 0
390 1 0.41379310344827586 0
391 0 0.44827586206896552 0
392 0.034482758620689655 0.44827586206896552 0
393 0.068965517241379309 0.44827586206896552 0
394 0.10344827586206896 0.44827586206896552 0
395 0.13793103448275862 0.44827586206896552 0
396 0.17241379310344829 0.44827586206896552 0
397 0.20689655172413793 0.44827586206896552 0
398 0.2413793103448276 0.44827586206896552 0
399 0.27586206896551724 0.44827586206896552 0
400 0.31034482758620691 0.44827586206896552 0
401 0.34482758620689657 0.44827586206896552 0
402 0.37931034482758619 0.44827586206896552 0
403 0.41379310344827586 0.44827586206896552 0
404 0.44827586206896552 0.44827586206896552 0
405 0.48275862068965519 0.44827586206896552 0
406 0.51724137931034486 0.44827586206896552 0
407 0.55172413793103448 0.44827586206896552 0
408 0.58620689655172409 0.44827586206896552 0
409 0.62068965517241381 0.44827586206896552 0
410 0.65517241379310343 0.44827586206896552 0
411 0.68965517241379315 0.44827586206896552 0
412 0.72413793103448276 0.44827586206896552 0
413 0.75862068965517238 0.44827586206896552 0
414 0.7931034482758621 0.44827586206896552 0
415 0.82758620689655171 0.44827586206896552 0
416 0.86206896551724133 0.44827586206896552 0
417 0.89655172413793105 0.44827586206896552 0
418 0.93103448275862066 0.44827586206896552 0
419 0.96551724137931039 0.44827586206896552 0
420 1 0.44827586206896552 0
421 0 0.48275862068965519 0
422 0.034482758620689655 0.48275862068965519 0
423 0.068965517241379309 0.48275862068965519 0
424 0.10344827586206896 0.48275862068965519 0
425 0.13793103448275862 0.48275862068965519 0
426 0.17241379310344829 0.48275862068965519 0
427 0.20689655172413793 0.48275862068965519 0
428 0.2413793103448276 0.48275862068965519 0
429 0.27586206896551724 0.48275862068965519 0
430 0.31034482758620691 0.48275862068965519 0
431 0.34482758620689657 0.48275862068965519 0
432 0.37931034482758619 0.48275862068965519 0
433 0.41379310344827586 0.48275862068965519 0
434 0.44827586206896552 0.48275862068965519 0
435 0.48275862068965519 0.48275862068965519 0
436 0.51724137931034486 0.48275862068965519 0
437 0.55172413793103448 0.48275862068965519 0
438 0.58620689655172409 0.48275862068965519 0
439 0.62068965517241381 0.48275862068965519 0
440 0.65517241379310343 0.48275862068965519 0
441 0.68965517241379315 0.48275862068965519 0
442 0.72413793103448276 0.48275862068965519 0
443 0.75862068965517238 0.48275862068965519 0
444 0.7931034482758621 0.48275862068965519 0
445 0.82758620689655171 0.48275862068965519 0
446 0.86206896551724133 0.48275862068965519 0
447 0.89655172413793105 0.48275862068965519 0
448 0.93103448275862066 0.48275862068965519 0
449 0.96551724137931039 0.48275862068965519 0
450 1 0.48275862068965519 0
451 0 0.51724137931034486 0
452 0.034482758620689655 0.51724137931034486 0
453 0.068965517241379309 0.51724137931034486 0
454 0.10344827586206896 0.51724137931034486 0
455 0.13793103448275862 0.51724137931034486 0
456 0.17241379310344829 0.51724137931034486 0
457 0.20689655172413793 0.51724137931034486 0
458 0.2413793103448276 0.51724137931034486 0
459 0.27586206896551724 0.51724137931034486 0
460 0.31034482758620691 0.51724137931034486 0
461 0.34482758620689657 0.51724137931034486 0
462 0.37931034482758619 0.51724137931034486 0
463 0.41379310344827586 0.51724137931034486 0
464 0.44827586206896552 0.51724137931034486 0
465 0.48275862068965519 0.51724137931034486 0
466 0.51724137931034486 0.51724137931034486 0
467 0.55172413793103448 0.51724137931034486 0
468 0.58620689655172409 0.51724137931034486 0
469 0.62068965517241381 0.51724137931034486 0
470 0.65517241379310343 0.51724137931034486 0
471 0.68965517241379315 0.51724137931034486 0
472 0.72413793103448276 0.51724137931034486 0
473 0.75862068965517238 0.51724137931034486 0
474 0.7931034482758621 0.51724137931034486 0
475 0.82758620689655171 0.51724137931034486 0
476 0.86206896551724133 0.51724137931034486 0
477 0.89655172413793105 0.51724137931034486 0
478 0.93103448275862066 0.51724137931034486 0
479 0.96551724137931039 0.51724137931034486 0
480 1 0.51724137931034486 0
481 0 0.55172413793103448 0
482 0.034482758620689655 0.55172413793103448 0
483 0.068965517241379309 0.55172413793103448 0
484 0.10344827586206896 0.55172413793103448 0
485 0.13793103448275862 0.55172413793103448 0
486 0.17241379310344829 0.55172413793103448 0
487 0.20689655172413793 0.55172413793103448 0
488 0.2413793103448276 0.55172413793103448 0
489 0.27586206896551724 0.55172413793103448 0
490 0.31034482758620691 0.55172413793103448 0
491 0.34482758620689657 0.55172413793103448 0
492 0.37931034482758619 0.55172413793103448 0
493 0.41379310344827586 0.55172413793103448 0
494 0.44827586206896552 0.55172413793103448 0
495 0.48275862068965519 0.55172413793103448 0
496 0.51724137931034486 0.55172413793103448 0
497 0.55172413793103448 0.55172413793103448 0
498 0.58620689655172409 0.55172413793103448 0
499 0.62068965517241381 0.55172413793103448 0
500 0.65517241379310343 0.55172413793103448 0
501 0.68965517241379315 0.55172413793103448 0
502 0.72413793103448276 0.55172413793103448 0
503 0.75862068965517238 0.55172413793103448 0
504 0.7931034482758621 0.55172413793103448 0
505 0.82758620689655171 0.55172413793103448 0
506 0.86206896551724133 0.55172413793103448 0
507 0.89655172413793105 0.55172413793103448 0
508 0.93103448275862066 0.55172413793103448 0
509 0.96551724137931039 0.55172413793103448 0
510 1 0.55172413793103448 0
511 0 0.58620689655172409 0
512 0.034482758620689655 0.58620689655172409 0
513 0.068965517241379309 0.58620689655172409 0
514 0.10344827586206896 0.58620689655172409 0
515 0.13793103448275862 0.58620689655172409 0
516 0.17241379310344829 0.58620689655172409 0
517 0.20689655172413793 0.58620689655172409 0
518 0.2413793103448276 0.58620689655172409 0
519 0.27586206896551724 0.58620689655172409 0
520 0.31034482758620691 0.58620689655172409 0
521 0.34482758620689657 0.58620689655172409 0
522 0.37931034482758619 0.58620689655172409 0
523 0.41379310344827586 0.58620689655172409 0
524 0.44827586206896552 0.58620689655172409 0
525 0.48275862068965519 0.58620689655172409 0
526 0.51724137931034486 0.58620689655172409 0
527 0.55172413793103448 0.58620689655172409 0
528 0.58620689655172409 0.58620689655172409 0
529 0.62068965517241381 0.58620689655172409 0
530 0.65517241379310343 0.58620689655172409 0
531 0.68965517241379315 0.58620689655172409 0
532 0.72413793103448276 0.58620689655172409 0
533 0.75862068965517238 0.58620689655172409 0
534 0.7931034482758621 0.58620689655172409 0
535 0.82758620689655171 0.58620689655172409 0
536 0.86206896551724133 0.58620689655172409 0
537 0.89655172413793105 0.58620689655172409 0
538 0.93103448275862066 0.58620689655172409 0
539 0.96551724137931039 0.58620689655172409 0
540 1 0.58620689655172409 0
541 0 0.62068965517241381 0
542 0.034482758620689655 0.62068965517241381 0
543 0.068965517241379309 0.62068965517241381 0
544 0.10344827586206896 0.62068965517241381 0
545 0.13793103448275862 0.62068965517241381 0
546 0.17241379310344829 0.62068965517241381 0
547 0.20689655172413793 0.62068965517241381 0
548 0.2413793103448276 0.62068965517241381 0
549 0.27586206896551724 0.62068965517241381 0
550 0.31034482758620691 0.62068965517241381 0
551 0.34482758620689657 0.62068965517241381 0
552 0.37931034482758619 0.62068965517241381 0
553 0.41379310344827586 0.62068965517241381 0
554 0.44827586206896552 0.62068965517241381 0
555 0.48275862068965519 0.62068965517241381 0
556 0.51724137931034486 0.62068965517241381 0
557 0.55172413793103448 0.62068965517241381 0
558 0.58620689655172409 0.62068965517241381 0
559 0.62068965517241381 0.62068965517241381 0
560 0.65517241379310343 0.62068965517241381 0
561 0.68965517241379315 0.62068965517241381 0
562 0.72413793103448276 0.62068965517241381 0
563 0.75862068965517238 0.62068965517241381 0
564 0.7931034482758621 0.62068965517241381 0
565 0.82758620689655171 0.62068965517241381 0
566 0.86206896551724133 0.62068965517241381 0
567 0.89655172413793105 0.62068965517241381 0
568 0.93103448275862066 0.62068965517241381 0
569 0.96551724137931039 0.62068965517241381 0
570 1 0.62068965517241381 0
571 0 0.65517241379310343 0
572 0.034482758620689655 0.65517241379310343 0
573 0.068965517241379309 0.65517241379310343 0
574 0.10344827586206896 0.65517241379310343 0
575 0.13793103448275862 0.65517241379310343 0
576 0.17241379310344829 0.65517241379310343 0
577 0.20689655172413793 0.65517241379310343 0
578 0.2413793103448276 0.65517241379310343 0
579 0.27586206896551724 0.65517241379310343 0
580 0.31034482758620691 0.65517241379310343 0
581 0.34482758620689657 0.65517241379310343 0
582 0.37931034482758619 0.65517241379310343 0
583 0.41379310344827586 0.65517241379310343 0
584 0.44827586206896552 0.65517241379310343 0
585 0.48275862068965519 0.65517241379310343 0
586 0.51724137931034486 0.65517241379310343 0
587 0.55172413793103448 0.65517241379310343 0
588 0.58620689655172409 0.65517241379310343 0
589 0.62068965517241381 0.65517241379310343 0
590 0.65517241379310343 0.65517241379310343 0
591 0.68965517241379315 0.65517241379310343 0
592 0.72413793103448276 0.65517241379310343 0
593 0.75862068965517238 0.65517241379310343 0
594 0.7931034482758621 0.65517241379310343 0
595 0.82758620689655171 0.65517241379310343 0
596 0.86206896551724133 0.65517241379310343 0
597 0.89655172413793105 0.65517241379310343 0
598 0.93103448275862066 0.65517241379310343 0
599 0.96551724137931039 0.65517241379310343 0
600 1 0.65517241379310343 0
601 0 0.68965517241379315 0
602 0.034482758620689655 0.68965517241379315 0
603 0.068965517241379309 0.68965517241379315 0
604 0.10344827586206896 0.68965517241379315 0
605 0.13793103448275862 0.68965517241379315 0
606 0.17241379310344829 0.68965517241379315 0
607 0.20689655172413793 0.68965517241379315 0
608 0.2413793103448276 0.68965517241379315 0
609 0.27586206896551724 0.68965517241379315 0
610 0.31034482758620691 0.68965517241379315 0
611 0.34482758620689657 0.68965517241379315 0
612 0.37931034482758619 0.68965517241379315 0
613 0.41379310344827586 0.68965517241379315 0
614 0.44827586206896552 0.68965517241379315 0
615 0.48275862068965519 0.68965517241379315 0
616 0.51724137931034486 0.68965517241379315 0
617 0.55172413793103448 0.68965517241379315 0
618 0.58620689655172409 0.68965517241379315 0
619 0.62068965517241381 0.68965517241379315 0
620 0.65517241379310343 0.68965517241379315 0
621 0.68965517241379315 0.68965517241379315 0
622 0.72413793103448276 0.68965517241379315 0
623 0.75862068965517238 0.68965517241379315 0
624 0.7931034482758621 0.68965517241379315 0
625 0.82758620689655171 0.68965517241379315 0
626 0.86206896551724133 0.68965517241379315 0
627 0.89655172413793105 0.68965517241379315 0
628 0.93103448275862066 0.68965517241379315 0
629 0.96551724137931039 0.68965517241379315 0
630 1 0.68965517241379315 0
631 0 0.72413793103448276 0
632 0.034482758620689655 0.72413793103448276 0
633 0.068965517241379309 0.72413793103448276 0
634 0.10344827586206896 0.72413793103448276 0
635 0.13793103448275862 0.72413793103448276 0
636 0.17241379310344829 0.72413793103448276 0
637 0.20689655172413793 0.72413793103448276 0
638 0.2413793103448276 0.72413793103448276 0
639 0.27586206896551724 0.72413793103448276 0
640 0.31034482758620691 0.72413793103448276 0
641 0.34482758620689657 0.72413793103448276 0
642 0.37931034482758619 0.72413793103448276 0
643 0.41379310344827586 0.72413793103448276 0
644 0.44827586206896552 0.72413793103448276 0
645 0.48275862068965519 0.72413793103448276 0
646 0.51724137931034486 0.72413793103448276 0
647 0.55172413793103448 0.72413793103448276 0
648 0.58620689655172409 0.72413793103448276 0
649 0.62068965517241381 0.72413793103448276 0
650 0.65517241379310343 0.72413793103448276 0
651 0.68965517241379315 0.72413793103448276 0
652 0.72413793103448276 0.72413793103448276 0
653 0.75862068965517238 0.72413793103448276 0
654 0.7931034482758621 0.72413793103448276 0
655 0.82758620689655171 0.72413793103448276 0
656 0.86206896551724133 0.72413793103448276 0
657 0.89655172413793105 0.72413793103448276 0
658 0.93103448275862066 0.72413793103448276 0
659 0.96551724137931039 0.72413793103448276 0
660 1 0.72413793103448276 0
661 0 0.75862068965517238 0
662 0.034482758620689655 0.75862068965517238 0
663 0.068965517241379309 0.75862068965517238 0
664 0.10344827586206896 0.75862068965517238 0
665 0.13793103448275862 0.75862068965517238 0
666 0.17241379310344829 0.75862068965517238 0
667 0.20689655172413793 0.75862068965517238 0
668 0.2413793103448276 0.75862068965517238 0
669 0.27586206896551724 0.75862068965517238 0
670 0.31034482758620691 0.75862068965517238 0
671 0.34482758620689657 0.75862068965517238 0
672 0.37931034482758619 0.75862068965517238 0
673 0.41379310344827586 0.75862068965517238 0
674 0.44827586206896552 0.75862068965517238 0
675 0.48275862068965519 0.75862068965517238 0
676 0.51724137931034486 0.75862068965517238 0
677 0.55172413793103448 0.75862068965517238 0
678 0.58620689655172409 0.75862068965517238 0
679 0.62068965517241381 0.75862068965517238 0
680 0.65517241379310343 0.75862068965517238 0
681 0.68965517241379315 0.75862068965517238 0
682 0.72413793103448276 0.75862068965517238 0
683 0.75862068965517238 0.75862068965517238 0
684 0.7931034482758621 0.75862068965517238 0
685 0.82758620689655171 0.75862068965517238 0
686 0.86206896551724133 0.75862068965517238 0
687 0.89655172413793105 0.75862068965517238 0
688 0.93103448275862066 0.75862068965517238 0
689 0.96551724137931039 0.75862068965517238 0
690 1 0.75862068965517238 0
691 0 0.7931034482758621 0
692 0.034482758620689655 0.7931034482758621 0
693 0.068965517241379309 0.7931034482758621 0
694 0.10344827586206896 0.7931034482758621 0
695 0.13793103448275862 0.7931034482758621 0
696 0.17241379310344829 0.7931034482758621 0
697 0.20689655172413793 0.7931034482758621 0
698 0.2413793103448276 0.7931034482758621 0
699 0.27586206896551724 0.7931034482758621 0
700 0.31034482758620691 0.7931034482758621 0
701 0.34482758620689657 0.7931034482758621 0
702 0.37931034482758619 0.7931034482758621 0
703 0.41379310344827586 0.7931034482758621 0
704 0.44827586206896552 0.7931034482758621 0
705 0.48275862068965519 0.7931034482758621 0
706 0.51724137931034486 0.7931034482758621 0
707 0.55172413793103448 0.7931034482758621 0
708 0.58620689655172409 0.7931034482758621 0
709 0.62068965517241381 0.7931034482758621 0
710 0.65517241379310343 0.7931034482758621 0
711 0.68965517241379315 0.7931034482758621 0
712 0.72413793103448276 0.7931034482758621 0
713 0.75862068965517238 0.7931034482758621 0
714 0.7931034482758621 0.7931034482758621 0
715 0.82758620689655171 0.7931034482758621 0
716 0.86206896551724133 0.7931034482758621 0
717 0.89655172413793105 0.7931034482758621 0
718 0.93103448275862066 0.7931034482758621 0
719 0.96551724137931039 0.7931034482758621 0
720 1 0.7931034482758621 0
721 0 0.82758620689655171 0
722 0.034482758620689655 0.82758620689655171 0
723 0.068965517241379309 0.82758620689655171 0
724 0.10344827586206896 0.82758620689655171 0
725 0.13793103448275862 0.82758620689655171 0
726 0.17241379310344829 0.82758620689655171 0
727 0.20689655172413793 0.82758620689655171 0
728 0.2413793103448276 0.82758620689655171 0
729 0.27586206896551724 0.82758620689655171 0
730 0.31034482758620691 0.82758620689655171 0
731 0.34482758620689657 0.82758620689655171 0
732 0.37931034482758619 0.82758620689655171 0
733 0.41379310344827586 0.82758620689655171 0
734 0.44827586206896552 0.82758620689655171 0
735 0.48275862068965519 0.82758620689655171 0
736 0.51724137931034486 0.82758620689655171 0
737 0.55172413793103448 0.82758620689655171 0
738 0.58620689655172409 0.82758620689655171 0
739 0.62068965517241381 0.82758620689655171 0
740 0.65517241379310343 0.82758620689655171 0
741 0.68965517241379315 0.82758620689655171 0
742 0.72413793103448276 0.82758620689655171 0
743 0.75862068965517238 0.82758620689655171 0
744 0.7931034482758621 0.82758620689655171 0
745 0.82758620689655171 0.82758620689655171 0
746 0.86206896551724133 0.82758620689655171 0
747 0.89655172413793105 0.82758620689655171 0
748 0.93103448275862066 0.82758620689655171 0
749 0.96551724137931039 0.82758620689655171 0
750 1 0.82758620689655171 0
751 0 0.86206896551724133 0
752 0.034482758620689655 0.86206896551724133 0
753 0.068965517241379309 0.86206896551724133 0
754 0.10344827586206896 0.86206896551724133 0
755 0.13793103448275862 0.86206896551724133 0
756 0.17241379310344829 0.86206896551724133 0
757 0.20689655172413793 0.86206896551724133 0
758 0.2413793103448276 0.86206896551724133 0
759 0.27586206896551724 0.86206896551724133 0
760 0.31034482758620691 0.86206896551724133 0
761 0.34482758620689657 0.86206896551724133 0
762 0.37931034482758619 0.86206896551724133 0
763 0.41379310344827586 0.86206896551724133 0
764 0.44827586206896552 0.86206896551724133 0
765 0.48275862068965519 0.86206896551724133 0
766 0.51724137931034486 0.86206896551724133 0
767 0.55172413793103448 0.86206896551724133 0
768 0.58620689655172409 0.86206896551724133 0
769 0.62068965517241381 0.86206896551724133 0
770 0.65517241379310343 0.86206896551724133 0
771 0.68965517241379315 0.86206896551724133 0
772 0.72413793103448276 0.86206896551724133 0
773 0.75862068965517238 0.86206896551724133 0
774 0.7931034482758621 0.86206896551724133 0
775 0.82758620689655171 0.86206896551724133 0
776 0.86206896551724133 0.86206896551724133 0
777 0.89655172413793105 0.86206896551724133 0
778 0.93103448275862066 0.86206896551724133 0
779 0.96551724137931039 0.86206896551724133 0
780 1 0.86206896551724133 0
781 0 0.89655172413793105 0
782 0.034482758620689655 0.89655172413793105 0
783 0.068965517241379309 0.89655172413793105 0
784 0.10344827586206896 0.89655172413793105 0
785 0.13793103448275862 0.89655172413793105 0
786 0.17241379310344829 0.89655172413793105 0
787 0.20689655172413793 0.89655172413793105 0
788 0.2413793103448276 0.89655172413793105 0
789 0.27586206896551724 0.89655172413793105 0
790 0.31034482758620691 0.89655172413793105 0
791 0.34482758620689657 0.89655172413793105 0
792 0.37931034482758619 0.89655172413793105 0
793 0.41379310344827586 0.89655172413793105 0
794 0.44827586206896552 0.89655172413793105 0
795 0.48275862068965519 0.89655172413793105 0
796 0.51724137931034486 0.89655172413793105 0
797 0.55172413793103448 0.89655172413793105 0
798 0.58620689655172409 0.89655172413793105 0
799 0.62068965517241381 0.89655172413793105 0
800 0.65517241379310343 0.89655172413793105 0
801 0.68965517241379315 0.89655172413793105 0
802 0.72413793103448276 0.89655172413793105 0
803 0.75862068965517238 0.89655172413793105 0
804 0.7931034482758621 0.89655172413793105 0
805 0.82758620689655171 0.89655172413793105 0
806 0.86206896551724133 0.89655172413793105 0
807 0.89655172413793105 0.89655172413793105 0
808 0.93103448275862066 0.89655172413793105 0
809 0.96551724137931039 0.89655172413793105 0
810 1 0.89655172413793105 0
811 0 0.93103448275862066 0
812 0.034482758620689655 0.93103448275862066 0
813 0.068965517241379309 0.93103448275862066 0
814 0.10344827586206896 0.93103448275862066 0
815 0.13793103448275862 0.93103448275862066 0
816 0.17241379310344829 0.93103448275862066 0
817 0.20689655172413793 0.93103448275862066 0
818 0.2413793103448276 0.93103448275862066 0
819 0.27586206896551724 0.93103448275862066 0
820 0.31034482758620691 0.93103448275862066 0
821 0.34482758620689657 0.93103448275862066 0
822 0.37931034482758619 0.93103448275862066 0
823 0.41379310344827586 0.93103448275862066 0
824 0.44827586206896552 0.93103448275862066 0
825 0.48275862068965519 0.93103448275862066 0
826 0.51724137931034486 0.93103448275862066 0
827 0.55172413793103448 0.93103448275862066 0
828 0.58620689655172409 0.93103448275862066 0
829 0.62068965517241381 0.93103448275862066 0
830 0.65517241379310343 0.93103448275862066 0
831 0.68965517241379315 0.93103448275862066 0
832 0.72413793103448276 0.93103448275862066 0
833 0.75862068965517238 0.93103448275862066 0
834 0.7931034482758621 0.93103448275862066 0
835 0.82758620689655171 0.93103448275862066 0
836 0.86206896551724133 0.93103448275862066 0
837 0.89655172413793105 0.93103448275862066 0
838 0.93103448275862066 0.93103448275862066 0
839 0.96551724137931039 0.93103448275862066 0
840 1 0.93103448275862066 0
841 0 0.96551724137931039 0
842 0.034482758620689655 0.96551724137931039 0
843 0.068965517241379309 0.96551724137931039 0
844 0.10344827586206896 0.96551724137931039 0
845 0.13793103448275862 0.96551724137931039 0
846 0.17241379310344829 0.96551724137931039 0
847 0.20689655172413793 0.96551724137931039 0
848 0.2413793103448276 0.96551724137931039 0
849 0.27586206896551724 0.96551724137931039 0
850 0.31034482758620691 0.96551724137931039 0
851 0.34482758620689657 0.96551724137931039 0
852 0.37931034482758619 0.96551724137931039 0
853 0.41379310344827586 0.96551724137931039 0
854 0.44827586206896552 0.96551724137931039 0
855 0.48275862068965519 0.96551724137931039 0
856 0.51724137931034486 0.96551724137931039 0
857 0.55172413793103448 0.96551724137931039 0
858 0.58620689655172409 0.96551724137931039 0
859 0.62068965517241381 0.96551724137931039 0
860 0.65517241379310343 0.96551724137931039 0
861 0.68965517241379315 0.96551724137931039 0
862 0.72413793103448276 0.96551724137931039 0
863 0.75862068965517238 0.96551724137931039 0
864 0.7931034482758621 0.96551724137931039 0
865 0.82758620689655171 0.96551724137931039 0
866 0.86206896551724133 0.96551724137931039 0
867 0.89655172413793105 0.96551724137931039 0
868 0.93103448275862066 0.96551724137931039 0
869 0.96551724137931039 0.96551724137931039 0
870 1 0.96551724137931039 0
871 0 1 0
872 0.034482758620689655 1 0
873 0.068965517241379309 1 0
874 0.10344827586206896 1 0
875 0.13793103448275862 1 0
876 0.17241379310344829 1 0
877 0.20689655172413793 1 0
878 0.2413793103448276 1 0
879 0.27586206896551724 1 0
880 0.31034482758620691 1 0
881 0.34482758620689657 1 0
882 0.37931034482758619 1 0
883 0.41379310344827586 1 0
884 0.44827586206896552 1 0
885 0.48275862068965519 1 0
886 0.51724137931034486 1 0
887 0.55172413793103448 1 0
888 0.58620689655172409 1 0
889 0.62068965517241381 1 0
890 0.65517241379310343 1 0
891 0.68965517241379315 1 0
892 0.72413793103448276 1 0
893 0.75862068965517238 1 0
894 0.7931034482758621 1 0
895 0.82758620689655171 1 0
896 0.86206896551724133 1 0
897 0.89655172413793105 1 0
898 0.93103448275862066 1 0
899 0.96551724137931039 1 0
900 1 1 0
$EndNodes
$Elements
957
1 3 2 2 2 1 2 32 31
2 3 2 2 2 2 3 33 32
3 3 2 2 2 3 4 34 33
4 3 2 2 2 4 5 35 34
5 3 2 2 2 5 6 36 35
6 3 2 2 2 6 7 37 36
7 3 2 2 2 7 8 38 37
8 3 2 2 2 8 9 39 38
9 3 2 2 2 9 10 40 39
10 3 2 2 2 10 11 41 40
11 3 2 2 2 11 12 42 41
12 3 2 2 2 12 13 43 42
13 3 2 2 2 13 14 44 43
14 3 2 2 2 14 15 45 44
15 3 2 2 2 15 16 46 45
16 3 2 2 2 16 17 47 46
17 3 2 2 2 17 18 48 47
18 3 2 2 2 18 19 49 48
19 3 2 2 2 19 20 50 49
20 3 2 2 2 20 21 51 50
21 3 2 2 2 21 22 52 51
22 3 2 2 2 22 23 53 52
23 3 2 2 2 23 24 54 53
24 3 2 2 2 24 25 55 54
25 3 2 2 2 25 26 56 55
26 3 2 2 2 26 27 57 56
27 3 2 2 2 27 28 58 57
28 3 2 2 2 28 29 59 58
29 3 2 2 2 29 30 60 59
30 3 2 2 2 31 32 62 61
31 3 2 2 2 32 33 63 62
32 3 2 2 2 33 34 64 63
33 3 2 2 2 34 35 65 64
34 3 2 2 2 35 36 66 65
35 3 2 2 2 36 37 67 66
36 3 2 2 2 37 38 68 67
37 3 2 2 2 38 39 69 68
38 3 2 2 2 39 40 70 69
39 3 2 2 2 40 41 71 70
40 3 2 2 2 41 42 72 71
41 3 2 2 2 42 43 73 72
42 3 2 2 2 43 44 74 73
43 3 2 2 2 44 45 75 74
44 3 2 2 2 45 46 76 75
45 3 2 2 2 46 47 77 76
46 3 2 2 2 47 48 78 77
47 3 2 2 2 48 49 79 78
48 3 2 2 2 49 50 80 79
49 3 2 2 2 50 51 81 80
50 3 2 2 2 51 52 82 81
51 3 2 2 2 52 53 83 82
52 3 2 2 2 53 54 84 83
53 3 2 2 2 54 55 85 84
54 3 2 2 2 55 56 86 85
55 3 2 2 2 56 57 87 86
56 3 2 2 2 57 58 88 87
57 3 2 2 2 58 59 89 88
58 3 2 2 2 59 60 90 89
59 3 2 2 2 61 62 92 91
60 3 2 2 2 62 63 93 92
61 3 2 2 2 63 64 94 93
62 3 2 2 2 64 65 95 94
63 3 2 2 2 65 66 96 95
64 3 2 2 2 66 67 97 96
65 3 2 2 2 67 68 98 97
66 3 2 2 2 68 69 99 98
67 3 2 2 2 69 70 100 99
68 3 2 2 2 70 71 101 100
69 3 2 2 2 71 72 102 101
70 3 2 2 2 72 73 103 102
71 3 2 2 2 73 74 104 103
72 3 2 2 2 74 75 105 104
73 3 2 2 2 75 76 106 105
74 3 2 2 2 76 77 107 106
75 3 2 2 2 77 78 108 107
76 3 2 2 2 78 79 109 108
77 3 2 2 2 79 80 110 109
78 3 2 2 2 80 81 111 110
79 3 2 2 2 81 82 112 111
80 3 2 2 2 82 83 113 112
81 3 2 2 2 83 84 114 113
82 3 2 2 2 84 85 115 114
83 3 2 2 2 85 86 116 115
84 3 2 2 2 86 87 117 116
85 3 2 2 2 87 88 118 117
86 3 2 2 2 88 89 119 118
87 3 2 2 2 89 90 120 119
88 3 2 2 2 91 92 122 121
89 3 2 2 2 92 93 123 122
90 3 2 2 2 93 94 124 123
91 3 2 2 2 94 95 125 124
92 3 2 2 2 95 96 126 125
93 3 2 2 2 96 97 127 126
94 3 2 2 2 97 98 128 127
95 3 2 2 2 98 99 129 128
96 3 2 2 2 99 100 130 129
97 3 2 2 2 100 101 131 130
98 3 2 2 2 101 102 132 131
99 3 2 2 2 102 103 133 132
100 3 2 2 2 103 104 134 133
101 3 2 2 2 104 105 135 134
102 3 2 2 2 105 106 136 135
103 3 2 2 2 106 107 137 136
104 3 2 2 2 107 108 138 137
105 3 2 2 2 108 109 139 138
106 3 2 2 2 109 110 140 139
107 3 2 2 2 110 111 141 140
108 3 2 2 2 111 112 142 141
109 3 2 2 2 112 113 143 142
110 3 2 2 2 113 114 144 143
111 3 2 2 2 114 115 145 144
112 3 2 2 2 115 116 146 145
113 3 2 2 2 116 117 147 146
114 3 2 2 2 117 118 148 147
115 3 2 2 2 118 119 149 148
116 3 2 2 2 119 120 150 149
117 3 2 2 2 121 122 152 151
118 3 2 2 2 122 123 153 152
119 3 2 2 2 123 124 154 153
120 3 2 2 2 124 125 155 154
121 3 2 2 2 125 126 156 155
122 3 2 2 2 126 127 157 156
123 3 2 2 2 127 128 158 157
124 3 2 2 2 128 129 159 158
125 3 2 2 2 129 130 160 159
126 3 2 2 2 130 131 161 160
127 3 2 2 2 131 132 162 161
128 3 2 2 2 132 133 163 162
129 3 2 2 2 133 134 164 163
130 3 2 2 2 134 135 165 164
131 3 2 2 2 135 136 166 165
132 3 2 2 2 136 137 167 166
133 3 2 2 2 137 138 168 167
134 3 2 2 2 138 139 169 168
135 3 2 2 2 139 140 170 169
136 3 2 2 2 140 141 171 170
137 3 2 2 2 141 142 172 171
138 3 2 2 2 142 143 173 172
139 3 2 2 2 143 144 174 173
140 3 2 2 2 144 145 175 174
141 3 2 2 2 145 146 176 175
142 3 2 2 2 146 147 177 176
143 3 2 2 2 147 148 178 177
144 3 2 2 2 148 149 179 178
145 3 2 2 2 149 150 180 179
146 3 2 2 2 151 152 182 181
147 3 2 2 2 152 153 183 182
148 3 2 2 2 153 154 184 183
149 3 2 2 2 154 155 185 184
150 3 2 2 2 155 156 186 185
151 3 2 2 2 156 157 187 186
152 3 2 2 2 157 158 188 187
153 3 2 2 2 158 159 189 188
154 3 2 2 2 159 160 190 189
155 3 2 2 2 160 161 191 190
156 3 2 2 2 161 162 192 191
157 3 2 2 2 162 163 193 192
158 3 2 2 2 163 164 194 193
159 3 2 2 2 164 165 195 194
160 3 2 2 2 165 166 196 195
161 3 2 2 2 166 167 197 196
162 3 2 2 2 167 168 198 197
163 3 2 2 2 168 169 199 198
164 3 2 2 2 169 170 200 199
165 3 2 2 2 170 171 201 200
166 3 2 2 2 171 172 202 201
167 3 2 2 2 172 173 203 202
168 3 2 2 2 173 174 204 203
169 3 2 2 2 174 175 205 204
170 3 2 2 2 175 176 206 205
171 3 2 2 2 176 177 207 206
172 3 2 2 2 177 178 208 207
173 3 2 2 2 178 179 209 208
174 3 2 2 2 179 180 210 209
175 3 2 2 2 181 182 212 211
176 3 2 2 2 182 183 213 212
177 3 2 2 2 183 184 214 213
178 3 2 2 2 184 185 215 214
179 3 2 2 2 185 186 216 215
180 3 2 2 2 186 187 217 216
181 3 2 2 2 187 188 218 217
182 3 2 2 2 188 189 219 218
183 3 2 2 2 189 190 220 219
184 3 2 2 2 190 191 221 220
185 3 2 2 2 191 192 222 221
186 3 2 2 2 192 193 223 222
187 3 2 2 2 193 194 224 223
188 3 2 2 2 194 195 225 224
189 3 2 2 2 195 196 226 225
190 3 2 2 2 196 197 227 226
191 3 2 2 2 197 198 228 227
192 3 2 2 2 198 199 229 228
193 3 2 2 2 199 200 230 229
194 3 2 2 2 200 201 231 230
195 3 2 2 2 201 202 232 231
196 3 2 2 2 202 203 233 232
197 3 2 2 2 203 204 234 233
198 3 2 2 2 204 205 235 234
199 3 2 2 2 205 206 236 235
200 3 2 2 2 206 207 237 236
201 3 2 2 2 207 208 238 237
202 3 2 2 2 208 209 239 238
203 3 2 2 2 209 210 240 239
204 3 2 2 2 211 212 242 241
205 3 2 2 2 212 213 243 242
206 3 2 2 2 213 214 244 243
207 3 2 2 2 214 215 245 244
208 3 2 2 2 215 216 246 245
209 3 2 2 2 216 217 247 246
210 3 2 2 2 217 218 248 247
211 3 2 2 2 218 219 249 248
212 3 2 2 2 219 220 250 249
213 3 2 2 2 220 221 251 250
214 3 2 2 2 221 222 252 251
215 3 2 2 2 222 223 253 252
216 3 2 2 2 223 224 254 253
217 3 2 2 2 224 225 255 254
218 3 2 2 2 225 226 256 255
219 3 2 2 2 226 227 257 256
220 3 2 2 2 227 228 258 257
221 3 2 2 2 228 229 259 258
222 3 2 2 2 229 230 260 259
223 3 2 2 2 230 231 261 260
224 3 2 2 2 231 232 262 261
225 3 2 2 2 232 233 263 262
226 3 2 2 2 233 234 264 263
227 3 2 2 2 234 235 265 264
228 3 2 2 2 235 236 266 265
229 3 2 2 2 236 237 267 266
230 3 2 2 2 237 238 268 267
231 3 2 2 2 238 239 269 268
232 3 2 2 2 239 240 270 269
233 3 2 2 2 241 242 272 271
234 3 2 2 2 242 243 273 272
235 3 2 2 2 243 244 274 273
236 3 2 2 2 244 245 275 274
237 3 2 2 2 245 246 276 275
238 3 2 2 2 246 247 277 276
239 3 2 2 2 247 248 278 277
240 3 2 2 2 248 249 279 278
241 3 2 2 2 249 250 280 279
242 3 2 2 2 250 251 281 280
243 3 2 2 2 251 252 282 281
244 3 2 2 2 252 253 283 282
245 3 2 2 2 253 254 284 283
246 3 2 2 2 254 255 285 284
247 3 2 2 2 255 256 286 285
248 3 2 2 2 256 257 287 286
249 3 2 2 2 257 258 288 287
250 3 2 2 2 258 259 289 288
251 3 2 2 2 259 260 290 289
252 3 2 2 2 260 261 291 290
253 3 2 2 2 261 262 292 291
254 3 2 2 2 262 263 293 292
255 3 2 2 2 263 264 294 293
256 3 2 2 2 264 265 295 294
257 3 2 2 2 265 266 296 295
258 3 2 2 2 266 267 297 296
259 3 2 2 2 267 268 298 297
260 3 2 2 2 268 269 299 298
261 3 2 2 2 269 270 300 299
262 3 2 2 2 271 272 302 301
263 3 2 2 2 272 273 303 302
264 3 2 2 2 273 274 304 303
265 3 2 2 2 274 275 305 304
266 3 2 2 2 275 276 306 305
267 3 2 2 2 276 277 307 306
268 3 2 2 2 277 278 308 307
269 3 2 2 2 278 279 309 308
270 3 2 2 2 279 280 310 309
271 3 2 2 2 280 281 311 310
272 3 2 2 2 281 282 312 311
273 3 2 2 2 282 283 313 312
274 3 2 2 2 283 284 314 313
275 3 2 2 2 284 285 315 314
276 3 2 2 2 285 286 316 315
277 3 2 2 2 286 287 317 316
278 3 2 2 2 287 288 318 317
279 3 2 2 2 288 289 319 318
280 3 2 2 2 289 290 320 319
281 3 2 2 2 290 291 321 320
282 3 2 2 2 291 292 322 321
283 3 2 2 2 292 293 323 322
284 3 2 2 2 293 294 324 323
285 3 2 2 2 294 295 325 324
286 3 2 2 2 295 296 326 325
287 3 2 2 2 296 297 327 326
288 3 2 2 2 297 298 328 327
289 3 2 2 2 298 299 329 328
290 3 2 2 2 299 300 330 329
291 3 2 2 2 301 302 332 331
292 3 2 2 2 302 303 333 332
293 3 2 2 2 303 304 334 333
294 3 2 2 2 304 305 335 334
295 3 2 2 2 305 306 336 335
296 3 2 2 2 306 307 337 336
297 3 2 2 2 307 308 338 337
298 3 2 2 2 308 309 339 338
299 3 2 2 2 309 310 340 339
300 3 2 2 2 310 311 341 340
301 3 2 2 2 311 312 342 341
302 3 2 2 2 312 313 343 342
303 3 2 2 2 313 314 344 343
304 3 2 2 2 314 315 345 344
305 3 2 2 2 315 316 346 345
306 3 2 2 2 316 317 347 346
307 3 2 2 2 317 318 348 347
308 3 2 2 2 318 319 349 348
309 3 2 2 2 319 320 350 349
310 3 2 2 2 320 321 351 350
311 3 2 2 2 321 322 352 351
312 3 2 2 2 322 323 353 352
313 3 2 2 2 323 324 354 353
314 3 2 2 2 324 325 355 354
315 3 2 2 2 325 326 356 355
316 3 2 2 2 326 327 357 356
317 3 2 2 2 327 328 358 357
318 3 2 2 2 328 329 359 358
319 3 2 2 2 329 330 360 359
320 3 2 2 2 331 332 362 361
321 3 2 2 2 332 333 363 362
322 3 2 2 2 333 334 364 363
323 3 2 2 2 334 335 365 364
324 3 2 2 2 335 336 366 365
325 3 2 2 2 336 337 367 366
326 3 2 2 2 337 338 368 367
327 3 2 2 2 338 339 369 368
328 3 2 2 2 339 340 370 369
329 3 2 2 2 340 341 371 370
330 3 2 2 2 341 342 372 371
331 3 2 2 2 342 343 373 372
332 3 2 2 2 343 344 374 373
333 3 2 2 2 344 345 375 374
334 3 2 2 2 345 346 376 375
335 3 2 2 2 346 347 377 376
336 3 2 2 2 347 348 378 377
337 3 2 2 2 348 349 379 378
338 3 2 2 2 349 350 380 379
339 3 2 2 2 350 351 381 380
340 3 2 2 2 351 352 382 381
341 3 2 2 2 352 353 383 382
342 3 2 2 2 353 354 384 383
343 3 2 2 2 354 355 385 384
344 3 2 2 2 355 356 386 385
345 3 2 2 2 356 357 387 386
346 3 2 2 2 357 358 388 387
347 3 2 2 2 358 359 389 388
348 3 2 2 2 359 360 390 389
349 3 2 2 2 361 362 392 391
350 3 2 2 2 362 363 393 392
351 3 2 2 2 363 364 394 393
352 3 2 2 2 364 365 395 394
353 3 2 2 2 365 366 396 395
354 3 2 2 2 366 367 397 396
355 3 2 2 2 367 368 398 397
356 3 2 2 2 368 369 399 398
357 3 2 2 2 369 370 400 399
358 3 2 2 2 370 371 401 400
359 3 2 2 2 371 372 402 401
360 3 2 2 2 372 373 403 402
361 3 2 2 2 373 374 404 403
362 3 2 2 2 374 375 405 404
363 3 2 2 2 375 376 406 405
364 3 2 2 2 376 377 407 406
365 3 2 2 2 377 378 408 407
366 3 2 2 2 378 379 409 408
367 3 2 2 2 379 380 410 409
368 3 2 2 2 380 381 411 410
369 3 2 2 2 381 382 412 411
370 3 2 2 2 382 383 413 412
371 3 2 2 2 383 384 414 413
372 3 2 2 2 384 385 415 414
373 3 2 2 2 385 386 416 415
374 3 2 2 2 386 387 417 416
375 3 2 2 2 387 388 418 417
376 3 2 2 2 388 389 419 418
377 3 2 2 2 389 390 420 419
378 3 2 2 2 391 392 422 421
379 3 2 2 2 392 393 423 422
380 3 2 2 2 393 394 424 423
381 3 2 2 2 394 395 425 424
382 3 2 2 2 395 396 426 425
383 3 2 2 2 396 397 427 426
384 3 2 2 2 397 398 428 427
385 3 2 2 2 398 399 429 428
386 3 2 2 2 399 400 430 429
387 3 2 2 2 400 401 431 430
388 3 2 2 2 401 402 432 431
389 3 2 2 2 402 403 433 432
390 3 2 2 2 403 404 434 433
391 3 2 2 2 404 405 435 434
392 3 2 2 2 405 406 436 435
393 3 2 2 2 406 407 437 436
394 3 2 2 2 407 408 438 437
395 3 2 2 2 408 409 439 438
396 3 2 2 2 409 410 440 439
397 3 2 2 2 410 411 441 440
398 3 2 2 2 411 412 442 441
399 3 2 2 2 412 413 443 442
400 3 2 2 2 413 414 444 443
401 3 2 2 2 414 415 445 444
402 3 2 2 2 415 416 446 445
403 3 2 2 2 416 417 447 446
404 3 2 2 2 417 418 448 447
405 3 2 2 2 418 419 449 448
406 3 2 2 2 419 420 450 449
407 3 2 2 2 421 422 452 451
408 3 2 2 2 422 423 453 452
409 3 2 2 2 423 424 454 453
410 3 2 2 2 424 425 455 454
411 3 2 2 2 425 426 456 455
412 3 2 2 2 426 427 457 456
413 3 2 2 2 427 428 458 457
414 3 2 2 2 428 429 459 458
415 3 2 2 2 429 430 460 459
416 3 2 2 2 430 431 461 460
417 3 2 2 2 431 432 462 461
418 3 2 2 2 432 433 463 462
419 3 2 2 2 433 434 464 463
420 3 2 2 2 434 435 465 464
421 3 2 2 2 435 436 466 465
422 3 2 2 2 436 437 467 466
423 3 2 2 2 437 438 468 467
424 3 2 2 2 438 439 469 468
425 3 2 2 2 439 440 470 469
426 3 2 2 2 440 441 471 470
427 3 2 2 2 441 442 472 471
428 3 2 2 2 442 443 473 472
429 3 2 2 2 443 444 474 473
430 3 2 2 2 444 445 475 474
431 3 2 2 2 445 446 476 475
432 3 2 2 2 446 447 477 476
433 3 2 2 2 447 448 478 477
434 3 2 2 2 448 449 479 478
435 3 2 2 2 449 450 480 479
436 3 2 2 2 451 452 482 481
437 3 2 2 2 452 453 483 482
438 3 2 2 2 453 454 484 483
439 3 2 2 2 454 455 485 484
440 3 2 2 2 455 456 486 485
441 3 2 2 2 456 457 487 486
442 3 2 2 2 457 458 488 487
443 3 2 2 2 458 459 489 488
444 3 2 2 2 459 460 490 489
445 3 2 2 2 460 461 491 490
446 3 2 2 2 461 462 492 491
447 3 2 2 2 462 463 493 492
448 3 2 2 2 463 464 494 493
449 3 2 2 2 464 465 495 494
450 3 2 2 2 465 466 496 495
451 3 2 2 2 466 467 497 496
452 3 2 2 2 467 468 498 497
453 3 2 2 2 468 469 499 498
454 3 2 2 2 469 470 500 499
455 3 2 2 2 470 471 501 500
456 3 2 2 2 471 472 502 501
457 3 2 2 2 472 473 503 502
458 3 2 2 2 473 474 504 503
459 3 2 2 2 474 475 505 504
460 3 2 2 2 475 476 506 505
461 3 2 2 2 476 477 507 506
462 3 2 2 2 477 478 508 507
463 3 2 2 2 478 479 509 508
464 3 2 2 2 479 480 510 509
465 3 2 2 2 481 482 512 511
466 3 2 2 2 482 483 513 512
467 3 2 2 2 483 484 514 513
468 3 2 2 2 484 485 515 514
469 3 2 2 2 485 486 516 515
470 3 2 2 2 486 487 517 516
471 3 2 2 2 487 488 518 517
472 3 2 2 2 488 489 519 518
473 3 2 2 2 489 490 520 519
474 3 2 2 2 490 491 521 520
475 3 2 2 2 491 492 522 521
476 3 2 2 2 492 493 523 522
477 3 2 2 2 493 494 524 523
478 3 2 2 2 494 495 525 524
479 3 2 2 2 495 496 526 525
480 3 2 2 2 496 497 527 526
481 3 2 2 2 497 498 528 527
482 3 2 2 2 498 499 529 528
483 3 2 2 2 499 500 530 529
484 3 2 2 2 500 501 531 530
485 3 2 2 2 501 502 532 531
486 3 2 2 2 502 503 533 532
487 3 2 2 2 503 504 534 533
488 3 2 2 2 504 505 535 534
489 3 2 2 2 505 506 536 535
490 3 2 2 2 506 507 537 536
491 3 2 2 2 507 508 538 537
492 3 2 2 2 508 509 539 538
493 3 2 2 2 509 510 540 539
494 3 2 2 2 511 512 542 541
495 3 2 2 2 512 513 543 542
496 3 2 2 2 513 514 544 543
497 3 2 2 2 514 515 545 544
498 3 2 2 2 515 516 546 545
499 3 2 2 2 516 517 547 546
500 3 2 2 2 517 518 548 547
501 3 2 2 2 518 519 549 548
502 3 2 2 2 519 520 550 549
503 3 2 2 2 520 521 551 550
504 3 2 2 2 521 522 552 551
505 3 2 2 2 522 523 553 552
506 3 2 2 2 523 524 554 553
507 3 2 2 2 524 525 555 554
508 3 2 2 2 525 526 556 555
509 3 2 2 2 526 527 557 556
510 3 2 2 2 527 528 558 557
511 3 2 2 2 528 529 559 558
512 3 2 2 2 529 530 560 559
513 3 2 2 2 530 531 561 560
514 3 2 2 2 531 532 562 561
515 3 2 2 2 532 533 563 562
516 3 2 2 2 533 534 564 563
517 3 2 2 2 534 535 565 564
518 3 2 2 2 535 536 566 565
519 3 2 2 2 536 537 567 566
520 3 2 2 2 537 538 568 567
521 3 2 2 2 538 539 569 568
522 3 2 2 2 539 540 570 569
523 3 2 2 2 541 542 572 571
524 3 2 2 2 542 543 573 572
525 3 2 2 2 543 544 574 573
526 3 2 2 2 544 545 575 574
527 3 2 2 2 545 546 576 575
528 3 2 2 2 546 547 577 576
529 3 2 2 2 547 548 578 577
530 3 2 2 2 548 549 579 578
531 3 2 2 2 549 550 580 579
532 3 2 2 2 550 551 581 580
533 3 2 2 2 551 552 582 581
534 3 2 2 2 552 553 583 582
535 3 2 2 2 553 554 584 583
536 3 2 2 2 554 555 585 584
537 3 2 2 2 555 556 586 585
538 3 2 2 2 556 557 587 586
539 3 2 2 2 557 558 588 587
540 3 2 2 2 558 559 589 588
541 3 2 2 2 559 560 590 589
542 3 2 2 2 560 561 591 590
543 3 2 2 2 561 562 592 591
544 3 2 2 2 562 563 593 592
545 3 2 2 2 563 564 594 593
546 3 2 2 2 564 565 595 594
547 3 2 2 2 565 566 596 595
548 3 2 2 2 566 567 597 596
549 3 2 2 2 567 568 598 597
550 3 2 2 2 568 569 599 598
551 3 2 2 2 569 570 600 599
552 3 2 2 2 571 572 602 601
553 3 2 2 2 572 573 603 602
554 3 2 2 2 573 574 604 603
555 3 2 2 2 574 575 605 604
556 3 2 2 2 575 576 606 605
557 3 2 2 2 576 577 607 606
558 3 2 2 2 577 578 608 607
559 3 2 2 2 578 579 609 608
560 3 2 2 2 579 580 610 609
561 3 2 2 2 580 581 611 610
562 3 2 2 2 581 582 612 611
563 3 2 2 2 582 583 613 612
564 3 2 2 2 583 584 614 613
565 3 2 2 2 584 585 615 614
566 3 2 2 2 585 586 616 615
567 3 2 2 2 586 587 617 616
568 3 2 2 2 587 588 618 617
569 3 2 2 2 588 589 619 618
570 3 2 2 2 589 590 620 619
571 3 2 2 2 590 591 621 620
572 3 2 2 2 591 592 622 621
573 3 2 2 2 592 593 623 622
574 3 2 2 2 593 594 624 623
575 3 2 2 2 594 595 625 624
576 3 2 2 2 595 596 626 625
577 3 2 2 2 596 597 627 626
578 3 2 2 2 597 598 628 627
579 3 2 2 2 598 599 629 628
580 3 2 2 2 599 600 630 629
581 3 2 2 2 601 602 632 631
582 3 2 2 2 602 603 633 632
583 3 2 2 2 603 604 634 633
584 3 2 2 2 604 605 635 634
585 3 2 2 2 605 606 636 635
586 3 2 2 2 606 607 637 636
587 3 2 2 2 607 608 638 637
588 3 2 2 2 608 609 639 638
589 3 2 2 2 609 610 640 639
590 3 2 2 2 610 611 641 640
591 3 2 2 2 611 612 642 641
592 3 2 2 2 612 613 643 642
593 3 2 2 2 613 614 644 643
594 3 2 2 2 614 615 645 644
595 3 2 2 2 615 616 646 645
596 3 2 2 2 616 617 647 646
597 3 2 2 2 617 618 648 647
598 3 2 2 2 618 619 649 648
599 3 2 2 2 619 620 650 649
600 3 2 2 2 620 621 651 650
601 3 2 2 2 621 622 652 651
602 3 2 2 2 622 623 653 652
603 3 2 2 2 623 624 654 653
604 3 2 2 2 624 625 655 654
605 3 2 2 2 625 626 656 655
606 3 2 2 2 626 627 657 656
607 3 2 2 2 627 628 658 657
608 3 2 2 2 628 629 659 658
609 3 2 2 2 629 630 660 659
610 3 2 2 2 631 632 662 661
611 3 2 2 2 632 633 663 662
612 3 2 2 2 633 634 664 663
613 3 2 2 2 634 635 665 664
614 3 2 2 2 635 636 666 665
615 3 2 2 2 636 637 667 666
616 3 2 2 2 637 638 668 667
617 3 2 2 2 638 639 669 668
618 3 2 2 2 639 640 670 669
619 3 2 2 2 640 641 671 670
620 3 2 2 2 641 642 672 671
621 3 2 2 2 642 643 673 672
622 3 2 2 2 643 644 674 673
623 3 2 2 2 644 645 675 674
624 3 2 2 2 645 646 676 675
625 3 2 2 2 646 647 677 676
626 3 2 2 2 647 648 678 677
627 3 2 2 2 648 649 679 678
628 3 2 2 2 649 650 680 679
629 3 2 2 2 650 651 681 680
630 3 2 2 2 651 652 682 681
631 3 2 2 2 652 653 683 682
632 3 2 2 2 653 654 684 683
633 3 2 2 2 654 655 685 684
634 3 2 2 2 655 656 686 685
635 3 2 2 2 656 657 687 686
636 3 2 2 2 657 658 688 687
637 3 2 2 2 658 659 689 688
638 3 2 2 2 659 660 690 689
639 3 2 2 2 661 662 692 691
640 3 2 2 2 662 663 693 692
641 3 2 2 2 663 664 694 693
642 3 2 2 2 664 665 695 694
643 3 2 2 2 665 666 696 695
644 3 2 2 2 666 667 697 696
645 3 2 2 2 667 668 698 697
646 3 2 2 2 668 669 699 698
647 3 2 2 2 669 670 700 699
648 3 2 2 2 670 671 701 700
649 3 2 2 2 671 672 702 701
650 3 2 2 2 672 673 703 702
651 3 2 2 2 673 674 704 703
652 3 2 2 2 674 675 705 704
653 3 2 2 2 675 676 706 705
654 3 2 2 2 676 677 707 706
655 3 2 2 2 677 678 708 707
656 3 2 2 2 678 679 709 708
657 3 2 2 2 679 680 710 709
658 3 2 2 2 680 681 711 710
659 3 2 2 2 681 682 712 711
660 3 2 2 2 682 683 713 712
661 3 2 2 2 683 684 714 713
662 3 2 2 2 684 685 715 714
663 3 2 2 2 685 686 716 715
664 3 2 2 2 686 687 717 716
665 3 2 2 2 687 688 718 717
666 3 2 2 2 688 689 719 718
667 3 2 2 2 689 690 720 719
668 3 2 2 2 691 692 722 721
669 3 2 2 2 692 693 723 722
670 3 2 2 2 693 694 724 723
671 3 2 2 2 694 695 725 724
672 3 2 2 2 695 696 726 725
673 3 2 2 2 696 697 727 726
674 3 2 2 2 697 698 728 727
675 3 2 2 2 698 699 729 728
676 3 2 2 2 699 700 730 729
677 3 2 2 2 700 701 731 730
678 3 2 2 2 701 702 732 731
679 3 2 2 2 702 703 733 732
680 3 2 2 2 703 704 734 733
681 3 2 2 2 704 705 735 734
682 3 2 2 2 705 706 736 735
683 3 2 2 2 706 707 737 736
684 3 2 2 2 707 708 738 737
685 3 2 2 2 708 709 739 738
686 3 2 2 2 709 710 740 739
687 3 2 2 2 710 711 741 740
688 3 2 2 2 711 712 742 741
689 3 2 2 2 712 713 743 742
690 3 2 2 2 713 714 744 743
691 3 2 2 2 714 715 745 744
692 3 2 2 2 715 716 746 745
693 3 2 2 2 716 717 747 746
694 3 2 2 2 717 718 748 747
695 3 2 2 2 718 719 749 748
696 3 2 2 2 719 720 750 749
697 3 2 2 2 721 722 752 751
698 3 2 2 2 722 723 753 752
699 3 2 2 2 723 724 754 753
700 3 2 2 2 724 725 755 754
701 3 2 2 2 725 726 756 755
702 3 2 2 2 726 727 757 756
703 3 2 2 2 727 728 758 757
704 3 2 2 2 728 729 759 758
705 3 2 2 2 729 730 760 759
706 3 2 2 2 730 731 761 760
707 3 2 2 2 731 732 762 761
708 3 2 2 2 732 733 763 762
709 3 2 2 2 733 734 764 763
710 3 2 2 2 734 735 765 764
711 3 2 2 2 735 736 766 765
712 3 2 2 2 736 737 767 766
713 3 2 2 2 737 738 768 767
714 3 2 2 2 738 739 769 768
715 3 2 2 2 739 740 770 769
716 3 2 2 2 740 741 771 770
717 3 2 2 2 741 742 772 771
718 3 2 2 2 742 743 773 772
719 3 2 2 2 743 744 774 773
720 3 2 2 2 744 745 775 774
721 3 2 2 2 745 746 776 775
722 3 2 2 2 746 747 777 776
723 3 2 2 2 747 748 778 777
724 3 2 2 2 748 749 779 778
725 3 2 2 2 749 750 780 779
726 3 2 2 2 751 752 782 781
727 3 2 2 2 752 753 783 782
728 3 2 2 2 753 754 784 783
729 3 2 2 2 754 755 785 784
730 3 2 2 2 755 756 786 785
731 3 2 2 2 756 757 787 786
732 3 2 2 2 757 758 788 787
733 3 2 2 2 758 759 789 788
734 3 2 2 2 759 760 790 789
735 3 2 2 2 760 761 791 790
736 3 2 2 2 761 762 792 791
737 3 2 2 2 762 763 793 792
738 3 2 2 2 763 764 794 793
739 3 2 2 2 764 765 795 794
740 3 2 2 2 765 766 796 795
741 3 2 2 2 766 767 797 796
742 3 2 2 2 767 768 798 797
743 3 2 2 2 768 769 799 798
744 3 2 2 2 769 770 800 799
745 3 2 2 2 770 771 801 800
746 3 2 2 2 771 772 802 801
747 3 2 2 2 772 773 803 802
748 3 2 2 2 773 774 804 803
749 3 2 2 2 774 775 805 804
750 3 2 2 2 775 776 806 805
751 3 2 2 2 776 777 807 806
752 3 2 2 2 777 778 808 807
753 3 2 2 2 778 779 809 808
754 3 2 2 2 779 780 810 809
755 3 2 2 2 781 782 812 811
756 3 2 2 2 782 783 813 812
757 3 2 2 2 783 784 814 813
758 3 2 2 2 784 785 815 814
759 3 2 2 2 785 786 816 815
760 3 2 2 2 786 787 817 816
761 3 2 2 2 787 788 818 817
762 3 2 2 2 788 789 819 818
763 3 2 2 2 789 790 820 819
764 3 2 2 2 790 791 821 820
765 3 2 2 2 791 792 822 821
766 3 2 2 2 792 793 823 822
767 3 2 2 2 793 794 824 823
768 3 2 2 2 794 795 825 824
769 3 2 2 2 795 796 826 825
770 3 2 2 2 796 797 827 826
771 3 2 2 2 797 798 828 827
772 3 2 2 2 798 799 829 828
773 3 2 2 2 799 800 830 829
774 3 2 2 2 800 801 831 830
775 3 2 2 2 801 802 832 831
776 3 2 2 2 802 803 833 832
777 3 2 2 2 803 804 834 833
778 3 2 2 2 804 805 835 834
779 3 2 2 2 805 806 836 835
780 3 2 2 2 806 807 837 836
781 3 2 2 2 807 808 838 837
782 3 2 2 2 808 809 839 838
783 3 2 2 2 809 810 840 839
784 3 2 2 2 811 812 842 841
785 3 2 2 2 812 813 843 842
786 3 2 2 2 813 814 844 843
787 3 2 2 2 814 815 845 844
788 3 2 2 2 815 816 846 845
789 3 2 2 2 816 817 847 846
790 3 2 2 2 817 818 848 847
791 3 2 2 2 818 819 849 848
792 3 2 2 2 819 820 850 849
793 3 2 2 2 820 821 851 850
794 3 2 2 2 821 822 852 851
795 3 2 2 2 822 823 853 852
796 3 2 2 2 823 824 854 853
797 3 2 2 2 824 825 855 854
798 3 2 2 2 825 826 856 855
799 3 2 2 2 826 827 857 856
800 3 2 2 2 827 828 858 857
801 3 2 2 2 828 829 859 858
802 3 2 2 2 829 830 860 859
803 3 2 2 2 830 831 861 860
804 3 2 2 2 831 832 862 861
805 3 2 2 2 832 833 863 862
806 3 2 2 2 833 834 864 863
807 3 2 2 2 834 835 865 864
808 3 2 2 2 835 836 866 865
809 3 2 2 2 836 837 867 866
810 3 2 2 2 837 838 868 867
811 3 2 2 2 838 839 869 868
812 3 2 2 2 839 840 870 869
813 3 2 2 2 841 842 872 871
814 3 2 2 2 842 843 873 872
815 3 2 2 2 843 844 874 873
816 3 2 2 2 844 845 875 874
817 3 2 2 2 845 846 876 875
818 3 2 2 2 846 847 877 876
819 3 2 2 2 847 848 878 877
820 3 2 2 2 848 849 879 878
821 3 2 2 2 849 850 880 879
822 3 2 2 2 850 851 881 880
823 3 2 2 2 851 852 882 881
824 3 2 2 2 852 853 883 882
825 3 2 2 2 853 854 884 883
826 3 2 2 2 854 855 885 884
827 3 2 2 2 855 856 886 885
828 3 2 2 2 856 857 887 886
829 3 2 2 2 857 858 888 887
830 3 2 2 2 858 859 889 888
831 3 2 2 2 859 860 890 889
832 3 2 2 2 860 861 891 890
833 3 2 2 2 861 862 892 891
834 3 2 2 2 862 863 893 892
835 3 2 2 2 863 864 894 893
836 3 2 2 2 864 865 895 894
837 3 2 2 2 865 866 896 895
838 3 2 2 2 866 867 897 896
839 3 2 2 2 867 868 898 897
840 3 2 2 2 868 869 899 898
841 3 2 2 2 869 870 900 899
842 1 2 1 1 1 2
843 1 2 1 1 2 3
844 1 2 1 1 3 4
845 1 2 1 1 4 5
846 1 2 1 1 5 6
847 1 2 1 1 6 7
848 1 2 1 1 7 8
849 1 2 1 1 8 9
850 1 2 1 1 9 10
851 1 2 1 1 10 11
852 1 2 1 1 11 12
853 1 2 1 1 12 13
854 1 2 1 1 13 14
855 1 2 1 1 14 15
856 1 2 1 1 15 16
857 1 2 1 1 16 17
858 1 2 1 1 17 18
859 1 2 1 1 18 19
860 1 2 1 1 19 20
861 1 2 1 1 20 21
862 1 2 1 1 21 22
863 1 2 1 1 22 23
864 1 2 1 1 23 24
865 1 2 1 1 24 25
866 1 2 1 1 25 26
867 1 2 1 1 26 27
868 1 2 1 1 27 28
869 1 2 1 1 28 29
870 1 2 1 1 29 30
871 1 2 1 1 30 60
872 1 2 1 1 60 90
873 1 2 1 1 90 120
874 1 2 1 1 120 150
875 1 2 1 1 150 180
876 1 2 1 1 180 210
877 1 2 1 1 210 240
878 1 2 1 1 240 270
879 1 2 1 1 270 300
880 1 2 1 1 300 330
881 1 2 1 1 330 360
882 1 2 1 1 360 390
883 1 2 1 1 390 420
884 1 2 1 1 420 450
885 1 2 1 1 450 480
886 1 2 1 1 480 510
887 1 2 1 1 510 540
888 1 2 1 1 540 570
889 1 2 1 1 570 600
890 1 2 1 1 600 630
891 1 2 1 1 630 660
892 1 2 1 1 660 690
893 1 2 1 1 690 720
894 1 2 1 1 720 750
895 1 2 1 1 750 780
896 1 2 1 1 780 810
897 1 2 1 1 810 840
898 1 2 1 1 840 870
899 1 2 1 1 870 900
900 1 2 1 1 872 871
901 1 2 1 1 873 872
902 1 2 1 1 874 873
903 1 2 1 1 875 874
904 1 2 1 1 876 875
905 1 2 1 1 877 876
906 1 2 1 1 878 877
907 1 2 1 1 879 878
908 1 2 1 1 880 879
909 1 2 1 1 881 880
910 1 2 1 1 882 881
911 1 2 1 1 883 882
912 1 2 1 1 884 883
913 1 2 1 1 885 884
914 1 2 1 1 886 885
915 1 2 1 1 887 886
916 1 2 1 1 888 887
917 1 2 1 1 889 888
918 1 2 1 1 890 889
919 1 2 1 1 891 890
920 1 2 1 1 892 891
921 1 2 1 1 893 892
922 1 2 1 1 894 893
923 1 2 1 1 895 894
924 1 2 1 1 896 895
925 1 2 1 1 897 896
926 1 2 1 1 898 897
927 1 2 1 1 899 898
928 1 2 1 1 900 899
929 1 2 1 1 31 1
930 1 2 1 1 61 31
931 1 2 1 1 91 61
932 1 2 1 1 121 91
933 1 2 1 1 151 121
934 1 2 1 1 181 151
935 1 2 1 1 211 181
936 1 2 1 1 241 211
937 1 2 1 1 271 241
938 1 2 1 1 301 271
939 1 2 1 1 331 301
940 1 2 1 1 361 331
941 1 2 1 1 391 361
942 1 2 1 1 421 391
943 1 2 1 1 451 421
944 1 2 1 1 481 451
945 1 2 1 1 511 481
946 1 2 1 1 541 511
947 1 2 1 1 571 541
948 1 2 1 1 601 571
949 1 2 1 1 631 601
950 1 2 1 1 661 631
951 1 2 1 1 691 661
952 1 2 1 1 721 691
953 1 2 1 1 751 721
954 1 2 1 1 781 751
955 1 2 1 1 811 781
956 1 2 1 1 841 811
957 1 2 1 1 871 841
$EndElements
