$MeshFormat
2.2 0 8
$EndMeshFormat
$PhysicalNames
1
2 4 "Gamma"
$EndPhysicalNames
$Nodes
713
1 6.123031769111886e-17 -1.499660721822137e-32 1
2 6.123031769111886e-17 -1.499660721822137e-32 -1
3 0.433883739117558 -1.062673567487144e-16 -0.9009688679024193
4 0.7818314824680297 -1.914871602097435e-16 -0.6234898018587337
5 0.9749279121818235 -2.387805831553291e-16 -0.2225209339563146
6 0.9749279121818236 -2.387805831553292e-16 0.2225209339563142
7 0.78183148246803 -1.914871602097436e-16 0.6234898018587334
8 0.4338837391175584 -1.062673567487146e-16 0.900968867902419
9 0.149042266176174 -3.650362122948572e-17 -0.9888308262251286
10 0.2947551744109035 -7.219181188112308e-17 -0.955572805786141
11 0.5633200580636216 -1.379690644680603e-16 -0.8262387743159951
12 0.6801727377709188 -1.665887712742058e-16 -0.7330518718298269
13 0.8660254037844384 -2.121080424092026e-16 -0.5000000000000004
14 0.9308737486442039 -2.279907814392293e-16 -0.3653410243663958
15 0.9972037971811801 -2.442364212167749e-16 -0.0747300935864248
16 0.9972037971811802 -2.442364212167749e-16 0.07473009358642342
17 0.9308737486442045 -2.279907814392295e-16 0.3653410243663945
18 0.866025403784439 -2.121080424092028e-16 0.4999999999999993
19 0.6801727377709198 -1.66588771274206e-16 0.7330518718298259
20 0.5633200580636227 -1.379690644680606e-16 0.8262387743159944
21 0.2947551744109048 -7.219181188112339e-17 0.9555728057861406
22 0.1490422661761753 -3.650362122948606e-17 0.9888308262251284
23 0.5135663011546135 -0.4157002612600424 -0.7506283681734265
24 0.8248402129225689 -0.3624686525414545 0.4338837391175583
25 0.2056402647271348 -0.3820565149197032 0.9009688679029729
26 0.832620433560012 -0.3820565149269252 -0.4009688678940422
27 0.5211728760648425 -0.7217800392264827 -0.4554255243489514
28 0.151096073045836 -0.6887447280738968 -0.7090843929043577
29 0.1293838440346262 -0.9378717832556828 -0.3219570453890224
30 0.4767377383684086 -0.878098697832252 -0.04078977421705325
31 0.06272207193979724 -0.9929919354828785 0.1001646532342917
32 0.3686196281625172 -0.8532231036782774 0.3689578635602378
33 -0.05735690042220989 -0.8609408174607937 0.5054612693410814
34 0.9258999564729626 -0.3776866524497256 0.007878017814525434
35 0.5455224949207694 -0.3095892892300311 0.7788194139397548
36 0.7101328253088777 -0.6751479798568478 0.1997162379829153
37 0.1290126622914913 -0.3930927443195668 -0.9104031125450821
38 0.5415264070752589 -0.6073786355500845 0.5812403491822283
39 0.2156430131244519 -0.7191896344460886 0.6605031117231083
40 -0.2049897152712018 -0.6257804188810574 0.7525809484554336
41 -0.4809178169205319 -0.7288723159020006 0.4873019602669825
42 -0.2367200025225017 -0.8144111111709886 -0.5298095718340528
43 -0.577706583617881 -0.3612191043692531 0.731967118034158
44 -0.3193374189183703 -0.9214656103449217 0.2211893800122744
45 -0.6610064398605034 -0.7427571051673915 0.1066881867232695
46 0.2056402647289257 0.3820565148751789 -0.9009688679214446
47 0.8266659079743002 0.3887966184400654 -0.406768565750349
48 0.8326204335587727 0.3820565149208281 0.4009688679024254
49 0.2056402647276488 0.3820565149198241 0.9009688679028043
50 -0.2442846019953645 -0.2203826493090222 0.9443286086482305
51 -0.541676910594326 0.08727186898357758 0.8360441049448886
52 0.6727569859083561 0.3600728884513186 -0.646332385784457
53 0.5000032582571599 0.6865030681456817 -0.5279301839815463
54 -0.8428308407570738 -0.05649089978578135 0.5352055232432834
55 0.04287746388945299 0.7533101347339752 -0.6562662295116889
56 -0.7384890884147991 0.3765735916339713 0.5593086771865515
57 -0.9548424616537845 0.2232121629681161 0.196092334694746
58 0.2380141133303533 0.9340373942871376 -0.2663145281971298
59 -0.241491113149656 0.4937230799748644 -0.8354158022026359
60 -0.2982990817738679 0.911809662306029 -0.2821715746460521
61 -0.04921972427219894 0.9939145126167284 0.09854623459280393
62 -0.7621281107055179 0.6197556245222801 0.1872530607104638
63 -0.8870986672967989 0.4297474632723819 -0.1684430832394018
64 -0.9892685083568825 -0.003607494671874106 -0.1460643842815251
65 -0.8211435865607187 0.1627215534465191 -0.5470328201252197
66 -0.8414131076166174 -0.2824618805497074 -0.4606943329011867
67 0.4071933689913346 0.9014210789771084 0.1470836449957382
68 -0.4842378515015722 0.7214419041129868 0.4950103859142446
69 -0.5741012235126761 -0.09442153844247676 -0.813321804846891
70 0.1536700414221503 0.8778799024872593 0.4535552834862302
71 -0.6558325349576908 0.6006932658441754 -0.4572212664131319
72 -0.6701061008725095 0.7342421472318149 -0.1088406302896849
73 0.5199389027222041 0.7008902453168397 0.4882790200855762
74 0.6892871757319963 0.7080660087908337 -0.1533809524237837
75 -0.5034578779692317 -0.516850146570885 -0.6923843521486985
76 -0.6835370970037437 -0.6601294353402145 -0.3114581281923855
77 -0.8071897845509313 -0.4369833926115049 0.3968503071667709
78 -0.9096571699704138 -0.4140123785734062 -0.03343027833279611
79 0.9199152479018009 0.3919959781318189 0.009751400219795479
80 0.55541899630866 0.3621532488354401 0.7485684757571724
81 -0.1546352992999687 0.2876629129107033 0.9451655795394467
82 -0.08569784875979167 0.6812289454750501 0.7270371397424585
83 -0.3400422053575755 -0.9300717602379488 -0.1390604882180417
84 -0.4005062360666418 0.5061617495566142 0.7638030100474328
85 -0.5664103383859541 0.3880780413612409 -0.7270314727594205
86 -0.1981256396578851 -0.3002579274271107 -0.9330548793759827
87 -0.2889760574161134 0.190605680226457 -0.9381696610451911
88 0.7430507820984126 -0.652090178442587 -0.1505122400393149
89 0.7201857004661633 0.6630552935853121 0.2041818662187154
90 -0.3446343198394543 0.7049762525043415 -0.6198674608283061
91 -0.9693456670091343 -0.1408487178680421 0.2013221709736545
92 -0.1402569851343693 -0.6227776678448257 -0.7697245965634575
93 -0.449388140677714 0.883064472479775 0.1350830724489333
94 -0.193521884954115 0.8997520694313188 0.3911463838486373
95 0.2850374826295379 0.6470673531388252 0.7071474202725559
96 -0.3565853222374975 0.9227307375651597 -0.1463382858900446
97 -0.4080928233760361 0.9129312662570119 -0.0040927496068186
98 -0.3222820196404664 0.9383081516406087 0.1253479652058487
99 -0.1862402170696708 0.9759928830112984 0.1129268517985683
100 -0.1355031863543605 0.9903507005553035 -0.02905815543758918
101 -0.2205744461825847 0.9623083805332914 -0.1590895799436285
102 -0.2746344561003797 0.9613970276321866 -0.01707837177383038
103 -0.0733773156655125 -0.9970841911402124 0.0209495900674024
104 -0.2110941305821926 -0.975569954110861 -0.06084844015979941
105 -0.1889748572130026 -0.9601488985015258 -0.2059189064841593
106 -0.02788963954076889 -0.9628255041293705 -0.2686805102799779
107 0.1094448683895574 -0.9766046030560175 -0.1851088060384785
108 0.0867511786330694 -0.9953691752338312 -0.04140577254557735
109 -0.05180237414878189 -0.9907691326683112 -0.1252718634978818
110 -0.3194370538134708 0.8581589943996493 -0.4018993766876884
111 -0.3351623843738357 0.7879635259862772 -0.5165071711178062
112 -0.4552046561283477 0.6804360400356222 -0.5742782569971754
113 -0.5605193188256901 0.6451449392784597 -0.5192360740035087
114 -0.5525555773234535 0.7252697780538331 -0.4106897649205402
115 -0.4298465695302374 0.8320479941286426 -0.3506109840401315
116 -0.4469774710924234 0.7631004797970883 -0.4667856018230163
117 -0.605366508074183 0.7954562993006036 -0.02794041526282041
118 -0.5307044409829945 0.8457982942271761 0.05457143761462047
119 -0.4319332423211945 0.8722046889513325 -0.2295488068999913
120 -0.5587156459081571 0.8116559763029023 -0.1704447216818792
121 -0.4866562791502216 0.8691030748814317 -0.0884619194642641
122 -0.6710668520145792 0.6554420931028471 -0.3465038855715789
123 -0.6759001632902056 0.7006643815001704 -0.2285353227867786
124 -0.559403661800548 0.7753955901091683 -0.2929662472084333
125 0.1553042323769644 0.5188992447635898 -0.8406094034624987
126 0.09964573420192833 0.6458534309585424 -0.7569306925831704
127 0.2004399147996424 0.7504623331193494 -0.6297857787566933
128 0.3568632605762228 0.7276017004313291 -0.5858706160752093
129 0.4169066187937125 0.6068918750104045 -0.6766617495117849
130 0.3151173698701575 0.5016157816287914 -0.805656658153491
131 0.2617609191520607 0.6346866764837628 -0.7270859948442576
132 0.625719118167371 0.4769216242210613 -0.6172692682372842
133 0.5671472943097819 0.5875971578075982 -0.5771252261801818
134 0.6236169738362828 0.6014707879052923 -0.4993343181074819
135 0.7351379944368837 0.4998352714503184 -0.4579703380673283
136 0.7825168721629735 0.382720959427447 -0.4911130338274591
137 0.730740547803873 0.373058042289587 -0.5717044243998435
138 0.6830694762167847 0.4915141552690157 -0.5402128523379588
139 0.8169418057149513 -0.1302508456994081 -0.5618191909055651
140 0.8342567933501754 -0.2605016913988149 -0.4859572733558365
141 0.7451528193795323 -0.4034965613368809 -0.5309781546919298
142 0.6360361936595802 -0.41500273443914 -0.6505618270103694
143 0.6212694777673644 -0.2855356680589757 -0.7297216032575579
144 0.7134023014647877 -0.1427678340294883 -0.6860572146922388
145 0.7375690439616385 -0.2766404777485595 -0.6160048307120355
146 -0.3117854936104071 -0.9095585972052527 -0.2747598300773381
147 -0.2766478311529536 -0.8702248941384304 -0.407645202523131
148 -0.117219685204804 -0.8744707912500967 -0.4707020083353334
149 0.007511630518967815 -0.9165337529318233 -0.399886802912592
150 -0.1541925625989511 -0.9270159671782198 -0.341856768597315
151 0.7575273380473683 0.1219650435458532 -0.6413087090190858
152 0.7205812747659579 0.2439300870917067 -0.6490460223035802
153 0.8303974103055479 0.2651614413687237 -0.4900301531223365
154 0.8151087473821408 0.1325807206843617 -0.5639326931859268
155 0.7792773584575008 0.2549096298835098 -0.5724926892006149
156 0.5131808813040952 0.8569345082941884 0.04804822117987093
157 0.6094551779007376 0.7909453836456933 -0.05449574496735964
158 0.5556280595640656 0.8077628279560966 -0.1969687112143465
159 0.4005236644404395 0.8854301163072401 -0.2357844425727651
160 0.3011965006878389 0.9444543340905112 -0.1314788149895252
161 0.3588900625809243 0.9333315081937333 0.009498357409111792
162 0.4626843046075766 0.8814105989085631 -0.09507150152096813
163 0.7468975803933775 -0.5075937440837583 -0.4295260124480823
164 0.6405044387303905 -0.6236461971443754 -0.4481288706990727
165 0.5293864056557397 -0.6325981898149691 -0.5653048414348855
166 0.5267983304862099 -0.5284570379037602 -0.6657452050799356
167 0.6454527068222458 -0.524712924765499 -0.555037971529761
168 0.6388522885115654 0.7150480392561569 -0.283855694005706
169 0.5744820632776007 0.7077150795174112 -0.41122952860413
170 0.4220807693009677 0.7865448157512254 -0.4507716461814943
171 0.3327603030878296 0.8709371726211514 -0.3615785143444928
172 0.4934609742533682 0.805885611044453 -0.3271767852406789
173 -0.3510995566896656 -0.1204677063862146 0.9285562088588741
174 -0.4524484540393693 -0.01562153083950084 0.8916537243861067
175 -0.5672932045175273 -0.06375425391171373 0.8210443442448134
176 -0.579598228830976 -0.2169250120215885 0.7854994795004191
177 -0.4759721903034167 -0.3206095763910071 0.8189383209889174
178 -0.3625908630077744 -0.2727176403865582 0.8911525989892333
179 -0.4702865641464494 -0.1701760249096809 0.8659507307747175
180 -0.3310666877378068 -0.9380125934933348 0.1026022549373331
181 -0.3380704127821511 -0.9409237612910879 -0.01925802272139842
182 -0.06585517232753829 -0.9875050415597686 0.1431673467371313
183 -0.1956203413608861 -0.9632113755366758 0.1842729716550836
184 -0.2042617805156338 -0.9769324459301578 0.06229061814994425
185 -0.7753681390654548 -0.5906268488431643 -0.2235266748013928
186 -0.8523760386163187 -0.5068087369144357 -0.1288409600241567
187 -0.90777748642362 -0.3788718643845233 -0.1799892927932377
188 -0.8844942209979422 -0.3339899353679475 -0.3257617167411753
189 -0.805970560025539 -0.4172465004379035 -0.4199009576607817
190 -0.7521988437255727 -0.5458780292753899 -0.3690719125757582
191 -0.8392635943338501 -0.4674847763871156 -0.2776591490877175
192 0.5341521947618326 0.3795520518551093 -0.7553950441746977
193 0.3732968678385757 0.3871222869912873 -0.8430811250268532
194 0.4783864079785578 0.49718355555979 -0.7238473297196709
195 -0.3978298610477201 -0.7870625255315442 -0.4714488122401614
196 -0.5514691874409995 -0.734012333311422 -0.3963680484724844
197 -0.637702472975033 -0.6263078730255934 -0.4484127609108425
198 -0.5763098002536481 -0.577461045888463 -0.578278267456942
199 -0.4233935940020298 -0.629186258327322 -0.6518147872594705
200 -0.3325831561599905 -0.7304903623462183 -0.5964664908927827
201 -0.4928815966847912 -0.6898125642367792 -0.530307795408035
202 -0.2231711851853891 -0.5020838013384407 0.8355276647343821
203 -0.2365747745710714 -0.3638015540995452 0.9009332967936097
204 -0.4643979203745328 -0.4602386064655569 0.7566472075349591
205 -0.3371643333435086 -0.5505513556155909 0.7636841082220204
206 -0.3539758744193863 -0.4165729890120421 0.83735776413347
207 -0.9563249819233741 -0.2831715285413209 -0.07250113359686199
208 -0.9834327141341153 -0.1434282970335589 -0.1108531478166526
209 -0.961439962725384 -0.09876306555560191 -0.2566691546654408
210 -0.9110298190317175 -0.1938362897417414 -0.3639397774552702
211 -0.9449292915973978 -0.2414908789476743 -0.2208863718438049
212 0.4983043268973757 -0.2835632059747628 -0.8193196604577896
213 0.4711272417988219 -0.1417816029873813 -0.8705958299287695
214 0.5991654928582798 -0.1443113067811672 -0.7875118785789879
215 0.7172121292733226 -0.1052734325903984 0.6888572174361401
216 0.6368570939523895 -0.2105468651807961 0.7416758452619695
217 0.6532958769223571 -0.3347309576170366 0.6790873899646717
218 0.7485401604831216 -0.3527622415247527 0.5614681015857753
219 0.8261835116403184 -0.2463205079871352 0.5067020943696913
220 0.8115699274597773 -0.1231602539935677 0.5711267851179558
221 0.7400471252368019 -0.2313567289849771 0.6315095536744612
222 -0.1240355706463987 0.7689256885233816 0.6271909300550078
223 -0.1606849854761837 0.843201748875456 0.5130215844736856
224 -0.2946175977598404 0.8524397267348331 0.4319108511886035
225 -0.392921105592421 0.7921454300673055 0.4670317145585652
226 -0.3600688966118976 0.7255227891321473 0.5864870605073911
227 -0.2239415399703354 0.7117874458179014 0.6657393023186648
228 -0.2618865372279314 0.7900078850134437 0.5543491528227935
229 0.1106982342785852 0.8344729098574036 -0.5398155829926744
230 0.1774164185192376 0.896264452526214 -0.4064891703080079
231 0.2700549433965409 0.8214831769324542 -0.5022307413570511
232 0.05801042147667694 0.4297535409468382 -0.9010808426793639
233 -0.09475693146069129 0.467905651055558 -0.878683916804233
234 -0.1497326683564926 0.5922410008338346 -0.791726420525539
235 -0.05298464499120219 0.6805578419583282 -0.7307760608723984
236 0.002789515901483067 0.5625906942800264 -0.8267308687296933
237 -0.4661077401702801 -0.8614697886459873 -0.2015276105241976
238 -0.5835198129477613 -0.7691991649265999 -0.2604558937202821
239 -0.4372538099262351 -0.8325943758054662 -0.3399936927092884
240 0.4070734759516239 -0.7273121412965278 -0.5525470426120497
241 0.2808432338098626 -0.7160440604765441 -0.6390680570013511
242 0.2784195445991985 -0.6120182588191135 -0.7402136232583101
243 0.4021311606805029 -0.5188277851411958 -0.7543926424450551
244 0.4087011536978947 -0.6298136246735693 -0.6605287012246707
245 -0.2210376434636653 -0.05261373384713565 0.9738450365344028
246 -0.1902296026235107 0.1219764521212422 0.97413266212237
247 -0.290233648560839 0.2259929600984938 0.9298879562769828
248 -0.4222423773920585 0.1576453555876641 0.8926697690612926
249 -0.3251385648614677 0.05350125064128367 0.9441517514783541
250 -0.6569660245762475 0.04026441769690809 0.7528442197559932
251 -0.7596809429292358 -0.008768915683015478 0.6502368576664133
252 -0.7719696250689607 -0.1617362493156632 0.6147391996840528
253 -0.6815433888556992 -0.2656702495683875 0.6818489037912725
254 -0.6776302852733262 -0.1141517093009651 0.7264892179131487
255 0.3274198785464154 -0.4712955135957194 0.8189485710331251
256 0.4428428417057926 -0.5487245693069798 0.709077967919472
257 0.5507309182964492 -0.5154841635487047 0.656484221259614
258 0.5520822645415343 -0.4147815437532061 0.7232990005111293
259 0.4388962540855687 -0.3388935984234413 0.8321785908669288
260 0.3238544294510657 -0.3634219824604376 0.8735231944198448
261 0.4435342373562763 -0.4469815992540688 0.7768428607003229
262 0.3930521374160119 -0.4162882559131152 -0.8198866417142807
263 0.2623162910356218 -0.4086024285978154 -0.8742049066444789
264 0.2372546788817934 -0.2695819370409818 -0.9332929853855805
265 0.3417945573534832 -0.1347909685204911 -0.9300579957017974
266 0.3717378353745282 -0.2788942167517782 -0.885454119428823
267 0.2130762342711587 -0.5041389013567694 0.8369244210366978
268 0.2164759278798806 -0.6187223404493452 0.7551958938430673
269 0.3288700356714544 -0.6915911556661799 0.6430755578015495
270 0.4390385324155988 -0.6537922070345925 0.6162799015668073
271 0.3316673651482198 -0.5873623166479084 0.738242689010626
272 0.0571478473090722 -0.3369052743053331 0.9398026174113303
273 -0.09682140197300668 -0.2815786952301616 0.9546407986842282
274 -0.07008806318754797 -0.5603285879249792 0.8252996649415394
275 0.07075747599236359 -0.4767316117260934 0.8761965247432972
276 -0.0840403880090683 -0.4260095186314449 0.90080691783461
277 -0.07317346373729078 0.8326029749001548 -0.549015419084109
278 -0.1906317382786876 0.8871702693431076 -0.4202242895817944
279 -0.1235524167091708 0.9501681735920157 -0.2862083894964239
280 0.06123770802720115 0.957826880114419 -0.2807447432203382
281 -0.006773575678524084 0.907412345618966 -0.4201868080875619
282 0.4003957714556836 -0.8137673150523272 -0.4212671161542689
283 0.266516186745069 -0.8876087720224409 -0.3756591407535319
284 0.139964391021983 -0.8757472030659547 -0.4620355024973762
285 0.1473789009142853 -0.7906727957293477 -0.5942356347938371
286 0.2771097719973564 -0.8119430320971706 -0.5137690988103762
287 0.1458309583016141 -0.5988006024656785 -0.7875094730144987
288 0.1383624772219393 -0.4988128210762939 -0.8555942931243274
289 0.2730112714319826 -0.5139581754304063 -0.8132108211154964
290 -0.6211719908779711 0.1879078854884353 0.7608127130378165
291 -0.6882766856248871 0.2865476343251158 0.6664575434998843
292 -0.7909575399254021 0.2375305622054455 0.5638842097926853
293 -0.8265336994792639 0.0898737412492283 0.5556660456236179
294 -0.7324953382239199 0.1405228195688239 0.6661110392874847
295 0.7506734835869066 0.6144056462914903 -0.2428889105015592
296 0.7974378082729393 0.505724941578469 -0.329143168548741
297 0.6944352210619597 0.6141058515120731 -0.3750116356691601
298 0.04770124689185953 0.9985814522737825 -0.02365743476679831
299 0.1458667142722574 0.9781177584580528 -0.1483527965911324
300 -0.03796503861517849 0.9868539376610367 -0.1570922072091885
301 -0.1098970659863339 -0.790130611418668 -0.6030060130601992
302 0.02232148884411592 -0.747287035273668 -0.6641263720465207
303 0.01527182734320423 -0.8423678072708406 -0.5386865958637875
304 0.5179027802962153 -0.7915256420455 -0.3244439368302466
305 0.5027534606572511 -0.8448195316904714 -0.1830817212925705
306 0.3693929862812817 -0.9190208184574856 -0.1376573896597273
307 0.2509010549074272 -0.9394110557674229 -0.233571250260549
308 0.3893028181941762 -0.8766321135428699 -0.2827710261880328
309 -0.5060283661184766 0.232135290639656 0.8306915790611504
310 -0.4578861134674929 0.3749857978782025 0.8060558035789346
311 -0.523315780362805 0.4721214862745828 0.709395444178455
312 -0.6382047578464356 0.4280711717267217 0.6398826134524083
313 -0.5789108839352326 0.3338936495846083 0.7438932848388929
314 -0.8294614395253804 0.3330230922491426 0.4484298611480984
315 -0.903256676547836 0.2807135635874472 0.3245416329067723
316 -0.9392313473474481 0.1330556220605514 0.3164501186569172
317 -0.9010100128915709 0.03761352217603969 0.4321645284132464
318 -0.8754552403712671 0.1875115258007596 0.445440848820983
319 0.1055203499054515 0.9874358243592165 0.1176263088253025
320 0.2615049904660707 0.9558250857247683 0.1342145501075775
321 0.2059331870765606 0.9785404698101835 -0.007076115046815438
322 0.3467010444503193 -0.9379542528337602 0.006340770309704172
323 0.2054493122880787 -0.9771529357528697 0.05443087570399468
324 0.230862594271216 -0.9687664452239407 -0.09052092119799331
325 -0.763362200137797 0.4680537559848493 0.4452008905081581
326 -0.7714212798542915 0.5509600354647556 0.3183586787079037
327 -0.8448219474488837 0.4984637561857456 0.1944473216011811
328 -0.9104947318288049 0.3633305233996462 0.1974595504859965
329 -0.8469518197053927 0.4206137776690401 0.3252024986569191
330 0.01879126414313686 0.9750084258073772 0.2213717642259801
331 0.08782103515320717 0.935529635248041 0.3421575183410216
332 0.2424936252623083 0.9017764303012024 0.3577654419593429
333 0.3285326912190931 0.9097656786916003 0.2537571293090146
334 0.1759415021085368 0.9546445952022506 0.2402046724918621
335 0.4497963761087856 -0.8877635806977207 0.09777036783282293
336 0.4130129904188106 -0.8793005343839212 0.2371725953339935
337 0.272321313615549 -0.9189375974916996 0.2852977288148029
338 0.1681882494297514 -0.9665174373348315 0.1937956554762406
339 0.3126628635062327 -0.9383658288666678 0.1473482439646106
340 -0.6678156047339947 0.502113784967068 0.5494579738431447
341 -0.5812402652095403 0.6195452342948299 0.5275636992456054
342 -0.5889186442031703 0.7019092461208404 0.4006223168022136
343 -0.6834837626845316 0.6673057479450847 0.2958935364384391
344 -0.6836330477629093 0.5914637702893283 0.4275704204473557
345 -0.8201925795942933 0.5677777317958965 0.07008979708321185
346 -0.8626997707439391 0.5031488027861842 -0.05089585261280481
347 -0.9284523908567524 0.3683500648242898 -0.0478997667668831
348 -0.9514996501612665 0.2980842542532991 0.07611959740593775
349 -0.8959740875400233 0.4378834016664721 0.07408482301943972
350 0.2810132594367288 0.8344841945369121 0.4739912204765261
351 0.4054288536194158 0.7743636773766821 0.4857863108533506
352 0.4916972426593402 0.7825999723253949 0.3817998230453923
353 0.4533876770781997 0.8507379186274352 0.265865770800029
354 0.3706688601851766 0.8503935937147737 0.3734104067348608
355 0.23184196909458 -0.8754868516496773 0.4239953702045386
356 0.08658266604351965 -0.8781186157257886 0.4705434503386708
357 -0.01772104285014866 -0.9253470097547906 0.378706847281866
358 0.02320709436437926 -0.9703557749984365 0.240564130115748
359 0.1288293782650487 -0.9330067421160588 0.3360080511860083
360 -0.9421955606825191 0.2918123054828907 -0.1646605714763356
361 -0.9770300678388193 0.1440612056759535 -0.1570306198104775
362 -0.9967688010379554 0.07339631485421179 -0.03263339153655735
363 -0.9850707546209196 0.1504701335895471 0.08363221441595181
364 -0.9738551416050611 0.2234473633543269 -0.04095654989602659
365 -0.8869639024136907 0.3493449014017785 -0.3020814057165029
366 -0.8644235974707608 0.2580881647263613 -0.4314653443370474
367 -0.8991014035277922 0.1099588553986898 -0.4237047513230932
368 -0.9565432255720112 0.05313061434597594 -0.2867092524344336
369 -0.9325810557150037 0.2035887268141275 -0.2980674501445802
370 -0.8253860745260699 0.495968800748845 -0.26972722640141
371 -0.7468340173954097 0.5540324018219854 -0.3678138771068798
372 -0.7295940426113088 0.4666359213098373 -0.4999434467311348
373 -0.7861438686171052 0.3168139711656734 -0.5306663033488818
374 -0.8163291922066064 0.4114910694067966 -0.4053168510557639
375 -0.8475315476344027 0.0146668040280459 -0.5305423268920559
376 -0.8544482672899679 -0.13724645528193 -0.5010804017697327
377 -0.9161334146524831 -0.04245254365690546 -0.3986193022098151
378 -0.7556119415007196 0.07875995747431591 -0.6502672242702665
379 -0.6713901688821942 -0.008905359308975919 -0.7410505621777214
380 -0.6809249996146827 -0.1612991651632643 -0.7143694591857762
381 -0.7724096807410478 -0.2256539947071818 -0.5936864153492176
382 -0.7733041422266423 -0.07434701667754059 -0.629661198364856
383 -0.5630846382565021 -0.2405851902091301 -0.7906038555506676
384 -0.5390008832200724 -0.3845997048145849 -0.7493738152247621
385 -0.6319549008576618 -0.4500038669460598 -0.6309750573640577
386 -0.7475038531341287 -0.3698650905971839 -0.5517588280283044
387 -0.6644136402538521 -0.3092413264670579 -0.6803854177225724
388 -0.4589906600248194 -0.166744491932162 -0.8726533380559922
389 -0.3308129274991152 -0.2369183083827514 -0.9134727812871715
390 -0.3067291724931484 -0.3809328228061303 -0.8722427410134301
391 -0.410823150012878 -0.4547735207789083 -0.7901932575084732
392 -0.4400008282613028 -0.3143988255388284 -0.8411614884367763
393 -0.7002543225996828 -0.5037192908467255 -0.5058762296346124
394 -0.4888319201475461 0.0005995196652489726 -0.8723777819391288
395 -0.3918514253832316 0.09754669927144384 -0.9148426650995111
396 -0.2661682704310465 0.02776427378477096 -0.9635266456704503
397 -0.2350096675426889 -0.1405852462353375 -0.9617724495442903
398 -0.3661444891402723 -0.07064762364203188 -0.9278723653315378
399 0.9486028154816175 -0.130250845699299 -0.2884222870288735
400 0.9000872982331519 -0.2605016913985975 -0.3492588214173191
401 0.893112816960499 -0.1317690658831038 -0.4301004643768436
402 0.8969690810265973 0.2653760142621097 -0.3535845566998906
403 0.9475677460831067 0.1326880071310547 -0.2907047631989719
404 0.8916675727971812 0.1342389388108782 -0.432329558241063
405 0.9486028154810502 0.1302508456971997 0.288422287031687
406 0.9000872982321697 0.2605016913943998 0.3492588214229815
407 0.8342567933485048 0.2605016913943998 0.4859572733610715
408 0.8169418057137204 0.1302508456971998 0.5618191909078669
409 0.893112816959583 0.1317690658808741 0.4301004643794288
410 0.7570681664125826 0.3839671083958089 0.528599140251714
411 0.6625645518418727 0.3771816797000166 0.6471029246891505
412 0.6452495642070849 0.2469308340028149 0.7229648422359426
413 0.7224381911430099 0.1234654170014074 0.680322975345302
414 0.7484176665379056 0.256687958550358 0.6115409130624098
415 0.365946557220157 0.1302508456968443 0.9214759000939586
416 0.2881337091123046 0.2605016913936888 0.9214759000940899
417 0.1402139073363035 0.2605016913936928 0.9552376295825619
418 0.07010695366815174 0.1302508456968464 0.9889993590708883
419 0.2205806496077287 0.1317690658805072 0.9664269710100246
420 0.07010695366797373 -0.1302508456968 0.9889993590709071
421 0.1402139073359475 -0.2605016913936002 0.9552376295826394
422 0.2881337091119587 -0.2605016913936107 0.9214759000942201
423 0.3659465572199878 -0.1302508456968053 0.9214759000940314
424 0.2205806496075528 -0.1317690658804631 0.9664269710100708
425 0.07010695366828336 0.1302508456810616 -0.9889993590729579
426 0.1402139073365666 0.2605016913621231 -0.9552376295911326
427 0.2881337091120131 0.2605016913621974 -0.9214759001030837
428 0.3659465572191162 0.1302508456810986 -0.9214759000965976
429 0.2205806496072565 0.1317690658641857 -0.9664269710123577
430 0.04211232283512951 0.3287322357073042 -0.9434837939637899
431 -0.1281957770239499 0.26281118457002 -0.9562929070207143
432 -0.2763816987064224 0.2950977671726258 -0.9146203936223394
433 -0.2603659832655067 0.3973331618762486 -0.8799635863100295
434 -0.1104034481716844 0.3678177202788724 -0.9233207477798034
435 -0.5582698032346256 -0.4951460608326468 0.6657065458881152
436 -0.5252482163658104 -0.6205789274398836 0.5822337211310407
437 -0.3959157719720587 -0.7069613541501236 0.5860514868524712
438 -0.3022905456634314 -0.6719812193560311 0.6760633600745469
439 -0.43551591512293 -0.5905958196794522 0.6793544475837285
440 0.5429668449945666 0.6003632278623879 0.5871550049750924
441 0.5550426633962461 0.4850724819270053 0.6757457577278428
442 0.745751515208873 0.4999718683628169 0.4403212559137522
443 0.639040512014705 0.6087824755376948 0.4701181994798539
444 0.6580187908723639 0.4982639726591029 0.5645744276965092
445 -0.8280642699728229 0.5399152606737501 -0.1510002519400955
446 -0.7545530239881793 0.6430698709095256 -0.1308085437526931
447 -0.7568767662685985 0.6033176076150877 -0.2512875345583152
448 -0.760068699738039 -0.6469463103422984 0.0612865663340115
449 -0.8447548912069281 -0.5349814717575907 0.01356461050134726
450 -0.6901413020388214 -0.7020295484914028 -0.1756687116851419
451 -0.6824742809169982 -0.7301471522427897 -0.03337651807139976
452 -0.776004654937769 -0.6253769481205945 -0.08197834027525318
453 0.9804119498146451 -0.1287621535231612 -0.1490393118634266
454 0.9636971807886163 -0.2575243070463227 -0.07049095701140733
455 0.9128227416804768 -0.3867769099405263 -0.1309895576288254
456 0.8811035401929468 -0.3882628582393451 -0.2700157483764054
457 0.9416229521558146 -0.2614822629433139 -0.2120689560954457
458 -0.4628324199086624 0.6589432966761433 0.5929417196041007
459 -0.434524006854694 0.5861602802987755 0.6838165055532097
460 -0.2999721534395374 0.5729250712389062 0.762740827481223
461 -0.1934731676533427 0.6321499189923219 0.7503030143323313
462 -0.3320035854795525 0.6540625382592378 0.6796880279029525
463 0.6477274853018157 -0.5354663845281127 0.541963887934406
464 0.7439121960842064 -0.4523197273683804 0.4919364885333951
465 0.6557677520785185 -0.4382277992583904 0.6147560908938069
466 0.9796138833236044 -0.1286573396639865 0.1542852181844815
467 0.9629127203098929 -0.2573146793279733 0.08116802860575102
468 0.9914874929554907 -0.1301749085358342 0.002654147796033496
469 0.0384772020901353 0.8977181939117496 0.4388867157241619
470 -0.07889395790777635 0.9051122644844337 0.4177888606527304
471 -0.006023952459397053 0.7613646731311481 0.6482958788274588
472 0.07532371573614116 0.8281952609313954 0.5553547943598568
473 -0.04307105215156872 0.8415528867395813 0.5384548479555499
474 -0.6032210203475784 -0.6460844260835885 0.4676529856454104
475 -0.7144766909437198 -0.5465530500474571 0.4368098231289381
476 -0.775815502618503 -0.5512380988008947 0.3069965216857914
477 -0.7259728365439335 -0.655494688917774 0.2080628592539904
478 -0.6131914765614224 -0.7531309696097648 0.2383064323241785
479 -0.551941862908397 -0.7484086392133447 0.3677562898442909
480 -0.6716988720734509 -0.6574405163248908 0.3414565752035169
481 -0.3474276906342692 -0.7904056435496385 0.504532375993276
482 -0.2030420263806361 -0.8354258462685166 0.5107226164071628
483 -0.1082424835799034 -0.7948513497674285 0.5970719358011657
484 -0.1582267400288306 -0.7152327522268718 0.6807396043141777
485 -0.2550654466245701 -0.7597843293383799 0.5980546721078573
486 0.7819350484186102 0.6151164017733126 -0.1010415376171525
487 0.8603936034751768 0.5075909055538728 -0.04554469999900741
488 0.9073910049570264 0.3990921577448149 -0.131783966208585
489 0.8756588743047917 0.3980034369043118 -0.273522942481285
490 0.8378005172395478 0.5120902959317627 -0.1893510552536373
491 -0.3695309453167401 0.9018833517574871 0.223725949044802
492 -0.2829698741106551 0.9075288647380712 0.3103536853543514
493 -0.147320830204863 0.9433032108698289 0.297448525547566
494 -0.09859176074203227 0.9751007128135868 0.1986410445608381
495 -0.236492490227918 0.9480088255119169 0.2129567299178726
496 0.894836699160557 -0.2471608795034154 0.3717240663160473
497 0.9460077555973876 -0.1235804397517079 0.2996618114814897
498 0.8890652880862384 -0.1246697279863855 0.4404774369294465
499 0.5248663996634803 0.2461052601742174 0.8148297143691291
500 0.4835710831261606 0.1230526300871087 0.8666124034381444
501 0.6100595448633305 0.124554521204939 0.7825046472504521
502 -0.09767678798517844 0.0644266199169628 -0.9931306337712948
503 -0.1953535759703569 0.1288532398339256 -0.972231362865802
504 -0.02818493877542085 0.1988491384074236 -0.9796247390612648
505 -0.3888885179531993 -0.5615416372845242 -0.7303675172130671
506 -0.2657643781643331 -0.5974507861718614 -0.756585655032892
507 -0.1744306655406337 -0.6946978296460441 -0.6978315472978615
508 -0.2069616074512509 -0.7593238032239963 -0.6169232163718918
509 -0.3014997954388121 -0.6676521871163963 -0.6806896726034904
510 -0.860306194738837 -0.4390017134678778 0.2591346114787632
511 -0.8952317269509689 -0.4311721500663272 0.1124754731822301
512 -0.8196850531240135 -0.5493879204439663 0.1621398364231844
513 0.8774421842436207 -0.3756391298593494 0.2983126839882855
514 0.9118709610462101 -0.380823559423654 0.1531821366496754
515 0.9394113604557984 -0.2550686113024728 0.2290115703950653
516 0.08777380798475533 -0.2674407802092287 -0.9595682298372192
517 0.04388690399237765 -0.1337203901046143 -0.9900468660261662
518 0.1950588190491472 -0.13598516723833 -0.971318738315243
519 -0.6669740118804368 -0.3940196238924766 0.6323718869966835
520 -0.7449619365628798 -0.4197674763759333 0.5184852735126274
521 -0.6426180638646047 -0.5263719574768146 0.5567536137080146
522 0.709983755170896 0.7033625466276675 -0.03470151862491785
523 0.7204363319672903 0.6881359958005949 0.08625742208668086
524 0.8003195928145912 0.5825709124924002 0.1417733447262178
525 0.8680433458408134 0.4906608552629122 0.07584638985577052
526 0.7973607656082453 0.6031543119705718 0.02051061724909809
527 -0.7486528763139758 0.2418527920497587 -0.6172731144028121
528 -0.6623093286143696 0.3182388892832493 -0.6782848683098767
529 -0.5848031554670599 0.233566932745649 -0.7768215736471016
530 -0.5874381054842176 0.06825926592521617 -0.8063852335208426
531 -0.6758749603504804 0.156846119883967 -0.7201335519530948
532 0.9797965126506549 0.1338351675708548 -0.1486167612313507
533 0.9610141027455202 0.26767033514171 -0.0693143997257951
534 0.9600432655865527 0.2673999288001522 0.08254820579262315
535 0.978806701096391 0.133699964400076 0.1551185398597426
536 0.9907835790407166 0.1354143929278378 0.003292672357408543
537 0.9390859017721876 0.2691269607182317 -0.2137483288993966
538 0.9071694591128855 0.3958177676086283 0.1427300504384295
539 0.8775370386853123 0.3924437945392187 0.2755296968805218
540 0.9389894293167664 0.2660600936569672 0.217969902038376
541 -0.5666570706241905 -0.8235640817289261 0.02533707950024577
542 -0.4572282950490625 -0.8874266905438706 -0.05844788376734396
543 -0.4412313152896363 -0.8778203398978324 0.1864038016496219
544 -0.5572251932434101 -0.8171502432010219 0.147531569676985
545 -0.4530860615875162 -0.8891263410056923 0.06455517426932404
546 -0.5567611936561175 0.54951650528962 0.6229354570522521
547 -0.740497882717165 0.6660523634162246 0.08965006904100556
548 -0.7094446228462933 0.7046863787769325 -0.01026813910766196
549 -0.7926089077792381 0.6089504209689418 -0.03083024668652113
550 0.5207504088772206 0.8367914566721331 0.1691125947253407
551 0.6269629802144882 0.7559030755862658 0.1884886250143265
552 0.6225530107181892 0.7796456156882683 0.06767911630465648
553 0.5642434276488534 -0.8246356109159859 0.04006823635115368
554 0.6434036744988813 -0.7558011331044578 0.1216402846073422
555 0.6083788507030098 -0.7493909258410547 0.2613205202129591
556 0.4922342276551432 -0.8099521817552101 0.3188776072331198
557 0.5337054245999922 -0.8259967311113281 0.1813502686679632
558 -0.5810558959719688 -0.8051389151331596 -0.1188502128496678
559 0.07711383413983303 -0.7033931181350939 0.7066056735863675
560 -0.06622302500359328 -0.6715625384623943 0.7379825661174649
561 0.03409560677504916 -0.8246354472608718 0.5646360497873858
562 0.1263196268742438 -0.7767494835563511 0.6170118245716963
563 -0.01602434876138204 -0.754107858574606 0.6565550684312746
564 -0.2403907236079074 0.3662835529708579 0.8989152678791875
565 -0.3236635067091755 0.4402858180257189 0.8374904971819938
566 -0.3775853154014412 0.3025077718080083 0.8751676282798332
567 -0.4826195299594821 0.328160908235365 -0.8120275904227817
568 -0.3884462919313484 0.2611302168438239 -0.8836970567654298
569 -0.4931415644968368 0.1666354582995294 -0.8538407470968564
570 -0.6349778772914505 0.5373984644939532 -0.5549828697446301
571 -0.6047442049315015 0.4655131912374719 -0.6462057840855892
572 -0.7014293478958449 0.3948027143963347 -0.5934034770842652
573 -0.8466350038678406 -0.1867820000306963 0.4983188283521249
574 -0.8345304055114162 -0.3160068124675482 0.4513299200707293
575 -0.7656968766806042 -0.2936433613849097 0.5722603160766426
576 0.07413919195404961 -0.596180411196898 0.7994199756833064
577 0.4776825529187717 -0.1046391079287716 0.8722786456912009
578 0.5154157052722635 -0.2092782158575429 0.8309929476994247
579 0.6044414610880536 -0.1057770522290532 0.7895959316887791
580 0.528492077690171 0.1235265478522228 -0.8399031585810586
581 0.6104398957478718 0.2470530957044458 -0.7525476075187385
582 0.6505395757420469 0.1241666973694987 -0.749253556319694
583 0.446121181604943 0.3749184399417196 0.812657403039606
584 0.3275900169901146 0.3816631533722858 0.8643020410286786
585 0.4100383984902051 0.2551107425550526 0.8756637601251963
586 0.8015049116413858 -0.4755356094586167 0.3625682842604356
587 0.7625448225203652 -0.5817363931390436 0.2830338540615959
588 0.7974290316468571 -0.5873172366671743 0.138439167147127
589 0.8707652760898706 -0.4862142720896712 0.07323602646541268
590 0.8456557704735964 -0.4861098987974256 0.2203712416715591
591 0.3221832826996721 -0.8201425750082 0.472825643348351
592 0.2704596757133417 -0.7748239197101005 0.5714013101648524
593 0.1800942368121993 -0.8322527127323632 0.5243295605024133
594 0.6673056600025462 -0.6659051007673816 0.3335769070252759
595 0.6099540070794737 -0.6428532860486774 0.4633527402143111
596 0.4913392018522847 -0.6999373943965288 0.518337180461288
597 0.4328164412972444 -0.783146954094059 0.4464871514791739
598 0.555744790946598 -0.7321049091771152 0.3939163988646449
599 0.5948225687690692 0.6978219371806242 0.3990371607663211
600 0.6624970101865791 0.6850354194767883 0.3030250576373253
601 0.5630920604593113 0.7749702557095279 0.2869641688664216
602 -0.3788820129868416 -0.8703255570766921 0.3146138028348155
603 -0.4335625311147015 -0.8051499463076833 0.404669118631689
604 -0.5007152627068227 -0.8194089955210947 0.279021726307376
605 -0.1472097365955819 -0.8964989245255374 0.4178743492678322
606 -0.2360611932095503 -0.9170260844833964 0.3214627092487308
607 -0.107450673702348 -0.9528364307536842 0.2838258074056884
608 -0.04359168454564682 -0.6515281116874995 -0.7573710350412102
609 0.05454443786195275 -0.6737477222793524 -0.7369456635476649
610 -0.07683227376396105 -0.725109635051881 -0.6843338504437638
611 -0.4262589052007021 0.6103682116222174 -0.6676481049012234
612 -0.5015440732387056 0.5027924005259027 -0.7040265226342883
613 -0.5347701469426414 0.5782875924951035 -0.6161204024418951
614 0.8158938654372422 -0.4797888620494077 -0.3226760731681383
615 0.7855489820919931 -0.5712723040965839 -0.2378250434803151
616 0.6802998042636716 -0.6866327958328617 -0.2563739066394192
617 0.6051015687770511 -0.7102518873230452 -0.359714258846663
618 0.7193448078969934 -0.6023471309599387 -0.3460071981562927
619 -0.08780696138112518 0.7501314370748853 -0.6554332648294418
620 -0.2192435811822749 0.7337375043768952 -0.6430874954321044
621 -0.2063022546407917 0.8179754591334474 -0.5369874560784003
622 -0.9982686805493528 -0.05014017771185254 -0.03075067500524157
623 -0.9915220251770659 -0.09661543792268128 0.08688803567683209
624 -0.9790636524093393 -0.01978922964508313 0.2025901056837142
625 -0.9741563099659609 0.1033953608455988 0.2008205246211429
626 -0.9959501583082537 0.02710674712566782 0.08572342985455902
627 0.7688797251067273 0.5778177606988555 0.2737710790802482
628 0.8069127639240659 0.482764949502441 0.3403377659742308
629 0.8453888734826822 0.4911215238612603 0.2100411897506653
630 0.7124348371803302 -0.5645500623291504 0.4167971087903428
631 0.7092399213535779 0.5971695759011988 0.3746561511257394
632 -0.2790442648224604 0.5706275086640384 -0.7723461300644714
633 -0.3138206602636407 0.6418549224886241 -0.6996705307991862
634 -0.1850212834615893 0.6671864559310353 -0.7215465041758645
635 -0.9436335772660999 -0.327849770451744 0.04549944912548387
636 -0.9638311165293706 -0.2354159844440934 0.12493555569959
637 -0.9815352175783028 -0.1911507266968489 0.007072222902340149
638 -0.1815606664763677 -0.4139768238334445 -0.8919971489401917
639 -0.1619772375162408 -0.5231212730471758 -0.8367242725128209
640 -0.288831817924784 -0.4930885796451797 -0.8206337999240366
641 0.03847958410772429 0.6804336589019471 0.7317987137459353
642 0.1640121191000065 0.6688664007470027 0.7250639714811896
643 0.2449461058308735 0.7351021634876224 0.6321599595625361
644 0.2004857740017537 0.8132189513312403 0.5463335900515686
645 0.12045089394879 0.7543623484205021 0.6453131251047374
646 -0.08245467127832767 -0.07438691901083153 0.9938147782481698
647 -0.1649093425566552 -0.148773838021663 0.9750237196385715
648 -0.01257051225311915 -0.2079958762920651 0.9780489239640265
649 -0.2936656495106332 -0.86045165862719 0.4163933590527298
650 0.6642475271896636 -0.7385084779173727 -0.1156738979484239
651 0.574124112336079 -0.8149923754693439 -0.07854254618450768
652 0.5960782030548281 -0.7716802990412031 -0.2218113881535541
653 -0.3549006354124401 0.4651971335597043 -0.8109483127250965
654 -0.4647871005682752 0.4294683771401352 -0.7742931384055749
655 -0.3931835151068067 0.540719639975771 -0.7436591923675308
656 -0.05218491752856241 0.09707786937541842 0.9939077530938504
657 -0.104369835057125 0.1941557387508369 0.9754027304863696
658 -0.1375531704998328 0.02318248945948319 0.9902230544013327
659 -0.8761886546128451 -0.3441425651250664 0.3374304912079996
660 -0.9311786908995471 -0.2437178610500156 0.2711233110962812
661 -0.920186835211927 -0.3402410601604037 0.1936290507222052
662 0.8781050768935367 -0.4762897659681293 -0.04560189434465096
663 0.816228380623218 -0.5691487230372186 -0.09920162161125465
664 0.8558060539553934 -0.4826746010625361 -0.1860678035083442
665 -0.02998953978050245 0.9462894397445758 0.3219268919050573
666 0.3676935057539427 0.6729801703137288 0.6417937177870159
667 0.4469326138034704 0.69113620345797 0.5679630155111347
668 0.326901538012649 0.7596119208764487 0.5622500458936011
669 0.08691764022055404 0.3562033197705658 0.9303571995760115
670 -0.0350963237072281 0.3242351856517851 0.9453252310435758
671 0.01804970121219544 0.229068503203154 0.9732429445551697
672 0.7312738663520628 -0.6768740028202063 0.08414342931362254
673 0.7424012452088262 -0.6690796888054902 -0.03424560030621462
674 0.8128053519480098 -0.5822006690720322 0.01974438595525279
675 -0.9413595294781495 -0.1144541701982204 0.3173995576318811
676 -0.898542708389075 -0.08590468148377804 0.4303967784498353
677 -0.9474705673268686 0.009269907567716666 0.31970860617598
678 -0.4810816778087199 0.7891950319244436 0.3817481117995523
679 -0.4692571592352256 0.8440336235904783 0.2596246535967126
680 -0.5643891341467118 0.8107434315788351 0.155434852619674
681 -0.6706607785235685 0.7212688938376853 0.1731626487794717
682 -0.582104188038762 0.7631925699530161 0.2805206149933447
683 -0.05133456488388225 -0.5552380194480938 -0.8301057186934329
684 0.0399045166237101 -0.4774117896486274 -0.8777730986180442
685 0.04764140541175208 -0.5798271302770718 -0.8133454342928647
686 -0.06704684701804009 -0.1016089959932557 -0.9925625079752821
687 -0.1340936940360802 -0.2032179919865114 -0.969907897149378
688 -0.1678998558447528 -0.03789647500672941 -0.9850753755877646
689 0.4049959900235299 -0.2365203480619273 0.8831966785589298
690 0.4569246372167599 0.2586743328059853 -0.8510625508455362
691 0.3818415276615577 0.561921738031251 0.7337853964757176
692 0.4735727086008762 0.4652601471614171 0.7478381409982818
693 0.4655165385615915 0.5842287938132623 0.6648090468737131
694 0.6584149982194414 -0.7526492336560516 0.002970049940868859
695 -0.8958192061619409 -0.2171488331206545 0.3877555082081079
696 0.3836507401243198 -0.7427403345850553 0.5487703572374711
697 0.1110826479222846 0.4931233240914774 0.8628383583079426
698 0.01168359813949117 0.5951952945673905 0.8034961448938956
699 -0.1112691863682555 0.563159948121572 0.8188223500837375
700 -0.1347964402390058 0.4288421297153222 0.8932661123540504
701 -0.01214334912378592 0.4654000541667493 0.8850171346666936
702 0.2619135866391796 0.5659515730333802 0.7817289108858924
703 0.2351057977677247 0.4764729390540244 0.8471710584086438
704 0.3573605203861089 0.4747756216767829 0.8042894799329368
705 -0.6417800674113771 0.7633902192110571 0.07316910745897008
706 -0.3742358649818814 0.3654170565994588 -0.8523015265194889
707 0.1379726879937347 0.5851196716941142 0.7991235869152878
708 -0.2190411390326404 0.5052236051963946 0.8347275532553368
709 -0.3848895896412722 0.8546520640492534 0.3484678653794694
710 0.02022934125098403 -0.3669140270265475 -0.9300348759717095
711 -0.09025191344470807 -0.3355618221987848 -0.9376848380997743
712 -0.02328469237849828 -0.2365581804143386 -0.971338278037006
713 -0.07136895218568318 -0.448858439114596 -0.8907483226476075
$EndNodes
$Elements
167
1 15 2 0 1 1
2 15 2 0 2 2
3 26 2 0 2 2 3 9 10
4 26 2 0 2 3 4 11 12
5 26 2 0 2 4 5 13 14
6 26 2 0 2 5 6 15 16
7 26 2 0 2 6 7 17 18
8 26 2 0 2 7 8 19 20
9 26 2 0 2 8 1 21 22
10 21 2 0 1 60 93 61 96 97 98 99 100 101 102
11 21 2 0 1 31 83 29 103 104 105 106 107 108 109
12 21 2 0 1 60 90 71 110 111 112 113 114 115 116
13 21 2 0 1 72 93 60 117 118 97 96 119 120 121
14 21 2 0 1 71 72 60 122 123 120 119 115 114 124
15 21 2 0 1 46 55 53 125 126 127 128 129 130 131
16 21 2 0 1 52 53 47 132 133 134 135 136 137 138
17 21 2 0 1 4 26 23 139 140 141 142 143 144 145
18 21 2 0 1 29 83 42 106 105 146 147 148 149 150
19 21 2 0 1 4 52 47 151 152 137 136 153 154 155
20 21 2 0 1 67 74 58 156 157 158 159 160 161 162
21 21 2 0 1 26 27 23 163 164 165 166 142 141 167
22 21 2 0 1 58 74 53 159 158 168 169 170 171 172
23 21 2 0 1 50 51 43 173 174 175 176 177 178 179
24 21 2 0 1 44 83 31 180 181 104 103 182 183 184
25 21 2 0 1 76 78 66 185 186 187 188 189 190 191
26 21 2 0 1 46 53 52 130 129 133 132 192 193 194
27 21 2 0 1 42 76 75 195 196 197 198 199 200 201
28 21 2 0 1 40 50 43 202 203 178 177 204 205 206
29 21 2 0 1 66 78 64 188 187 207 208 209 210 211
30 21 2 0 1 4 23 3 144 143 212 213 11 12 214
31 21 2 0 1 7 35 24 215 216 217 218 219 220 221
32 21 2 0 1 82 94 68 222 223 224 225 226 227 228
33 21 2 0 1 55 58 53 229 230 171 170 128 127 231
34 21 2 0 1 46 59 55 232 233 234 235 126 125 236
35 21 2 0 1 42 83 76 147 146 237 238 196 195 239
36 21 2 0 1 27 28 23 240 241 242 243 166 165 244
37 21 2 0 1 50 81 51 245 246 247 248 174 173 249
38 21 2 0 1 51 54 43 250 251 252 253 176 175 254
39 21 2 0 1 25 38 35 255 256 257 258 259 260 261
40 21 2 0 1 23 37 3 262 263 264 265 213 212 266
41 21 2 0 1 25 39 38 267 268 269 270 256 255 271
42 21 2 0 1 25 50 40 272 273 203 202 274 275 276
43 21 2 0 1 55 60 58 277 278 279 280 230 229 281
44 21 2 0 1 27 29 28 282 283 284 285 241 240 286
45 21 2 0 1 28 37 23 287 288 263 262 243 242 289
46 21 2 0 1 51 56 54 290 291 292 293 251 250 294
47 21 2 0 1 53 74 47 169 168 295 296 135 134 297
48 21 2 0 1 60 61 58 101 100 298 299 280 279 300
49 21 2 0 1 29 42 28 149 148 301 302 285 284 303
50 21 2 0 1 27 30 29 304 305 306 307 283 282 308
51 21 2 0 1 51 84 56 309 310 311 312 291 290 313
52 21 2 0 1 56 57 54 314 315 316 317 293 292 318
53 21 2 0 1 61 67 58 319 320 161 160 299 298 321
54 21 2 0 1 30 31 29 322 323 108 107 307 306 324
55 21 2 0 1 56 62 57 325 326 327 328 315 314 329
56 21 2 0 1 61 70 67 330 331 332 333 320 319 334
57 21 2 0 1 30 32 31 335 336 337 338 323 322 339
58 21 2 0 1 56 68 62 340 341 342 343 326 325 344
59 21 2 0 1 62 63 57 345 346 347 348 328 327 349
60 21 2 0 1 70 73 67 350 351 352 353 333 332 354
61 21 2 0 1 32 33 31 355 356 357 358 338 337 359
62 21 2 0 1 63 64 57 360 361 362 363 348 347 364
63 21 2 0 1 63 65 64 365 366 367 368 361 360 369
64 21 2 0 1 63 71 65 370 371 372 373 366 365 374
65 21 2 0 1 65 66 64 375 376 210 209 368 367 377
66 21 2 0 1 65 69 66 378 379 380 381 376 375 382
67 21 2 0 1 69 75 66 383 384 385 386 381 380 387
68 21 2 0 1 69 86 75 388 389 390 391 384 383 392
69 21 2 0 1 75 76 66 198 197 190 189 386 385 393
70 21 2 0 1 69 87 86 394 395 396 397 389 388 398
71 21 2 0 1 5 26 4 399 400 140 139 13 14 401
72 21 2 0 1 4 47 5 154 153 402 403 14 13 404
73 21 2 0 1 6 48 7 405 406 407 408 18 17 409
74 21 2 0 1 48 80 7 410 411 412 413 408 407 414
75 21 2 0 1 8 49 1 415 416 417 418 22 21 419
76 21 2 0 1 1 25 8 420 421 422 423 21 22 424
77 21 2 0 1 2 46 3 425 426 427 428 10 9 429
78 21 2 0 1 46 87 59 430 431 432 433 233 232 434
79 21 2 0 1 40 43 41 205 204 435 436 437 438 439
80 21 2 0 1 73 80 48 440 441 411 410 442 443 444
81 21 2 0 1 63 72 71 445 446 123 122 371 370 447
82 21 2 0 1 45 78 76 448 449 186 185 450 451 452
83 21 2 0 1 5 34 26 453 454 455 456 400 399 457
84 21 2 0 1 68 84 82 458 459 460 461 227 226 462
85 21 2 0 1 35 38 24 258 257 463 464 218 217 465
86 21 2 0 1 6 34 5 466 467 454 453 15 16 468
87 21 2 0 1 70 94 82 469 470 223 222 471 472 473
88 21 2 0 1 41 77 45 474 475 476 477 478 479 480
89 21 2 0 1 40 41 33 438 437 481 482 483 484 485
90 21 2 0 1 74 79 47 486 487 488 489 296 295 490
91 21 2 0 1 93 94 61 491 492 493 494 99 98 495
92 21 2 0 1 7 24 6 220 219 496 497 17 18 498
93 21 2 0 1 7 80 8 413 412 499 500 20 19 501
94 21 2 0 1 2 87 46 502 503 431 430 426 425 504
95 21 2 0 1 75 92 42 505 506 507 508 200 199 509
96 21 2 0 1 77 78 45 510 511 449 448 477 476 512
97 21 2 0 1 24 34 6 513 514 467 466 497 496 515
98 21 2 0 1 3 37 2 265 264 516 517 9 10 518
99 21 2 0 1 43 77 41 519 520 475 474 436 435 521
100 21 2 0 1 74 89 79 522 523 524 525 487 486 526
101 21 2 0 1 65 85 69 527 528 529 530 379 378 531
102 21 2 0 1 5 79 6 532 533 534 535 16 15 536
103 21 2 0 1 47 79 5 489 488 533 532 403 402 537
104 21 2 0 1 6 79 48 535 534 538 539 406 405 540
105 21 2 0 1 45 83 44 541 542 181 180 543 544 545
106 21 2 0 1 56 84 68 312 311 459 458 341 340 546
107 21 2 0 1 62 72 63 547 548 446 445 346 345 549
108 21 2 0 1 67 89 74 550 551 523 522 157 156 552
109 21 2 0 1 30 36 32 553 554 555 556 336 335 557
110 21 2 0 1 76 83 45 238 237 542 541 451 450 558
111 21 2 0 1 39 40 33 559 560 484 483 561 562 563
112 21 2 0 1 81 84 51 564 565 310 309 248 247 566
113 21 2 0 1 85 87 69 567 568 395 394 530 529 569
114 21 2 0 1 71 85 65 570 571 528 527 373 372 572
115 21 2 0 1 54 77 43 573 574 520 519 253 252 575
116 21 2 0 1 25 40 39 275 274 560 559 268 267 576
117 21 2 0 1 8 35 7 577 578 216 215 19 20 579
118 21 2 0 1 3 52 4 580 581 152 151 12 11 582
119 21 2 0 1 8 80 49 500 499 583 584 416 415 585
120 21 2 0 1 24 36 34 586 587 588 589 514 513 590
121 21 2 0 1 32 39 33 591 592 562 561 356 355 593
122 21 2 0 1 36 38 32 594 595 596 597 556 555 598
123 21 2 0 1 73 89 67 599 600 551 550 353 352 601
124 21 2 0 1 41 45 44 479 478 544 543 602 603 604
125 21 2 0 1 33 44 31 605 606 183 182 358 357 607
126 21 2 0 1 42 92 28 508 507 608 609 302 301 610
127 21 2 0 1 71 90 85 113 112 611 612 571 570 613
128 21 2 0 1 26 88 27 614 615 616 617 164 163 618
129 21 2 0 1 55 90 60 619 620 111 110 278 277 621
130 21 2 0 1 64 91 57 622 623 624 625 363 362 626
131 21 2 0 1 79 89 48 525 524 627 628 539 538 629
132 21 2 0 1 24 38 36 464 463 595 594 587 586 630
133 21 2 0 1 48 89 73 628 627 600 599 443 442 631
134 21 2 0 1 59 90 55 632 633 620 619 235 234 634
135 21 2 0 1 78 91 64 635 636 623 622 208 207 637
136 21 2 0 1 86 92 75 638 639 506 505 391 390 640
137 21 2 0 1 82 95 70 641 642 643 644 472 471 645
138 21 2 0 1 1 50 25 646 647 273 272 421 420 648
139 21 2 0 1 41 44 33 603 602 606 605 482 481 649
140 21 2 0 1 27 88 30 617 616 650 651 305 304 652
141 21 2 0 1 85 90 59 612 611 633 632 653 654 655
142 21 2 0 1 1 81 50 656 657 246 245 647 646 658
143 21 2 0 1 77 91 78 659 660 636 635 511 510 661
144 21 2 0 1 34 88 26 662 663 615 614 456 455 664
145 21 2 0 1 61 94 70 494 493 470 469 331 330 665
146 21 2 0 1 70 95 73 644 643 666 667 351 350 668
147 21 2 0 1 49 81 1 669 670 657 656 418 417 671
148 21 2 0 1 36 88 34 672 673 663 662 589 588 674
149 21 2 0 1 57 91 54 625 624 675 676 317 316 677
150 21 2 0 1 68 93 62 678 679 680 681 343 342 682
151 21 2 0 1 28 92 37 609 608 683 684 288 287 685
152 21 2 0 1 86 87 2 397 396 503 502 686 687 688
153 21 2 0 1 25 35 8 260 259 578 577 423 422 689
154 21 2 0 1 46 52 3 193 192 581 580 428 427 690
155 21 2 0 1 73 95 80 667 666 691 692 441 440 693
156 21 2 0 1 30 88 36 651 650 673 672 554 553 694
157 21 2 0 1 54 91 77 676 675 660 659 574 573 695
158 21 2 0 1 38 39 32 270 269 592 591 597 596 696
159 21 2 0 1 49 82 81 697 698 699 700 670 669 701
160 21 2 0 1 80 95 49 692 691 702 703 584 583 704
161 21 2 0 1 62 93 72 681 680 118 117 548 547 705
162 21 2 0 1 59 87 85 433 432 568 567 654 653 706
163 21 2 0 1 49 95 82 703 702 642 641 698 697 707
164 21 2 0 1 82 84 81 461 460 565 564 700 699 708
165 21 2 0 1 68 94 93 225 224 492 491 679 678 709
166 21 2 0 1 37 86 2 710 711 687 686 517 516 712
167 21 2 0 1 37 92 86 684 683 639 638 711 710 713
$EndElements
