$MeshFormat
2.2 0 8
$EndMeshFormat
$PhysicalNames
1
2 4 "Gamma"
$EndPhysicalNames
$Nodes
978
1 6.123031769111886e-17 -1.499660721822137e-32 1
2 6.123031769111886e-17 -1.499660721822137e-32 -1
3 0.4999999999999993 -1.224606353822376e-16 -0.866025403784439
4 0.8660254037844384 -2.121080424092026e-16 -0.5000000000000004
5 1 -2.449212707644755e-16 -2.021278110164726e-15
6 0.8660254037844404 -2.121080424092031e-16 0.4999999999999969
7 0.5000000000000028 -1.224606353822384e-16 0.866025403784437
8 0.1305261922200513 -3.196864086658315e-17 -0.9914448613738105
9 0.2588190451025203 -6.339028942455735e-17 -0.9659258262890684
10 0.3826834323650892 -9.372731255536883e-17 -0.923879532511287
11 0.6087614290087199 -1.490986227852137e-16 -0.7933533402912357
12 0.7071067811865468 -1.731854914143869e-16 -0.7071067811865483
13 0.7933533402912344 -1.943091082693705e-16 -0.6087614290087217
14 0.9238795325112865 -2.262777491359538e-16 -0.3826834323650904
15 0.9659258262890681 -2.365757808389445e-16 -0.2588190451025216
16 0.9914448613738103 -2.428259353405828e-16 -0.1305261922200526
17 0.9914448613738107 -2.428259353405829e-16 0.1305261922200494
18 0.9659258262890689 -2.365757808389447e-16 0.2588190451025185
19 0.9238795325112877 -2.262777491359541e-16 0.3826834323650875
20 0.7933533402912374 -1.943091082693712e-16 0.6087614290087178
21 0.7071067811865502 -1.731854914143878e-16 0.7071067811865448
22 0.6087614290087238 -1.490986227852146e-16 0.7933533402912327
23 0.3826834323650921 -9.372731255536956e-17 0.9238795325112859
24 0.2588190451025225 -6.339028942455788e-17 0.9659258262890679
25 0.1305261922200526 -3.196864086658348e-17 0.9914448613738103
26 0.146581767762328 -0.9891984755323082 -0.0004017016657766469
27 -0.2620346128366911 -0.9117881847844691 -0.3161964069419008
28 -0.2150467558647104 -0.9535168248895228 0.2110937172079421
29 -0.753364230470173 -0.6563459038785728 0.04064960897601879
30 0.1427099934582504 -0.1980616758437397 -0.9697450336707663
31 0.2177967468750427 -0.4063180784994843 -0.8873951747305906
32 0.5020311909504837 -0.5055235357167878 -0.7017197718101127
33 -0.04351724143551962 0.556015194256111 0.8300321400127719
34 -0.2307774599123207 0.2571722125453929 0.9384051454946976
35 -0.4499692077321263 0.5256982431427549 0.7219204036800342
36 -0.6704945496974045 -0.5036266640897367 -0.5447910076753455
37 -0.05815084707349546 -0.7177589133740087 -0.6938592229384843
38 -0.1638564279911208 -0.3494323913104412 -0.9225226690488735
39 -0.5695882795989778 0.003305566750169995 -0.8219235152810368
40 0.9457758714708145 0.3248183606997384 0.001016610031450862
41 0.7901939794412052 0.4994650696351992 -0.3551452084277327
42 -0.06579764323011666 -0.7451454562302691 0.663648189332832
43 0.0566482272626857 -0.3639653555029747 0.9296882264187217
44 0.3798686345584867 -0.5450908188973779 0.7473793010463006
45 0.7554097501452409 0.5342991470901852 0.3793158720699745
46 -0.4118088381126451 -0.4353835970258887 0.8005339494944057
47 0.6219144062313693 -0.7830851400360855 -0.0003671192555660349
48 0.7420283549696681 -0.4930715554201501 0.4541743736237899
49 0.9166168232401198 -0.3644652550677895 0.1642518712269721
50 0.6362012968137963 0.3096990044888156 0.7066360000389736
51 0.194608856286724 0.2981584965608566 0.9344671765146932
52 0.3620186673018873 0.6233025915526201 0.6931351699984305
53 0.3280506842423947 -0.8749166594774246 0.3562352979941219
54 -0.4189331607046846 0.5444569551609288 -0.7266784920712001
55 0.0680409676382559 0.5844219230815456 -0.8085922597604541
56 -0.01156616494664036 0.8623051225106043 -0.5062569500958963
57 -0.568736866856916 0.07359726417556475 0.8192202505942163
58 -0.02701642483930394 0.8608379391715327 0.5081615444637765
59 -0.7747431689288141 -0.3472376779633261 0.5283928625566175
60 -0.5091381838769414 -0.722964145870293 0.4670130121362012
61 -0.9748521600408308 -0.1715070276889834 0.1422975949094603
62 -0.9454899998785131 -0.134317371667838 -0.2966605868631239
63 -0.9637179340940684 0.2668561331752457 -0.005962188542503897
64 0.5447664910753524 0.3993782087138144 -0.7373781367832878
65 0.4408832403594724 0.7803666065714356 -0.4434522834740102
66 -0.2090552925140291 0.3064255442522277 -0.9286545485279226
67 0.9109188022290794 -0.3835459596551243 -0.1520507565840074
68 0.2346829574262723 0.2509572051266044 -0.9391189438450818
69 -0.6924298946856038 0.7213723204438137 0.01275994683341399
70 -0.4955419557753458 0.7747240081746403 -0.3927351285843489
71 -0.2751192391226377 0.9505158184139882 -0.1443228436851457
72 0.2262430044435755 0.974042564706844 0.007428666075270741
73 -0.2586932476880365 -0.1376406018571448 0.9561029590588135
74 0.4680111097472013 0.8199109168776508 0.3297145576677544
75 -0.8491114172330854 0.2889706541394013 0.4421603353656541
76 -0.532634754075678 0.7355417948047169 0.4186627363955356
77 0.6980966261325693 0.7157749458386372 -0.01809219422900144
78 -0.2805388320369071 0.9434185886343089 0.1768030835099222
79 0.7204359556205234 -0.5667102376913855 -0.3997643560210398
80 0.3199723348183705 -0.876351757661808 -0.3600351396654781
81 -0.8129550347571415 0.3881794291117482 -0.4340746966565686
82 0.05712942132777243 -0.9969395728566092 0.05336400745104693
83 -0.03501497474448085 -0.9935607828962729 0.1077539894119399
84 -0.1267580895389899 -0.9787955120549057 0.1609090809047155
85 -0.2330379694444435 -0.9690503564629335 0.0814537380128884
86 -0.2474211551107419 -0.967373597890906 -0.0545077435532761
87 -0.2571787498242881 -0.9476115848048348 -0.189450191297041
88 -0.1641314752239891 -0.9558982443641142 -0.2435557539094514
89 -0.05980075251441429 -0.9846481715854251 -0.1639873415608324
90 0.04560893067001713 -0.9956324952965494 -0.08146017280060251
91 -0.04839319712621083 -0.9984266074353165 -0.02832680774651478
92 -0.1422335276852663 -0.989476771238222 0.02655829027230251
93 -0.1550802540539852 -0.981651780030502 -0.1109499777624963
94 -0.3637875589388951 -0.9148366346790792 0.1753069987488716
95 -0.5109048328518507 -0.8493156934005148 0.1328122912693897
96 -0.6438484386742519 -0.760232793087108 0.08663306719551439
97 -0.6578663069635435 -0.7514284827301986 -0.05066712448856935
98 -0.5377069724219213 -0.8304092906197935 -0.1459164893395615
99 -0.4015515678066124 -0.8846865222422556 -0.2368250319433197
100 -0.398198444567598 -0.9117204542330333 -0.1010139202142802
101 -0.3854399557185594 -0.9219161558887593 0.03881548720508242
102 -0.5312938768966449 -0.8471645850646013 -0.006243571450271197
103 0.4396746923320463 -0.1039982037911058 -0.8921157652070408
104 0.3704311388911639 -0.2096873094311131 -0.904882314780953
105 0.2952133307436792 -0.3119946113733174 -0.9030550657768527
106 0.2000742651874971 -0.3561215096830232 -0.9127692801309472
107 0.1815237220060795 -0.3043195875119406 -0.9351142855317857
108 0.1623329698781778 -0.2514443724380773 -0.9541612727729795
109 0.235996049997862 -0.1510837085648499 -0.9599372778425151
110 0.3287376087593691 -0.1013059114786798 -0.9389721491538745
111 0.4176926486003933 -0.05036123618828337 -0.9071915989441129
112 0.3514074749463253 -0.1546055141734983 -0.9233687895629763
113 0.2774661454339384 -0.2583723934792574 -0.9253411502931405
114 0.2577808126819012 -0.2045767140549919 -0.9442973158277644
115 0.5143171860193294 -0.1298678279997046 -0.8477099618476815
116 0.5197074421425972 -0.2621917821151306 -0.8131172387625851
117 0.5153608025410329 -0.389603483999113 -0.7632904875995871
118 0.4361180381345554 -0.4864615988271201 -0.7570707824769283
119 0.3656779736766002 -0.463222356731348 -0.8072822726853548
120 0.292304053332884 -0.4362666544286665 -0.851016889749425
121 0.3722098851564857 -0.3394128221875795 -0.8638626844160235
122 0.4473671660919459 -0.2353559656882778 -0.862826858713728
123 0.4460388429120569 -0.3655158625955862 -0.8169746047489347
124 0.8081918467038099 -0.1317889824009243 -0.5739839745491282
125 0.7239242560251966 -0.2675041010038863 -0.6359050459655656
126 0.6184067090397662 -0.3953669472027727 -0.6791598628262464
127 0.624177544143992 -0.134021743319585 -0.769701608224872
128 0.722287559989629 -0.134370733025685 -0.678413728332769
129 0.6269767001622299 -0.2683713632840158 -0.7313528757192111
130 -0.1476117393718362 0.5578133776188852 0.8167343571498826
131 -0.2524173030598758 0.5532941968566435 0.7938205318840907
132 -0.3543125778943888 0.5423957151736138 0.7617542158118566
133 -0.4015080211666407 0.4659200608857668 0.7884857676604263
134 -0.3477099124002948 0.3998724202499963 0.8480565219028681
135 -0.2901547277578035 0.3295040772986483 0.8984638540327381
136 -0.1863558786079146 0.3362009761153001 0.9231686683198209
137 -0.139542179999329 0.413693530846532 0.8996586255556962
138 -0.09150757934005506 0.4875665400025876 0.8682771631185682
139 -0.197103942037355 0.4860757632954076 0.8513990770315186
140 -0.301682608090983 0.4788060344712662 0.8244588439269258
141 -0.2450289048689029 0.4093413297337134 0.8788631927385407
142 -0.5667835084433817 -0.4847032382080052 -0.6661975873772623
143 -0.4411616615707696 -0.4510535258686125 -0.7758396130397124
144 -0.3027750114208242 -0.4043527938536655 -0.8630330877561154
145 -0.1400697241119382 -0.4499944152381443 -0.8819781735630912
146 -0.1138742203696404 -0.5473945742130761 -0.829090973330003
147 -0.08620176214362578 -0.637694997460977 -0.7654504206129736
148 -0.2205979019839527 -0.6936615594550791 -0.6856895847062475
149 -0.386346212823358 -0.6476095153299319 -0.6567636709587241
150 -0.5403380077109906 -0.581850712487371 -0.6078524375215223
151 -0.4199230724179694 -0.55291467083714 -0.7196874182755386
152 -0.2820658375593918 -0.5079300655949784 -0.8139078029768481
153 -0.2543386339365609 -0.6054021481659353 -0.7541883705569551
154 -0.4818649673466228 -0.08736455165163746 -0.8718793427755623
155 -0.3812566052038603 -0.1799224082418379 -0.9067917776429631
156 -0.2730582332846491 -0.2688983915768129 -0.9236519129211335
157 -0.6671395502142947 -0.3896685377014454 -0.6348883770124365
158 -0.6485530547359121 -0.2616637924198262 -0.7147803823057758
159 -0.6149762897495603 -0.1276111058939128 -0.7781513790377792
160 -0.5220807529103778 -0.2251722681331776 -0.8226354825220544
161 -0.4158833114185483 -0.319121792766807 -0.8515881355824786
162 -0.5512725101361304 -0.3606944990077303 -0.7523284508469505
163 -0.1114646505761243 -0.7827180884298885 -0.6123136661194193
164 -0.164725839384141 -0.8383532270186199 -0.5196434013693011
165 -0.2155952418097989 -0.8818156437108571 -0.4194280179193816
166 -0.3780768119422072 -0.8407173066316461 -0.387623960303859
167 -0.4905121540055837 -0.7445109646181056 -0.4528810553955866
168 -0.5901177313674406 -0.6288313018810123 -0.5062926593388218
169 -0.4443151779993676 -0.6999099463857305 -0.5592048726090592
170 -0.2794836579825857 -0.7531336943086026 -0.5955489261326475
171 -0.3327570589276626 -0.8026944333481549 -0.494928667997416
172 -0.7596885612428204 -0.6409823995961602 -0.1096122863768569
173 -0.747633967852406 -0.6090736705560258 -0.2647125118853989
174 -0.7167243746294125 -0.56180437143726 -0.4131368042743985
175 -0.6516491687063053 -0.7294615403423729 -0.2079404291755547
176 -0.6284017163249076 -0.6876108008387176 -0.3637343391678159
177 -0.5204464903528483 -0.7981390871401123 -0.3034953842458743
178 0.8698916227358491 0.1282307653932861 -0.4762829363945797
179 0.8582713424418925 0.2588283654691612 -0.4431457773369323
180 0.8309542788631412 0.3846922961798586 -0.401903998112615
181 0.8435723084794475 0.4637655427953846 -0.2707531748333861
182 0.8883806779868955 0.4218261465252994 -0.181224924023051
183 0.9227221369023058 0.3749167901125992 -0.0895614792313514
184 0.9590399363332038 0.2523500555588447 -0.1286928513067155
185 0.950018427692071 0.1703185843458505 -0.2616420586830617
186 0.9177347282816503 0.0841166851862814 -0.3881846877184589
187 0.9096326515183618 0.2145082978706182 -0.3557451748602146
188 0.8845523903033996 0.3434869074075314 -0.3155690308762128
189 0.9277016972030824 0.299063437898404 -0.2234516080025111
190 0.06681883937954287 -0.2385839225174971 -0.9688203933754367
191 -0.01073426670649372 -0.2779167016510863 -0.960545200634335
192 -0.08820547000916808 -0.3151289678488097 -0.9449410186265625
193 -0.1247174457814525 -0.265966467424182 -0.9558804302441033
194 -0.08356275514155823 -0.1782019400251166 -0.9804393579025868
195 -0.04157248192715081 -0.08865548914139391 -0.9951944196947232
196 0.0358816285360088 -0.0497987233243307 -0.9981145204278268
197 0.07190090906227074 -0.09978848851764402 -0.9924074348952566
198 0.1076448856080263 -0.1493961699729919 -0.9829004847897044
199 0.03040535531593429 -0.1897170325148392 -0.9813679034602034
200 -0.0476607616715202 -0.2289789156600142 -0.9722639086071511
201 -0.005791435372400423 -0.1395684503666784 -0.9901954892537995
202 -0.4422114486618928 0.002566343995474098 -0.8969071571522033
203 -0.2983877404794214 0.001731672909915857 -0.9544431662705321
204 -0.1474038162206308 0.0008554479984913651 -0.9890760249709404
205 -0.2353960175896385 -0.1800950394841996 -0.9550677942722826
206 -0.3437132496499237 -0.08884996394674663 -0.93486196089142
207 -0.1930668483169053 -0.08949540477575949 -0.9770955759827183
208 0.9692367672658876 0.2461290222060628 0.0007703297081688376
209 0.9863508177800672 0.1646566084016595 0.0005153389712480176
210 0.9966287568609614 0.08204300740202077 0.0002567765693882511
211 0.9611818193617013 0.08454221211456958 -0.2626444830932203
212 0.9768425657246316 0.1687046512322905 -0.1315953739350673
213 0.9875703574737738 0.08417896894342716 -0.1327354143653613
214 0.04670726497563145 -0.7117156786240576 0.7009131359870446
215 0.162091602307786 -0.6658891491586737 0.7282293275432076
216 0.2748565733169035 -0.6093019905962346 0.7437774857845294
217 0.3039620581701112 -0.5079961058857632 0.8059448018306778
218 0.2230646773415202 -0.4645372034013288 0.8569990293918635
219 0.1397047524633971 -0.4159499975940381 0.8985923333974426
220 0.02661980084578545 -0.469544599230735 0.8825073685449766
221 -0.004712856910931503 -0.5713020997922056 0.8207263245155195
222 -0.03597409970173537 -0.6644025329412936 0.7465086324831367
223 0.07864964567252276 -0.622586084316421 0.7785889806895118
224 0.1938687910591307 -0.5695022700276289 0.7988003857576991
225 0.1102507781273178 -0.5224509695024377 0.8455115317890607
226 0.8070470386290512 0.4129975931109459 0.422028512691553
227 0.8443458697227522 0.2782308481154047 0.4578947995327223
228 0.864048812463279 0.1376658643703151 0.4842187103654413
229 0.9175470807930485 0.08409948600634581 0.3886317421179379
230 0.9497529993347223 0.1702709985509319 0.2626347793175295
231 0.9588438432466321 0.2522984580190379 0.1302458150930153
232 0.9175929714669182 0.3853391261027017 0.09765703563449728
233 0.8753697557884247 0.4420713844696228 0.195705599521385
234 0.8203531249604814 0.4923428270386322 0.2908939515204472
235 0.8708918162766034 0.3638206946834581 0.3304269154631397
236 0.9038964151731532 0.2247638680711677 0.3639402069664871
237 0.922181230913686 0.3096094570534692 0.2317838679752651
238 -0.3326997034911041 -0.5244796980462398 0.7837295156074298
239 -0.2461239740301145 -0.6083596295187038 0.7545339956420047
240 -0.1557619771624268 -0.682880813043616 0.7137310429337802
241 -0.06188172705828871 -0.3907594441306972 0.9184104249620384
242 -0.1831901488595271 -0.4123003765930878 0.8924403446853029
243 -0.3015942392271374 -0.4273046205310632 0.8523213455838169
244 -0.2163936030195855 -0.5142777461564735 0.8298748148850041
245 -0.1264548895195138 -0.5945399181700736 0.7940601026489933
246 -0.09466960001295656 -0.4956727587392459 0.8633343402629204
247 0.7152519606486758 -0.6976070689338917 0.04194055509515461
248 0.7986785977271108 -0.5957135759263045 0.08507545468436231
249 0.866768283767577 -0.4823806503702116 0.126576658207668
250 0.8838989376843005 -0.4015823142128846 0.239696292987583
251 0.8432539386492371 -0.435971057873355 0.3144074293799948
252 0.7955118146575555 -0.4666905141064188 0.3864724010629082
253 0.7332860643592897 -0.5824835777429842 0.3507198732267628
254 0.7095734220661249 -0.6639038669702718 0.236087301901836
255 0.6714336057212316 -0.7318255437290917 0.1166545612216042
256 0.75658747451278 -0.6340141684101788 0.1600044613925589
257 0.8288717789710361 -0.5216504672664023 0.2021196774837473
258 0.7841074596108403 -0.5552123173002176 0.2773351303040366
259 0.5771319750583954 0.3945787674262261 0.7150008948676888
260 0.5103135031254108 0.4769723407799191 0.7155959157644739
261 0.4377520838851276 0.5539981803712062 0.708137789698884
262 0.3260891789177142 0.5520436870726535 0.7674070725214885
263 0.2852432665136158 0.4722018937262207 0.8340633372052828
264 0.2408357615736059 0.3864641128576486 0.8903053551565395
265 0.3123263291762462 0.3082678765246472 0.8985672931986096
266 0.4288595300949085 0.3137726245785145 0.8471282332161317
267 0.5384210763902533 0.314176601365088 0.7819180312880908
268 0.4727705611764536 0.3978800378127423 0.7862439010860637
269 0.4011604477318362 0.4779914419302372 0.7814054495695851
270 0.3587265328164692 0.3951036669371477 0.8456999272947197
271 0.6590429509839247 -0.607435864140526 0.4434907662108114
272 0.5583314692114707 -0.7137705177835714 0.4228446741193898
273 0.4454058599654071 -0.8044906403248224 0.3929483802463541
274 0.4101416149744498 -0.8702597524896861 0.2728219545101538
275 0.4887356699201191 -0.8530046296857879 0.1830861728322051
276 0.5602297272647901 -0.8233576738376592 0.09069064792721261
277 0.6393818849231695 -0.6932392991051849 0.3325809366278331
278 0.5292129490610259 -0.7914333631611606 0.3058870481428506
279 0.6056115799522745 -0.7668492846687561 0.2125483211665689
280 -0.3269101211086519 0.6432385971455069 -0.6923683122868977
281 -0.2242780591418878 0.7328835369886717 -0.6423247413875027
282 -0.1169195805613845 0.8070837519291306 -0.5787448738894777
283 0.008475804277115518 0.8061679868356616 -0.5916260117195598
284 0.0288759913115461 0.7397224179217868 -0.6722922887775233
285 0.04894877572905032 0.6648897064570711 -0.7453359615650227
286 -0.05498267355363977 0.5881233967715166 -0.8069001027257507
287 -0.181090142182201 0.5825972780440634 -0.7923299641059138
288 -0.3042737437588077 0.567664589940141 -0.7649669288192078
289 -0.2050271717539518 0.6610734906164312 -0.7217656813999838
290 -0.0983233084129322 0.7423708720121044 -0.6627352528806079
291 -0.07759013043061189 0.66858399011275 -0.7395777307522684
292 -0.4902532531405592 0.4217858618377361 0.7627243502989116
293 -0.5245190061588153 0.3085697550403411 0.7935140316670605
294 -0.5509484278388169 0.1907436058744753 0.8124485870994784
295 -0.4917791888699649 0.1213496125860326 0.8622224196340635
296 -0.4081131905538383 0.1688417354919722 0.8971823070324255
297 -0.3201711068080258 0.214564786234181 0.9227417920922428
298 -0.3812040420269571 0.2865674971866225 0.8789553730983758
299 -0.4384383696426616 0.3564543624202048 0.8250527762129464
300 -0.4690057702652805 0.2397575001017783 0.8500293692589784
301 -0.137157317888988 0.8028233365128534 0.5802263011100658
302 -0.2492188807783441 0.7244473877592051 0.6427020552576856
303 -0.3556471491636274 0.6296961729133246 0.6906502987113645
304 -0.04013953364176336 0.6442177924615905 0.7637880947716695
305 -0.03616773381019159 0.7265235125915771 0.6861890997987593
306 -0.03173256705021919 0.7995212962551235 0.5997989171571839
307 -0.1428994870615692 0.7304860789444489 0.6678097222007962
308 -0.2530932560241964 0.6426360439762246 0.7231616131527299
309 -0.1466869941632643 0.6476981450991421 0.7476429887175275
310 0.05891285929971304 0.5831928777974525 0.8101946323541386
311 0.1631245876521605 0.6040027199175636 0.7801096610320229
312 0.265346483239787 0.6174447922892178 0.7405087253417086
313 0.2709787437587908 0.6987218033040754 0.6620863705124949
314 0.1728098730700048 0.7655893132152278 0.6196852033574503
315 0.07189224533249085 0.8202791680899761 0.567427168417824
316 0.06855601534630379 0.750916388217527 0.6568292401120565
317 0.06425935666040228 0.6708605778727248 0.7387941662857558
318 0.1692419003524211 0.6891971996931887 0.7045313329442262
319 -0.7231003243474694 -0.4503611180638782 0.5237373237271125
320 -0.6599631869091899 -0.5501238917052181 0.5116759674831046
321 -0.5875308735683179 -0.6421385084144017 0.4924079696911663
322 -0.4943241767761479 -0.6638516293318685 0.561199271638878
323 -0.4726480826447131 -0.5944867909262884 0.6505299727041328
324 -0.4447040567058538 -0.517238280074413 0.7312337954273037
325 -0.5129161535926792 -0.4218796358309509 0.7476192829608098
326 -0.6097766197327902 -0.4021940486062615 0.682943937152206
327 -0.6981292552711802 -0.3768969001576243 0.6087399030670497
328 -0.6392586451956053 -0.4793214741490217 0.6013312805453312
329 -0.5703352285963074 -0.5763492291946238 0.585268564873222
330 -0.5451341363900677 -0.501947904050138 0.6714738080982225
331 -0.4074075270557954 -0.7451618660126568 0.527970548741894
332 -0.2963314416898887 -0.7566879892287849 0.5827614980615058
333 -0.1806702802645514 -0.7565060332613941 0.6285354973812052
334 -0.3622065335948353 -0.6062935292055982 0.7079651004566778
335 -0.387437337837318 -0.6808169447558775 0.6215952034747407
336 -0.2727634855899199 -0.6872951146837957 0.6732202509287919
337 -0.9922038546202455 -0.06319875907894013 0.1074124188704866
338 -0.9963376214761699 0.04900514108697095 0.07007025173534324
339 -0.9865214254880844 0.1605229084776124 0.03174701414063996
340 -0.9820560611228308 0.170538599327016 -0.08051384322891487
341 -0.9853562035364358 0.06840422592871739 -0.1561858317113149
342 -0.9727245442027285 -0.0348361460539137 -0.2293325184828888
343 -0.9707355080492505 -0.1463135007675365 -0.1904335393398753
344 -0.9844581583091551 -0.1567800422449012 -0.07913376581607577
345 -0.9856924653824037 -0.1652577506206788 0.03316985903123856
346 -0.9985231614809105 -0.05410782596316258 -0.004882535786619018
347 -0.9972944598339802 0.05944725290523938 -0.04324100491975159
348 -0.9919479266369222 -0.04458798101149672 -0.1185378538274995
349 -0.9353352739489691 -0.2760012689097067 -0.2212944302666447
350 -0.898274449187946 -0.4180656619307563 -0.1353665994641614
351 -0.8352181110698826 -0.5480314902996942 -0.0455213420359415
352 -0.8320308801492925 -0.5505501346213764 0.06796443000848378
353 -0.8977847970042967 -0.4300582844819734 0.09503857225556316
354 -0.9459646907367836 -0.3011480981658657 0.1202523465481801
355 -0.9543601589058663 -0.2985818847448518 0.006748718054684394
356 -0.9509091786394899 -0.2898583788815788 -0.1084151934523648
357 -0.90311426593518 -0.4289503598151553 -0.01965226396143344
358 0.166164753636167 0.6527075810394193 -0.7391630999330945
359 0.2649616739737072 0.7105510953383113 -0.6518530909941112
360 0.3582660073618345 0.7536650692677787 -0.5510303361291502
361 0.4778362300812129 0.7012361150137962 -0.5290939880797476
362 0.5084680314119738 0.6085960404243658 -0.6091560724574744
363 0.5309997193639866 0.5062607704150675 -0.6795140398653363
364 0.4366373693018543 0.4572121906998478 -0.7747934049826458
365 0.317154303814426 0.5091590212480048 -0.8001063920840531
366 0.1920844309636942 0.5521368000292808 -0.8113251662772331
367 0.2929700964860832 0.6148166636610568 -0.7322356127979723
368 0.3903357901838503 0.6655810238893556 -0.6361130965008865
369 0.4167966557043936 0.5652090910860819 -0.7119123760318248
370 0.9257598673248687 -0.2799382373563387 0.2541716965290736
371 0.92032197218333 -0.1881619190050005 0.3429322961649158
372 0.8998543841713945 -0.09331274578544613 0.4260925002408528
373 0.8562058632591373 -0.126394473099323 0.500935082511317
374 0.8315709332425754 -0.2549815087113644 0.4934310622582941
375 0.7926347994712074 -0.3791834192979675 0.4774411054745293
376 0.8445270860487862 -0.3480465224578659 0.4069860183531277
377 0.889209794145732 -0.3147138316887929 0.3320559382680321
378 0.8798734145956566 -0.2212343591850515 0.4205688202943241
379 0.124143191135034 -0.3977345706478006 -0.9090630777929659
380 0.02749099283500043 -0.3851725607203591 -0.9224350078900232
381 -0.06942727044256261 -0.3688827505883887 -0.9268793721068778
382 0.007737842894183999 -0.3322138905509863 -0.9431723366979771
383 0.08568786735750183 -0.2928091771266693 -0.9523236714364114
384 0.1048843471054248 -0.345982613142183 -0.9323600726841402
385 0.01621949177140819 0.4978498084407496 0.8671115823942074
386 0.07684490879212427 0.4344311193450642 0.8974210062937711
387 0.1368082275817909 0.3672693576092731 0.919998221643499
388 0.2255581350962263 0.5407417961526767 0.8103837594531924
389 0.1209655620886818 0.5223851501382366 0.8440859480548301
390 0.1820852180641628 0.4562828435186782 0.8710057061081952
391 0.6653451567530644 -0.5168402840824253 0.5386946659610042
392 0.5770289366950972 -0.5339614390277021 0.617999019293713
393 0.4804138465798542 -0.5434031236443926 0.6884152680089725
394 0.3763641642554968 -0.6437100045118164 0.666323829647161
395 0.3662750113147384 -0.7347069664516925 0.5710063830936917
396 0.349787893314872 -0.8128703215255999 0.4657147947759567
397 0.4652384213464544 -0.7303062916043622 0.5002058893557164
398 0.5728651588661302 -0.6293041253003088 0.5251683802717911
399 0.4772833339088016 -0.6416480590579605 0.6004068516265044
400 0.7137902949733211 -0.387313325820283 0.5835167542101345
401 0.6611884885242716 -0.2624845360076516 0.7028027112923206
402 0.587046274319313 -0.1291044419400944 0.7991925393039845
403 0.485006639746406 -0.1406335855441967 0.8631284690119329
404 0.4590146401144022 -0.2843659340026317 0.8416897146451635
405 0.4230187871807174 -0.4219007566325894 0.8019070128418901
406 0.5278613888622959 -0.4145302829072554 0.74130088270634
407 0.6260709088696652 -0.4031686377822776 0.6674505723841235
408 0.5638800166709235 -0.2731478025634886 0.7793777035263048
409 0.4019148443303532 -0.09397311263820565 0.9108421992903024
410 0.2906901934665287 -0.1900682593144142 0.9377490433072063
411 0.1729746694050979 -0.2819193379146159 0.9437167216140561
412 0.3781345160388298 -0.2367914375208249 0.894954804946541
413 0.2603645470932218 -0.3309865609368624 0.9070050711523779
414 0.3444967414218278 -0.3780676725551857 0.8592943791963539
415 0.6102056012504131 0.2353812530039387 0.7564686311651777
416 0.5783014389077793 0.1576299731627042 0.8004500217489642
417 0.5411940094787863 0.0784604176679795 0.8372293634146151
418 0.8234831988129708 0.07885282763821028 0.561834186256244
419 0.7697586262862341 0.1586934116951779 0.618294475426131
420 0.7064516266645604 0.2365584829146312 0.6670578560695651
421 0.6801274923234961 0.158768401737381 0.7156948992381533
422 0.6474652959769296 0.07935594796681403 0.7579520591883073
423 0.7417695366713997 0.07942319051470127 0.6659353656885647
424 0.2758314188373031 0.2276419959826292 0.9338608836691067
425 0.3557117187390596 0.1526880492645727 0.9220387913550512
426 0.4312741342882987 0.07588066532754299 0.8990243298839736
427 0.3933682618805461 0.2345300694625113 0.8889640358658992
428 0.4707155515972729 0.1570600986088946 0.8681929479726493
429 0.5068109272476895 0.2371018728473931 0.8288096198250814
430 0.1477838171875474 0.2264182709328708 0.9627537119976463
431 0.09893886408150243 0.151583353033621 0.9834803446217655
432 0.04926127239584913 0.07547275697762355 0.995930313825289
433 0.3085087795929382 0.07637415865574435 0.9481504737137999
434 0.2294387512621311 0.1526683148375649 0.9612753221964725
435 0.1808719221899709 0.07630439957455001 0.9805421899994271
436 0.9767090134898778 0.1686723858520121 0.1326240144868929
437 0.9610521917754049 0.08452447326812927 0.2631241115945774
438 0.9875036654777558 0.08416435955581464 0.1332399011128282
439 0.01435253685623633 -0.09221517480195794 0.9956356593764782
440 0.02883551765799464 -0.1852684530945152 0.9822647877275053
441 0.04305761056870899 -0.2766455244058739 0.9600069249741443
442 0.1610991370392223 -0.189048956498758 0.9686627690233318
443 0.276824001950109 -0.09468663535985014 0.9562441701932394
444 0.1473091626729977 -0.09437871116396432 0.9845774065413087
445 -0.001253048032395397 0.5232539108641222 -0.8521759059232018
446 -0.07204065339147861 0.4551114482546786 -0.8875154724997518
447 -0.1420427876020051 0.3820068303183063 -0.9131783112187961
448 -0.2650646960159869 0.370886583721576 -0.8900471049002355
449 -0.3196999134529962 0.4331720751023341 -0.8427063063070577
450 -0.3714240583679026 0.4915132572352316 -0.7876921269300143
451 -0.1265013683309265 0.5214774274808749 -0.8438357046477306
452 -0.1974225687611638 0.4483311166250958 -0.8717932892661185
453 -0.2520678332656268 0.510687221063217 -0.8219856261976247
454 0.7121633863235899 -0.700913928341554 -0.0392807362065451
455 0.7932630484792154 -0.6037482339785749 -0.07887842471306061
456 0.8604121452760405 -0.4959648394535565 -0.1170889332400367
457 0.921057779400325 -0.3823937537413342 -0.07367213927770944
458 0.925461305249434 -0.3787917594990541 0.006178626192349618
459 0.9239340029317341 -0.3727622744218266 0.08598979587375075
460 0.7973527109411689 -0.6035058225374307 0.003062110087499689
461 0.8673907007165818 -0.4963222936343195 -0.03602156509600384
462 0.8695498844580463 -0.4917409289963262 0.04553962218583375
463 0.9491776139419992 -0.2925879959675455 -0.1159919040582954
464 0.9774760360819795 -0.1961920013878264 -0.07777722980988619
465 0.9944813356613266 -0.09752933198918229 -0.03866396801943317
466 0.9948312652228868 -0.09257516044904257 0.04172041949530569
467 0.9789322814270963 -0.1861544776807594 0.08389337768467608
468 0.9524721604250317 -0.2777254813471263 0.1251612584859212
469 0.9566625082202143 -0.2889888327734088 -0.03580921526745664
470 0.9815567346306291 -0.1911464805272671 0.003065890294158147
471 0.9577698184398978 -0.2839905164598638 0.04501512464122402
472 0.7535545900922321 -0.2623003140556722 0.6027885408642268
473 0.7800290912457092 -0.1309146606615653 0.6118953901070512
474 0.6902404752978307 -0.1314087090981392 0.7115474948545497
475 -0.3059538980170725 0.2358609899084015 -0.922367500363921
476 -0.4011951953345042 0.1595885948721932 -0.9019833122775764
477 -0.4902966422710652 0.0808738722448189 -0.8677952635073828
478 -0.5488908407790025 0.1430140094580102 -0.8235689637229319
479 -0.5156257287979691 0.2857201048485721 -0.8077710873056081
480 -0.4711606225836392 0.4222200252018623 -0.7744274775891777
481 -0.4207246652437591 0.3623789682522424 -0.8316683470133795
482 -0.3653299786553995 0.2996368555006821 -0.8813352151827979
483 -0.4613825777881661 0.2222112567434813 -0.8589227405826612
484 0.5427111695244143 0.3046625144961784 -0.7827166401286665
485 0.5344131529585757 0.2042877232040784 -0.8201640738858096
486 0.5199446599208806 0.1015541714987261 -0.8481416749995058
487 0.4394228896446027 0.06357146692527688 -0.8960280088531585
488 0.3738815671941829 0.1277126033794282 -0.9186414233260281
489 0.3050048035953972 0.1907144007758308 -0.9330595303197159
490 0.316960662544332 0.2924514530958159 -0.9022239666411017
491 0.3977031340939058 0.3318245112544366 -0.8554090897708763
492 0.474364687436403 0.3677926460583099 -0.7998166745065963
493 0.4682915737207786 0.2694833572425008 -0.841475918937332
494 0.4564817780897547 0.1668540808282757 -0.8739474251824118
495 0.3882503835664635 0.2310560562381251 -0.8921181191614586
496 0.1959089949827232 0.3393229901134219 -0.9200432457582338
497 0.1544028691219071 0.4260810709705272 -0.8914116192688604
498 0.1113419846337773 0.5085487314177408 -0.8538039296180466
499 0.2365087819152086 0.4703575460033763 -0.8501925517167661
500 0.3598567196073475 0.4225339717968114 -0.8318462502356131
501 0.2786941298505416 0.3829683447474864 -0.8807183595839364
502 -0.6024690134463299 0.7976800800111933 -0.02715838342652869
503 -0.4997288459585835 0.8635124574137018 -0.06795083817181545
504 -0.3887164328636532 0.9150507087309189 -0.1076184708718728
505 -0.3346849523265857 0.9188120161834703 -0.2092139135024658
506 -0.3923170848113608 0.8782602054555315 -0.273397725810445
507 -0.4463848306966928 0.8297289846321719 -0.3350975902407385
508 -0.5556016533714138 0.7765333512704261 -0.2971577983760019
509 -0.6099014053705477 0.7680916454712797 -0.1950781891556633
510 -0.6560040995083974 0.7493268094001642 -0.09037673451915931
511 -0.5580882588642418 0.8192870718445475 -0.131552990183676
512 -0.4490813200044263 0.8767875778751777 -0.1719578765478958
513 -0.5052112697872272 0.8302145153221629 -0.235595907070483
514 -0.07901229139247543 0.9021450775911903 -0.4241359649769114
515 -0.1472261743836605 0.9309671444257417 -0.3341027230899682
516 -0.213439278691357 0.9471375260189068 -0.23952908198901
517 -0.153795391691131 0.9820458467726066 -0.1092379619511712
518 -0.02532395087772373 0.9971599137185925 -0.07092816073092348
519 0.103608410836242 0.9941246860441924 -0.03132739697971414
520 0.1722534384110344 0.9770951225464224 -0.1249554898816691
521 0.1121048726322929 0.9589461260307796 -0.2604895869370936
522 0.04945449295910155 0.919396590129114 -0.3902104088631109
523 -0.0178927632888127 0.9537490755867873 -0.3000709080188202
524 -0.08641871564765366 0.9749087092931309 -0.2051458362487807
525 0.04453798086268266 0.9851154244592641 -0.1660240005334138
526 0.7375841962632309 0.4860412296715196 0.4687573748562477
527 0.7112466558410209 0.4313639677971292 0.5550255145858446
528 0.6769961685348296 0.3718875829506864 0.6351187396355559
529 0.782651196806793 0.3576393276722495 0.5094616918268106
530 0.748850559563227 0.2980183974111811 0.5919525945937842
531 0.8119477172728468 0.218797346822395 0.5411733783538264
532 0.2949947216857466 -0.05039973348209398 -0.9541687382441759
533 0.2023501147439729 -0.1006977263473983 -0.974122373714702
534 0.1673390641472614 -0.05030465448518708 -0.984615193538798
535 -0.1358446867597279 0.86123351672269 -0.4897173171867822
536 -0.2620369229776843 0.8458986529714172 -0.4645343043280324
537 -0.3838285575795753 0.8163579172499164 -0.4315499847407731
538 -0.2720977841721524 0.9120133784015311 -0.3069110513898621
539 -0.2047335671670967 0.8926010550286434 -0.4016808721320801
540 -0.3294199654821748 0.8680739413892598 -0.3713894433376352
541 0.1261371480661936 0.2699362741918741 -0.9545804459306384
542 0.01314687017797272 0.2859346987178788 -0.9581589157721382
543 -0.1000147844980642 0.2982058049142697 -0.9492472495600071
544 0.04141519282428906 0.4432213903055332 -0.8954549575377632
545 0.08434072660010375 0.3579658778658056 -0.9299177770751185
546 -0.02985990353696628 0.3723735773154103 -0.9276024499094897
547 0.6737653751299147 0.5706982549501941 0.4694078408727836
548 0.577898161413787 0.598674515491041 0.5546373044937851
549 0.4720695695585188 0.6163312705735505 0.630306343304609
550 0.5467935388779194 0.5410560582970497 0.6389641364125382
551 0.6159350823887203 0.4587137028574405 0.6404730385376235
552 0.6486058633113456 0.5179787313139989 0.5576813319311343
553 -0.0225088427178297 -0.311841066989709 0.9498676228497441
554 -0.1029898809770815 -0.2556872608746159 0.9612580865942105
555 -0.1824657184170654 -0.1970378984808936 0.9632664886545038
556 -0.3008411245302883 -0.2148393000037802 0.9291602084491335
557 -0.3411129954896919 -0.2915218387958575 0.893676083272419
558 -0.3783963214340695 -0.3656503085561941 0.8503623202952518
559 -0.2638167507436769 -0.3537672191839 0.8973569393825063
560 -0.1431188288934414 -0.3355329929660675 0.9310932345621478
561 -0.2236475970291137 -0.2764194167454658 0.9346518380601408
562 0.6944954397214289 0.6153918947858417 0.3727853270154695
563 0.624864201327358 0.6916650008118433 0.3621384494243545
564 0.5484972692275781 0.7604823371161504 0.3475879177765641
565 0.4492431926368268 0.7842536022984588 0.4279332204344056
566 0.4247893798367533 0.7386021419588934 0.5234700169748419
567 0.3953190914974464 0.6842282894074843 0.6128249863314499
568 0.5037119829044201 0.6723069833295428 0.542473555525822
569 0.6052954657746843 0.6489503564330805 0.460956433947923
570 0.5296108413053835 0.7208454169388598 0.4470953384347069
571 0.8103226087280236 0.1029721251095442 -0.576865678676271
572 0.7353320669699915 0.208163659563332 -0.6449454567037751
573 0.6446615274258082 0.3089163753286329 -0.6992726135856053
574 0.6188046359162277 0.4332791909670429 -0.6552480181149193
575 0.6862986744776398 0.4620922972014048 -0.5616625662062259
576 0.744085788905102 0.4843696267562753 -0.4601330279663247
577 0.780468497614428 0.3638922708619948 -0.5083810966572007
578 0.8030669502015522 0.2343051130636498 -0.5478910361433267
579 0.7175033693350225 0.3383706870313709 -0.6088466088850363
580 -0.4635534429833893 -0.3166866354855264 0.8275432196587094
581 -0.5086653527529935 -0.1876793419091408 0.840259497732233
582 -0.5441941751734265 -0.05513623147906944 0.8371455642154478
583 -0.6387164001745875 -0.03255323084043787 0.7687533071862945
584 -0.6988313148352904 -0.1423381703231152 0.7009811970906545
585 -0.7447881902178035 -0.2492393961492353 0.6190074919734442
586 -0.5653969868125935 -0.2976495209659268 0.7692405410351135
587 -0.6080407986476464 -0.1652720375693802 0.7765124215217666
588 -0.660387653794177 -0.2749061454882225 0.6987952188510097
589 0.5388603997592087 0.7244586674539165 -0.4298710373149618
590 0.6322552853906793 0.6572945455225553 -0.4101428221020675
591 0.7170370670209423 0.5811762140957148 -0.3848273024193796
592 0.6015376831082495 0.5389374791827394 -0.5896599098912132
593 0.5744565659931496 0.6376075768011417 -0.5132798766687959
594 0.6644076804880805 0.5643113341361538 -0.4900154612600739
595 -0.7926176043315633 0.4123850128753398 0.4491057052181582
596 -0.718348773092005 0.5326284059968902 0.4475287938473044
597 -0.6297296180509623 0.6422315775739338 0.437011680526145
598 -0.5830914508552044 0.7454328988079895 0.3230079771681972
599 -0.6276601870869817 0.7464479422136588 0.2210388181087872
600 -0.6644552816277877 0.738218144281434 0.1163320685392188
601 -0.7603662319586519 0.6373852805132687 0.124832677941408
602 -0.8120019133333126 0.5321949026869248 0.2396277911618227
603 -0.8417872913373275 0.4126835979205391 0.3479747176884035
604 -0.7710061853936918 0.5341162959231458 0.3467985647519417
605 -0.683026062303871 0.6474932770243564 0.3379761151648569
606 -0.7269637064267176 0.6460394321409769 0.2327161826287399
607 -0.157604161129501 0.8521313037249229 0.4990322330338288
608 -0.2901406251192031 0.8276130407541916 0.480494612278888
609 -0.4173063822012224 0.7877750786787913 0.4530626985161672
610 -0.5189647809583214 0.6924156954436225 0.501234536747226
611 -0.500315890206056 0.6421899940116822 0.5807547000228215
612 -0.4770671659149108 0.5860600885945937 0.6549354867178996
613 -0.269082350426524 0.7807157664362437 0.5639836706207068
614 -0.3989563169652435 0.7430192643007102 0.5373604284198451
615 -0.3783645974942724 0.6899000139128549 0.61715330523788
616 -0.7708452084212264 0.358150890854013 0.526806989356171
617 -0.6747783539933665 0.4231615243837278 0.604655684884582
618 -0.5655427665184335 0.4799138889316001 0.6707041362994748
619 -0.6153826606885673 0.5927107810785626 0.5196134244966153
620 -0.7012555326044438 0.4788771521045733 0.5281262644329207
621 -0.5938372368234787 0.5381951588917392 0.5980830269346817
622 0.5175243604574759 0.782882601878684 -0.3453452880940214
623 0.5882656688745083 0.7727342132659258 -0.2383806587622371
624 0.6492719131941631 0.7497980359134758 -0.1274711264462867
625 0.7328163741095284 0.6724291340778554 -0.1040154867328385
626 0.7603694702737405 0.6208675935739413 -0.1906874403974593
627 0.7796118854335428 0.5625200987177159 -0.2752752197880655
628 0.7018393322818242 0.6448204300997894 -0.3027014446416236
629 0.6132366690890171 0.7192612651266337 -0.3265027108203574
630 0.679069777566718 0.7015789736212295 -0.2159888445454311
631 0.64053296279116 0.2078672832266088 -0.7392622783166791
632 0.7257476495133073 0.1040665636415321 -0.6800444835139482
633 0.6287603619801709 0.1038173667224853 -0.770637633112589
634 -0.7088394763400061 -0.6890711800195443 0.1507564447992148
635 -0.6515947396020314 -0.7118807556192704 0.2620116125325314
636 -0.5838104912014773 -0.7231756963236969 0.3690287558034278
637 -0.7946761946653333 -0.4384617107345163 0.4198107595714841
638 -0.7980895650970894 -0.5241448243008295 0.297195641357324
639 -0.7836355343893335 -0.5980935333083734 0.1679269920443082
640 -0.7302523454685945 -0.6228161966133475 0.2807694733650731
641 -0.66389899817855 -0.6375789606941475 0.3908083790013827
642 -0.7350972013189375 -0.5413566267095563 0.4081238872336631
643 -0.3413466187942644 -0.08612868403387466 0.9359830851165614
644 -0.4222178700032376 -0.03267978908247216 0.9059051283856684
645 -0.4987395901500369 0.02110576087057317 0.8664948748117598
646 -0.4269897670530172 -0.2414357946658608 0.871428996468487
647 -0.3860498518690055 -0.1638099840670301 0.9078170526002903
648 -0.4679612679778963 -0.1098214638942979 0.8768987956090674
649 0.178056503648854 0.1904039517840552 -0.965423335461372
650 0.1191692840190864 0.1274331582588982 -0.9846621105346447
651 0.05935216788295137 0.06346798392801839 -0.9962174136119619
652 -0.05297731982803591 0.07765220323346207 -0.9955719657145972
653 -0.106443450917491 0.1560208880016211 -0.9820016671390946
654 -0.1589319594841078 0.2329566097003864 -0.9594122420792033
655 0.06665664916680526 0.2076332005285846 -0.9759330638727791
656 0.006447673156123484 0.1431171644167107 -0.9896847501907827
657 -0.04725936254885203 0.2220398901333032 -0.9738915955285099
658 -0.3926695047536255 0.9091094311762598 0.1390348955583458
659 -0.5021623713063414 0.8592211935197526 0.09783605393965976
660 -0.6035328274706788 0.7954351659312671 0.05505472700091642
661 -0.477060141469374 0.8000031664553016 0.3638798635301382
662 -0.4152554774913408 0.8573784338556827 0.3040807615956905
663 -0.349012699841877 0.9055903231547747 0.2410317447091034
664 -0.4614453986827456 0.8637973951896708 0.2022923728123767
665 -0.5684085185097313 0.8070444257421256 0.1599720318184874
666 -0.5256260353775503 0.8086579729472961 0.2641771256601301
667 -0.2209373360396721 0.9388320320395416 0.2641611424115933
668 -0.1573773260728445 0.9232456982838885 0.3504992979143561
669 -0.09197016493281973 0.8968231505875768 0.4327236130977862
670 0.0374677179555913 0.9177810329031149 0.3953152485732013
671 0.1039627010990595 0.9574984108852785 0.2690512031795323
672 0.168176569788562 0.9762066823164463 0.1368837272098834
673 0.1023336420538749 0.993433410027332 0.05116527675539526
674 -0.02817552488065714 0.9950207378419712 0.09560267288166581
675 -0.1581490794702483 0.9776928762176307 0.138222677068597
676 -0.09298501792850809 0.9697111895293842 0.2258627798959841
677 -0.02716306819628527 0.9495265067472397 0.3125085290204863
678 0.03928923842137639 0.9824482511141011 0.1823507324556513
679 -0.2036054301848114 0.07958505058606982 -0.9758130192421449
680 -0.3532666826841564 0.08057591456376094 -0.9320462289487282
681 -0.2570666804438228 0.1584234516190996 -0.9533198475761869
682 0.2487494490944775 0.1278366893626364 -0.9600945226528452
683 0.3173707438409188 0.06393111145224648 -0.9461440820204617
684 0.1903509101372238 0.06391356545331871 -0.9796333942659238
685 -0.2243106649742128 0.8802974404884599 0.4180444256873819
686 -0.2890101447925684 0.8982458616138863 0.3311004504685936
687 -0.3552697696730582 0.8473847084479447 0.3946169619327632
688 -0.2555023292536852 -0.03952336406873642 0.9660002398750382
689 -0.249683475026625 0.06097416549907088 0.9664058740717176
690 -0.2413343841298642 0.1608537964677269 0.9570181665979901
691 -0.4173333777528023 0.06843031242774228 0.9061733521542544
692 -0.3377489757483109 0.01425226961018715 0.9411283133515458
693 -0.3306149653783804 0.115506967996257 0.9366706384915479
694 -0.4442426776209989 -0.7960621251300519 0.4110152507067722
695 -0.3717504919743752 -0.8605987109977377 0.3480968691985641
696 -0.2942847268951727 -0.9136215096852351 0.2805213655975339
697 -0.1824207379958159 -0.925191500816842 0.3327812512226932
698 -0.1454254548490576 -0.8795928836856507 0.4529545187449908
699 -0.1058285831606413 -0.8182587904653861 0.5650246568180318
700 -0.2220719147975132 -0.8236370415755954 0.5218295587668133
701 -0.3366362126640424 -0.8161833385002408 0.4695964419347861
702 -0.2607042495011699 -0.8769875592905163 0.4036410721689441
703 0.8584748870563021 -0.1466038039991311 -0.4914551789803967
704 0.8306654195179918 -0.296727427079359 -0.4711133566731709
705 0.783149030901265 -0.4398114119973915 -0.4395947193441597
706 0.6749201154786392 -0.55893762978975 -0.4817380654747108
707 0.6224307932524857 -0.545938040140034 -0.560831136741836
708 0.5642276607873591 -0.5279268308895326 -0.6347758722804134
709 0.7826794645137971 -0.2801681208987838 -0.5558045338609972
710 0.7368695177898411 -0.4263903231732999 -0.5246090030263834
711 0.6815478719532363 -0.4116554892074016 -0.6050059970293105
712 0.4306259702872575 -0.8189824736487568 -0.3792479157099238
713 0.5378261276957944 -0.7459729532320163 -0.3927689007725166
714 0.6358805083158789 -0.6602781024284595 -0.3996108189193733
715 0.7103415593245003 -0.6337731047536593 -0.3061805362647085
716 0.6900694058084308 -0.6938967059139016 -0.2056977799808151
717 0.6600516836672565 -0.7442206870514375 -0.1023100378883042
718 0.5585643755731516 -0.8243109475979342 -0.09228921936375249
719 0.4850467404499081 -0.8545660779910746 -0.1855976237075034
720 0.4042404661266219 -0.8719799225953564 -0.2761171130812571
721 0.5148954530405546 -0.8062214378910264 -0.2913583112304983
722 0.6187506409744592 -0.7254116678971546 -0.3015386482233483
723 0.592577782517499 -0.7808809932917185 -0.1976776314669488
724 0.3757516703151363 -0.8056531871688646 -0.4579668375112281
725 0.4266139299862914 -0.7171833589251259 -0.5510431783649316
726 0.4693376393697044 -0.6150317626427021 -0.6336072215588174
727 0.5851031912572461 -0.652338408605813 -0.4817767701313769
728 0.4835964007933326 -0.736150385386992 -0.4735157138198451
729 0.5292005943382669 -0.6371040302989617 -0.560397346111529
730 -0.5186644405696014 -0.7976609646695607 0.3077729415186593
731 -0.5865829416070569 -0.7853197200208746 0.1979732051615753
732 -0.4441902584425145 -0.8624593290328869 0.2426085737745365
733 -0.7329104341693151 0.4382886155827503 -0.5203319949189191
734 -0.6374454404388877 0.4825964019560663 -0.600636348619305
735 -0.530808874851301 0.518446428589589 -0.6704142294595157
736 -0.6527029971842001 0.1030402066173839 -0.75057412244695
737 -0.7244289152600628 0.2051314038033736 -0.6581214583257303
738 -0.7786854365285441 0.3022759156552893 -0.5497983828214733
739 -0.6884038099875199 0.3478099556245103 -0.6364969985499873
740 -0.5841355148197528 0.3884140948501542 -0.7126851978594742
741 -0.6255543003295847 0.2467900890187691 -0.7401192264096859
742 -0.9001317894764571 -0.2326913680612504 -0.3682627985606132
743 -0.8371269730975032 -0.330473555455398 -0.4358963868366887
744 -0.7589657507627279 -0.4222724314462445 -0.495637955376347
745 -0.8046386870140538 -0.476306952445509 -0.3545254157495215
746 -0.8305624959338518 -0.5195765903161991 -0.2005146058109564
747 -0.8787825497896853 -0.3793303611700128 -0.2895681392690965
748 0.9233893192466076 -0.2952351055753344 -0.2453332377343269
749 0.9200904650649084 -0.1985976707645516 -0.3376277554697411
750 0.9003514765478137 -0.09841170185844529 -0.423889555916982
751 0.9573861783241399 -0.198728231246745 -0.2095681169916795
752 0.9487778547367234 -0.09944846284775047 -0.2998842870148427
753 0.9802133275502302 -0.09929456170209004 -0.1712379120092713
754 0.3345962794707914 0.8175278915625952 -0.4687147067049652
755 0.2206817301476016 0.8443820663079594 -0.4881787583217462
756 0.1036607499140749 0.8593502795414256 -0.5007709516129357
757 0.2877488824210249 0.9515692541617403 -0.1082429452644391
758 0.3462088843437489 0.9104604212505708 -0.2262768873254401
759 0.3980772354804303 0.8520168594436567 -0.3400026261898961
760 0.2859347587700289 0.88765408646991 -0.3609868924218648
761 0.1681874316778229 0.9103865656698477 -0.3780334494108659
762 0.2309141726026554 0.9418792030213144 -0.24401272878103
763 0.1477119463319314 0.730199927827239 -0.6670751429276371
764 0.1268149174964247 0.799813868528199 -0.5866990305176342
765 0.245118682534902 0.782190394883976 -0.5727957905079292
766 -0.2791885234845278 0.9580561283367343 -0.06467011141907973
767 -0.2814839638494182 0.9594248546669282 0.01645376379322437
768 -0.2819249243611492 0.9544726736201327 0.09746923789789202
769 -0.1559736482841486 0.9861731251377452 0.05598918017783248
770 -0.0246467852339516 0.9996201607669118 0.01233167328324692
771 -0.1544926860286854 0.9876288151022916 -0.02685765334658957
772 -0.5041254505278762 0.8635004132393619 0.01498554188266798
773 -0.3953182425755731 0.9167671417929998 0.05710949847139386
774 -0.3939857774964814 0.9187627935905333 -0.02549776939679234
775 0.09937041867197964 0.8737305325113515 0.476151736792365
776 0.2286011777187797 0.871260314673816 0.434335084491306
777 0.353613028085238 0.8527107059027109 0.3845026377117446
778 0.414870620160821 0.8738227165131855 0.253606444383601
779 0.3554941657724119 0.9185973598640379 0.172634841653115
780 0.291820948507069 0.9522691626770234 0.08957664777627712
781 0.1662669367442413 0.9199889260269137 0.3549305308557329
782 0.2944802839834252 0.9051502394830498 0.3065687627740617
783 0.2320699195770859 0.9467759973818625 0.2230667236704401
784 0.3293545340885753 0.811373685020508 0.4829061338723489
785 0.2010610158029575 0.8236583724088883 0.5302465025674606
786 0.3014415649352656 0.7594966500107017 0.5764527921277682
787 -0.05837244893006779 0.06504869170820202 0.9961733407961477
788 -0.1172076919991824 0.1306131087941637 0.9844808645917648
789 -0.1751173467902034 0.1951460751246059 0.9650139502704722
790 -0.1956368447548445 -0.1040907456926054 0.9751365758884887
791 -0.130789909786783 -0.0695882171675523 0.9889648525248037
792 -0.06521228158494816 -0.03469691523086848 0.9972680093154234
793 -0.1249377660375114 0.0307108559806143 0.9916891639735175
794 -0.1840741550898002 0.09648674111192142 0.9781651262530152
795 -0.1909560048397492 -0.004360346566641258 0.9815889117107326
796 0.1518378710228205 -0.4940304766324067 -0.8560836110343512
797 0.08201106756107039 -0.5774451723406447 -0.8122999801415587
798 0.01105654628887083 -0.6529195348137208 -0.7573465744576895
799 -0.04324505088792753 -0.4696843070441806 -0.8817746408749394
800 0.05494555907306126 -0.484481138965407 -0.8730744593245932
801 -0.01613516975944143 -0.5656601641805834 -0.8244805849478989
802 -0.7810715130165727 0.6243864111670604 0.008300668883928155
803 -0.8587341340493336 0.512409273263234 0.003524725859600755
804 -0.9204301638396275 0.390904821735034 -0.001316752998007919
805 -0.9544509741255609 0.2780315165065481 0.1082673257258939
806 -0.9317335070808669 0.2856763332384436 0.2241912228661636
807 -0.8959597735078261 0.2893180028051287 0.3369735560969981
808 -0.840812399987947 0.5274744156334354 0.121676821452051
809 -0.9067449827725235 0.4053049663643438 0.1163676091412651
810 -0.8803049164032015 0.4124613558156731 0.2343904522693897
811 -0.7456521335196915 0.6584650900044007 -0.1021108271586749
812 -0.7852916980475839 0.5788033083356928 -0.219780980153423
813 -0.8078405200269637 0.4865447064617208 -0.3326679167227324
814 -0.8688144157653648 0.3654917729158563 -0.3340318471180735
815 -0.9139101146279159 0.3369464365758594 -0.2263523829333807
816 -0.9458059124192869 0.3035344732471695 -0.115403637651867
817 -0.8957764356999207 0.4298742905132883 -0.1131046930964529
818 -0.8277784502464537 0.5504822464845559 -0.1084072581190767
819 -0.8577666239370257 0.4621243921635594 -0.2251165587582082
820 -0.8886238592885342 -0.1042658195913317 -0.4466276699535075
821 -0.8025552809228297 -0.06939853691003151 -0.5925275218398085
822 -0.6924820378614086 -0.03245552356132764 -0.7207047011291593
823 -0.7316443316703358 -0.1662422175774283 -0.6611052087448764
824 -0.7545526528304004 -0.299186061177364 -0.5840701968974105
825 -0.8297544811597775 -0.2025236776406761 -0.5200881280996175
826 0.7776813334176823 -0.5274469066890372 -0.3420694436483064
827 0.8293922783859961 -0.4831169607808221 -0.2805466997838115
828 0.8741162453557287 -0.4347171342338766 -0.2166605704983932
829 0.8170561596660636 -0.5473609797547978 -0.1811496337109512
830 0.7443372650989687 -0.652489813448533 -0.1421938083422978
831 0.7666344478141325 -0.5936803911209415 -0.2445714959336147
832 0.5162399941200743 -0.8564438801162483 -0.0003855934790877213
833 0.397828190044943 -0.9174598480612152 -0.0003979963023328643
834 0.272357201688575 -0.9621961296989647 -0.0004033369582612538
835 0.1930706696092473 -0.9768806456281016 -0.09180370762589142
836 0.2384644804200181 -0.9535174261577337 -0.1842259742586305
837 0.2811998144555457 -0.919524095537206 -0.2745944319840622
838 0.444723434518421 -0.8908028792294973 -0.09322712666696024
839 0.3205750036628239 -0.9426323889418621 -0.09314422335463649
840 0.3650505770753233 -0.9122239182598808 -0.185972038574523
841 0.2873879166358328 -0.918523084915371 0.2715207687254617
842 0.2426266390876249 -0.952914172154596 0.1818980332822883
843 0.1951434415943224 -0.9766149407177457 0.09023466501072261
844 0.3225322629634485 -0.9421245511886598 0.09151103428135389
845 0.4465440575235065 -0.890060950114087 0.09159645065422535
846 0.369011554756937 -0.9111286575890335 0.1835076068610618
847 0.8794747327684449 -0.2465891516332609 -0.4070847389901288
848 0.8846693545237905 -0.3447448106675099 -0.3138648573578806
849 0.8376304976557665 -0.3934017711864851 -0.3789593590667599
850 0.9021896490376096 0.4313225038766504 -0.003838595963590126
851 0.8449087075998506 0.5348385273469791 -0.008776416538933886
852 0.775781254331822 0.6308555501743878 -0.01359118249142827
853 0.725757384579514 0.6829521223921106 0.08278053665213263
854 0.7450598990047146 0.6407815559853746 0.1851614009561574
855 0.75495023183183 0.5905161338795269 0.2852031610712662
856 0.8658325659173298 0.4914338506082367 0.09395072258037158
857 0.800965077006999 0.5920642630009153 0.08896546460484096
858 0.8160007129710022 0.5453249582557634 0.1917381713018202
859 -0.1266178888770887 0.272118959412386 0.953896840410235
860 -0.01851188694116548 0.2842304726040566 0.958577252226002
861 0.08981358271965117 0.2929722906713961 0.9518932488771077
862 -0.03150487626709113 0.4262791695555942 0.904042870871945
863 -0.07958745383656998 0.3504128448517129 0.9332077342986079
864 0.02949733099309715 0.360902386106093 0.9321369937767797
865 0.6519672456847754 0.7550012785539114 0.07008409189086101
866 0.5970041595533265 0.7862145319850524 0.1595391587402652
867 0.5348785655618888 0.8079952418151672 0.2470801677725378
868 0.6149743478222102 0.7435858163446543 0.2624627311671151
869 0.6891080981788773 0.6703203451025918 0.2753192037723362
870 0.6747637641542461 0.7174497235196463 0.1730888696767526
871 0.3539642911792327 0.9352583162485008 0.001078173456774397
872 0.479893180918381 0.8773094579984562 -0.005536227460372838
873 0.5965793732263754 0.8024637022799973 -0.01204400115846197
874 0.4162568654528725 0.9017296714524261 -0.116678282407862
875 0.5391701586571127 0.8331255061964689 -0.1232778606990794
876 0.471908197455815 0.8499183247130416 -0.2343960206381074
877 0.5422869848586954 0.8366275443800264 0.077325144923965
878 0.4197223018570621 0.9037612534964846 0.08395704855622525
879 0.4808735482862979 0.8607713139639974 0.1668333768022429
880 -0.1172859334818478 -0.1633491433856923 0.9795718795282213
881 -0.03691547189795481 -0.2215152726349642 0.9744579169589669
882 -0.05135612025158025 -0.1282524176210775 0.9904109582830019
883 0.9485056228622967 -0.09420400773259714 0.3024279886613066
884 0.9582144433589678 -0.1882663288164939 0.2153621832453953
885 0.9802322248986692 -0.09407601245250846 0.1740531216360118
886 -0.4452564970094184 0.6118784072141068 -0.653721245376062
887 -0.467299968675598 0.6741060655832708 -0.5720242578943905
888 -0.4841879095706134 0.7288965855036719 -0.4840163590899876
889 -0.3679267187697791 0.767855835445079 -0.5244304964323144
890 -0.2432899622213101 0.7945108370163492 -0.556383432666658
891 -0.3488779929001162 0.7095414464076314 -0.6122377658228483
892 -0.9400351490103843 -0.003805214205711083 -0.3410563574687812
893 -0.9153418380863383 0.1321454795027104 -0.3803773017619773
894 -0.8717572561846243 0.2653688903995226 -0.4118478339114842
895 -0.8698733388545401 0.03177827605652044 -0.4922504601530911
896 -0.8323834522883993 0.1700081829287894 -0.5274798632115707
897 -0.7710102375900199 0.06844436063463727 -0.6331339376693506
898 0.08479760199026508 -0.6882618502396926 -0.720489411581694
899 0.2326216760912671 -0.6410782039931715 -0.7313726083039883
900 0.3748170739039951 -0.5783825824811584 -0.7245590033892844
901 0.231593166749879 -0.8595346915579457 -0.4555927118854626
902 0.1357402243881475 -0.8264598221089966 -0.5463870001405789
903 0.03737264871635762 -0.7780745064937179 -0.6270592854527243
904 0.1855758292114797 -0.7411048794606678 -0.6452326473854689
905 0.3332631453063492 -0.6853500639699227 -0.6474804752244983
906 0.2844596142126984 -0.7808785235352914 -0.556157764814361
907 0.301729417413567 -0.5557264716264225 -0.7746789318168634
908 0.1562020307403217 -0.6127589507808524 -0.7746788972410108
909 0.2266986177183984 -0.5275749408261501 -0.8187016663821149
910 -0.9221431545479172 0.2367418891950572 -0.3059498004914718
911 -0.9575285091295999 0.1003446975960779 -0.2703148088218575
912 -0.9594396965619418 0.2045718025985393 -0.1939738287571632
913 -0.7992950620967774 0.2412475043320509 0.5503880861367421
914 -0.7338556502471554 0.1876593697925562 0.6528704661181921
915 -0.6554588111724955 0.130757800756285 0.743825345358518
916 -0.6050644084297796 0.3690841408021736 0.7054601042297447
917 -0.7101991259603578 0.3077189669133139 0.633187364756236
918 -0.6355100863996267 0.2509966506970026 0.7301558815918872
919 0.03351232265067721 -0.7977724291593071 0.602026640194448
920 0.1357250825170616 -0.8384385686757309 0.5278252253660568
921 0.2355481263569322 -0.8643422925232608 0.4443303742997689
922 0.2664767876417007 -0.7066860609732462 0.6554272903032627
923 0.1503325915885999 -0.7588735861627881 0.6336489502324489
924 0.2531725057307616 -0.7932209920827967 0.5538087576602515
925 0.1803471967555307 -0.9150269435485593 -0.3608331764161988
926 0.03029243622690914 -0.9349196571531082 -0.3535641426617712
927 -0.1204579897986642 -0.9333419501208927 -0.3381755118842787
928 0.08474456860739074 -0.8874210424056629 -0.4531029150062864
929 -0.06800550744971461 -0.895005817733043 -0.4408399223987249
930 -0.01455245176428303 -0.8425492921317402 -0.5384226188376113
931 -0.01653622513491402 -0.965288095269446 -0.2606634734468413
932 0.1356555920249723 -0.9529317975097409 -0.2711430427785463
933 0.09017114075552629 -0.9800440392670717 -0.1771520433749763
934 -0.7515633978535653 0.4966858824690412 -0.4341147235037683
935 -0.6758740863531308 0.6006710782521582 -0.4270696373516975
936 -0.588971059925563 0.6946902842562646 -0.4129388568905923
937 -0.6611748455947181 0.5441345252110921 -0.5164934094701501
938 -0.5767517584079526 0.6426784422301318 -0.5043033105840032
939 -0.557150336674419 0.5833523510067035 -0.5910021462892782
940 -0.08178117026136061 -0.96342134760207 0.2552080468466735
941 0.05892497699900129 -0.9534217310608432 0.2958290888783798
942 0.1983613922815403 -0.9228775148959195 0.3300755224969897
943 -0.04395930256155293 -0.9249205845512523 0.3776102381976312
944 0.09852691861284822 -0.9041748476721225 0.4156444287437899
945 -0.00473204672481887 -0.8687176506428371 0.4952850201604966
946 -0.8650886351078209 0.1353262614074506 0.4830201407609935
947 -0.8579615801156482 -0.03078531061501472 0.5127905924408106
948 -0.8263567705092297 -0.1960185737523015 0.5279310623345341
949 -0.7856074352805414 -0.08868782976800008 0.612336040490001
950 -0.7275925551794807 0.02270939423011674 0.6856335442939584
951 -0.8043125002596838 0.07986160058246947 0.5888153587317693
952 0.1524345727877752 -0.9585745206370627 0.2406212571749088
953 0.01109594043757475 -0.9791415506295976 0.2028760802472114
954 0.1046066371250771 -0.9835234536133359 0.1474417432814695
955 -0.6506006099864522 0.6914556500390991 -0.3140189967410619
956 -0.7360655552760283 0.5930998543136875 -0.3262515304933828
957 -0.7034297397712803 0.6793343654535136 -0.2090249294203464
958 -0.9080123761482385 0.1792739546845106 0.3786480871910034
959 -0.9505185420613009 0.06121358800692625 0.3045774086188556
960 -0.9728437832963341 -0.05814643433667049 0.224040097919115
961 -0.9445100747209868 -0.2200253856107351 0.2439047937975047
962 -0.899894070903888 -0.2668132894503143 0.344965693547534
963 -0.8423258906438614 -0.3097609492945003 0.44106150165617
964 -0.9109973840667861 0.01742375245896305 0.4120439043035599
965 -0.9379620392498983 -0.1039216109156101 0.3307982946009196
966 -0.8885233214246135 -0.1506967171915226 0.4333783643795237
967 -0.9805458092052514 0.05491915511108908 0.188451061158867
968 -0.9477276973141077 0.1751228132120514 0.2667287236808141
969 -0.9742825351524256 0.1686036019433279 0.1494870131773941
970 -0.9086930100909264 -0.3529864228691583 0.2228847206111878
971 -0.8540078410226126 -0.4815830029736597 0.1968461803509735
972 -0.8576001758553452 -0.3993182793507731 0.3241401705269172
973 -0.06835117064766824 0.2083233201877992 0.9756687510302997
974 -0.009221226354283137 0.1423163292970099 0.9897782738573059
975 0.04065614369394505 0.2188887641719726 0.9749024499400972
976 0.8073960996591013 0.5814166914479902 -0.1003303003132317
977 0.8716325518409755 0.480781671793717 -0.09542367965252441
978 0.8302619702633329 0.5250874663773066 -0.1869444125613531
$EndNodes
$Elements
130
1 15 2 0 1 1
2 15 2 0 2 2
3 27 2 0 2 2 3 8 9 10
4 27 2 0 2 3 4 11 12 13
5 27 2 0 2 4 5 14 15 16
6 27 2 0 2 5 6 17 18 19
7 27 2 0 2 6 7 20 21 22
8 27 2 0 2 7 1 23 24 25
9 23 2 0 1 26 28 27 82 83 84 85 86 87 88 89 90 91 92 93
10 23 2 0 1 27 28 29 87 86 85 94 95 96 97 98 99 100 101 102
11 23 2 0 1 3 31 30 103 104 105 106 107 108 109 110 111 112 113 114
12 23 2 0 1 31 3 32 105 104 103 115 116 117 118 119 120 121 122 123
13 23 2 0 1 3 4 32 11 12 13 124 125 126 117 116 115 127 128 129
14 23 2 0 1 33 35 34 130 131 132 133 134 135 136 137 138 139 140 141
15 23 2 0 1 36 38 37 142 143 144 145 146 147 148 149 150 151 152 153
16 23 2 0 1 39 38 36 154 155 156 144 143 142 157 158 159 160 161 162
17 23 2 0 1 36 37 27 150 149 148 163 164 165 166 167 168 169 170 171
18 23 2 0 1 29 36 27 172 173 174 168 167 166 99 98 97 175 176 177
19 23 2 0 1 4 41 40 178 179 180 181 182 183 184 185 186 187 188 189
20 23 2 0 1 30 38 2 190 191 192 193 194 195 196 197 198 199 200 201
21 23 2 0 1 38 39 2 156 155 154 202 203 204 195 194 193 205 206 207
22 23 2 0 1 4 40 5 186 185 184 208 209 210 16 15 14 211 212 213
23 23 2 0 1 42 44 43 214 215 216 217 218 219 220 221 222 223 224 225
24 23 2 0 1 45 6 40 226 227 228 229 230 231 232 233 234 235 236 237
25 23 2 0 1 46 42 43 238 239 240 222 221 220 241 242 243 244 245 246
26 23 2 0 1 47 49 48 247 248 249 250 251 252 253 254 255 256 257 258
27 23 2 0 1 50 52 51 259 260 261 262 263 264 265 266 267 268 269 270
28 23 2 0 1 48 53 47 271 272 273 274 275 276 255 254 253 277 278 279
29 23 2 0 1 54 56 55 280 281 282 283 284 285 286 287 288 289 290 291
30 23 2 0 1 34 35 57 135 134 133 292 293 294 295 296 297 298 299 300
31 23 2 0 1 58 35 33 301 302 303 132 131 130 304 305 306 307 308 309
32 23 2 0 1 58 33 52 306 305 304 310 311 312 313 314 315 316 317 318
33 23 2 0 1 59 60 46 319 320 321 322 323 324 325 326 327 328 329 330
34 23 2 0 1 46 60 42 324 323 322 331 332 333 240 239 238 334 335 336
35 23 2 0 1 61 63 62 337 338 339 340 341 342 343 344 345 346 347 348
36 23 2 0 1 61 62 29 345 344 343 349 350 351 352 353 354 355 356 357
37 23 2 0 1 55 65 64 358 359 360 361 362 363 364 365 366 367 368 369
38 23 2 0 1 48 49 6 252 251 250 370 371 372 373 374 375 376 377 378
39 23 2 0 1 38 30 31 192 191 190 108 107 106 379 380 381 382 383 384
40 23 2 0 1 52 33 51 312 311 310 385 386 387 264 263 262 388 389 390
41 23 2 0 1 53 48 44 273 272 271 391 392 393 394 395 396 397 398 399
42 23 2 0 1 44 48 7 393 392 391 400 401 402 403 404 405 406 407 408
43 23 2 0 1 7 43 44 409 410 411 219 218 217 405 404 403 412 413 414
44 23 2 0 1 50 7 6 415 416 417 22 21 20 418 419 420 421 422 423
45 23 2 0 1 51 7 50 424 425 426 417 416 415 267 266 265 427 428 429
46 23 2 0 1 7 51 1 426 425 424 430 431 432 25 24 23 433 434 435
47 23 2 0 1 40 6 5 231 230 229 19 18 17 210 209 208 436 437 438
48 23 2 0 1 43 7 1 411 410 409 23 24 25 439 440 441 442 443 444
49 23 2 0 1 55 66 54 445 446 447 448 449 450 288 287 286 451 452 453
50 23 2 0 1 47 67 49 454 455 456 457 458 459 249 248 247 460 461 462
51 23 2 0 1 67 5 49 463 464 465 466 467 468 459 458 457 469 470 471
52 23 2 0 1 48 6 7 375 374 373 20 21 22 402 401 400 472 473 474
53 23 2 0 1 54 66 39 450 449 448 475 476 477 478 479 480 481 482 483
54 23 2 0 1 64 3 68 484 485 486 487 488 489 490 491 492 493 494 495
55 23 2 0 1 55 64 68 366 365 364 492 491 490 496 497 498 499 500 501
56 23 2 0 1 69 71 70 502 503 504 505 506 507 508 509 510 511 512 513
57 23 2 0 1 56 71 72 514 515 516 517 518 519 520 521 522 523 524 525
58 23 2 0 1 45 50 6 526 527 528 420 419 418 228 227 226 529 530 531
59 23 2 0 1 3 30 2 111 110 109 198 197 196 8 9 10 532 533 534
60 23 2 0 1 71 56 70 516 515 514 535 536 537 507 506 505 538 539 540
61 23 2 0 1 55 68 66 498 497 496 541 542 543 447 446 445 544 545 546
62 23 2 0 1 52 50 45 261 260 259 528 527 526 547 548 549 550 551 552
63 23 2 0 1 46 43 73 243 242 241 553 554 555 556 557 558 559 560 561
64 23 2 0 1 52 45 74 549 548 547 562 563 564 565 566 567 568 569 570
65 23 2 0 1 41 4 64 180 179 178 571 572 573 574 575 576 577 578 579
66 23 2 0 1 46 57 59 580 581 582 583 584 585 327 326 325 586 587 588
67 23 2 0 1 64 65 41 363 362 361 589 590 591 576 575 574 592 593 594
68 23 2 0 1 75 76 69 595 596 597 598 599 600 601 602 603 604 605 606
69 23 2 0 1 58 76 35 607 608 609 610 611 612 303 302 301 613 614 615
70 23 2 0 1 76 75 35 597 596 595 616 617 618 612 611 610 619 620 621
71 23 2 0 1 41 65 77 591 590 589 622 623 624 625 626 627 628 629 630
72 23 2 0 1 64 4 3 573 572 571 13 12 11 486 485 484 631 632 633
73 23 2 0 1 29 60 59 634 635 636 321 320 319 637 638 639 640 641 642
74 23 2 0 1 46 73 57 558 557 556 643 644 645 582 581 580 646 647 648
75 23 2 0 1 68 2 66 649 650 651 652 653 654 543 542 541 655 656 657
76 23 2 0 1 78 69 76 658 659 660 600 599 598 661 662 663 664 665 666
77 23 2 0 1 78 58 72 667 668 669 670 671 672 673 674 675 676 677 678
78 23 2 0 1 2 39 66 204 203 202 477 476 475 654 653 652 679 680 681
79 23 2 0 1 68 3 2 489 488 487 10 9 8 651 650 649 682 683 684
80 23 2 0 1 58 78 76 669 668 667 663 662 661 609 608 607 685 686 687
81 23 2 0 1 57 73 34 645 644 643 688 689 690 297 296 295 691 692 693
82 23 2 0 1 42 60 28 333 332 331 694 695 696 697 698 699 700 701 702
83 23 2 0 1 4 79 32 703 704 705 706 707 708 126 125 124 709 710 711
84 23 2 0 1 80 79 47 712 713 714 715 716 717 718 719 720 721 722 723
85 23 2 0 1 79 80 32 714 713 712 724 725 726 708 707 706 727 728 729
86 23 2 0 1 60 29 28 636 635 634 96 95 94 696 695 694 730 731 732
87 23 2 0 1 81 54 39 733 734 735 480 479 478 736 737 738 739 740 741
88 23 2 0 1 36 29 62 174 173 172 351 350 349 742 743 744 745 746 747
89 23 2 0 1 67 4 5 748 749 750 14 15 16 465 464 463 751 752 753
90 23 2 0 1 65 56 72 754 755 756 522 521 520 757 758 759 760 761 762
91 23 2 0 1 55 56 65 285 284 283 756 755 754 360 359 358 763 764 765
92 23 2 0 1 78 72 71 675 674 673 519 518 517 766 767 768 769 770 771
93 23 2 0 1 69 78 71 660 659 658 768 767 766 504 503 502 772 773 774
94 23 2 0 1 58 74 72 775 776 777 778 779 780 672 671 670 781 782 783
95 23 2 0 1 74 58 52 777 776 775 315 314 313 567 566 565 784 785 786
96 23 2 0 1 1 34 73 787 788 789 690 689 688 790 791 792 793 794 795
97 23 2 0 1 38 31 37 381 380 379 796 797 798 147 146 145 799 800 801
98 23 2 0 1 69 63 75 802 803 804 805 806 807 603 602 601 808 809 810
99 23 2 0 1 63 69 81 804 803 802 811 812 813 814 815 816 817 818 819
100 23 2 0 1 39 36 62 159 158 157 744 743 742 820 821 822 823 824 825
101 23 2 0 1 67 47 79 456 455 454 717 716 715 826 827 828 829 830 831
102 23 2 0 1 47 26 80 832 833 834 835 836 837 720 719 718 838 839 840
103 23 2 0 1 26 47 53 834 833 832 276 275 274 841 842 843 844 845 846
104 23 2 0 1 4 67 79 750 749 748 828 827 826 705 704 703 847 848 849
105 23 2 0 1 40 77 45 850 851 852 853 854 855 234 233 232 856 857 858
106 23 2 0 1 33 34 51 138 137 136 859 860 861 387 386 385 862 863 864
107 23 2 0 1 74 45 77 564 563 562 855 854 853 865 866 867 868 869 870
108 23 2 0 1 72 77 65 871 872 873 624 623 622 759 758 757 874 875 876
109 23 2 0 1 77 72 74 873 872 871 780 779 778 867 866 865 877 878 879
110 23 2 0 1 73 43 1 555 554 553 441 440 439 792 791 790 880 881 882
111 23 2 0 1 6 49 5 372 371 370 468 467 466 17 18 19 883 884 885
112 23 2 0 1 70 56 54 537 536 535 282 281 280 886 887 888 889 890 891
113 23 2 0 1 62 81 39 892 893 894 738 737 736 822 821 820 895 896 897
114 23 2 0 1 37 32 80 898 899 900 726 725 724 901 902 903 904 905 906
115 23 2 0 1 32 37 31 900 899 898 798 797 796 120 119 118 907 908 909
116 23 2 0 1 81 62 63 894 893 892 342 341 340 816 815 814 910 911 912
117 23 2 0 1 35 75 57 618 617 616 913 914 915 294 293 292 916 917 918
118 23 2 0 1 44 42 53 216 215 214 919 920 921 396 395 394 922 923 924
119 23 2 0 1 80 27 37 925 926 927 165 164 163 903 902 901 928 929 930
120 23 2 0 1 27 80 26 927 926 925 837 836 835 90 89 88 931 932 933
121 23 2 0 1 81 70 54 934 935 936 888 887 886 735 734 733 937 938 939
122 23 2 0 1 28 53 42 940 941 942 921 920 919 699 698 697 943 944 945
123 23 2 0 1 59 57 75 585 584 583 915 914 913 946 947 948 949 950 951
124 23 2 0 1 53 28 26 942 941 940 84 83 82 843 842 841 952 953 954
125 23 2 0 1 70 81 69 936 935 934 813 812 811 510 509 508 955 956 957
126 23 2 0 1 75 61 59 958 959 960 961 962 963 948 947 946 964 965 966
127 23 2 0 1 61 75 63 960 959 958 807 806 805 339 338 337 967 968 969
128 23 2 0 1 61 29 59 354 353 352 639 638 637 963 962 961 970 971 972
129 23 2 0 1 34 1 51 789 788 787 432 431 430 861 860 859 973 974 975
130 23 2 0 1 77 40 41 852 851 850 183 182 181 627 626 625 976 977 978
$EndElements
