$MeshFormat
2.2 0 8
$EndMeshFormat
$PhysicalNames
1
2 4 "Gamma"
$EndPhysicalNames
$Nodes
626
1 6.123031769111886e-17 -1.499660721822137e-32 1
2 6.123031769111886e-17 -1.499660721822137e-32 -1
3 0.5877852522924737 -1.439611109280905e-16 -0.809016994374947
4 0.9510565162951535 -2.32933970539844e-16 -0.3090169943749476
5 0.951056516295154 -2.329339705398442e-16 0.3090169943749463
6 0.5877852522924748 -1.439611109280907e-16 0.8090169943749462
7 0.1564344650402307 -3.83141279690142e-17 -0.9876883405951378
8 0.3090169943749472 -7.568483495013084e-17 -0.9510565162951536
9 0.4539904997395466 -1.11191930111209e-16 -0.8910065241883679
10 0.707106781186548 -1.731854914143872e-16 -0.707106781186547
11 0.8090169943749478 -1.981454703323687e-16 -0.5877852522924726
12 0.8910065241883681 -2.182264501636535e-16 -0.4539904997395462
13 0.9876883405951377 -2.419058834978172e-16 -0.1564344650402311
14 1 -2.449212707644755e-16 -2.449212707644755e-16
15 0.9876883405951378 -2.419058834978172e-16 0.1564344650402306
16 0.8910065241883683 -2.182264501636535e-16 0.4539904997395457
17 0.8090169943749481 -1.981454703323688e-16 0.5877852522924721
18 0.7071067811865483 -1.731854914143873e-16 0.7071067811865467
19 0.4539904997395479 -1.111919301112093e-16 0.8910065241883673
20 0.3090169943749477 -7.568483495013096e-17 0.9510565162951535
21 0.1564344650402303 -3.831412796901411e-17 0.9876883405951378
22 0.6593643873344496 -0.4687719081840782 0.5877852522924714
23 0.6881909602439498 -0.5257311121215311 -0.4999999999859684
24 0.8843290803590924 -0.466860573381409 0.001811809378445553
25 0.4417366023295634 -0.8942246755226787 -0.07232567904066307
26 0.1251392277588509 -0.8745830789314232 0.4684491559633237
27 0.8506508084001694 0.5257311120412584 -5.662315780699279e-16
28 0.2628655560567734 0.5257311121079566 -0.8090169943831182
29 -0.1777840623879864 -0.9799822451903714 -0.08959702156022419
30 0.2628655560571834 0.5257311121064827 0.8090169943839428
31 -0.4915254409268904 -0.7551728468596206 0.4337242353011436
32 -0.7280742176041238 -0.6745271085791107 -0.1221520096111706
33 -0.9011163039508999 -0.2827379000214003 0.3287076005287341
34 -0.9616505998525247 -0.1220401603641402 -0.2456304603699925
35 -0.928672650340331 0.3224279480999226 0.1833230121777923
36 -0.3329289990525428 -0.7360832953311394 -0.5893552951525273
37 -0.7889627452285444 0.4620574134887101 -0.4050194233386372
38 -0.5430424493700435 0.836330669325117 0.07520578254619474
39 -0.5242761828770586 -0.2406637774026512 0.8168325595335608
40 -0.7355245343582822 -0.004746026777390816 -0.6774814643861928
41 -0.5143590992352879 0.6346501017011459 0.57676161925408
42 -0.2681200591489109 0.8597314450666577 -0.4347107960996379
43 0.01356709848289891 0.9996374265424464 0.02325831667060957
44 0.1890889392184529 -0.8500071655234339 -0.4916636976878177
45 0.1902113032728886 -0.4702282018990407 -0.8618033988364308
46 0.7718336869928286 0.4759268235217447 -0.4216235504280547
47 0.4326553691792438 0.851358972731818 -0.2966432724155322
48 -0.3410045413571833 0.3210298652533358 -0.8835472417416073
49 0.4506504153885623 0.8493792904791451 0.2747162609225382
50 0.7108435975304052 0.4774645602369995 0.5164581043683215
51 0.1259883971049225 -0.3760915374105625 0.917977167081563
52 -0.02697684215535376 0.8896555165666582 0.4558347417977678
53 -0.4279266966651413 -0.2605494832074892 -0.8654436487036984
54 -0.7607062347703978 0.172323786654745 0.6258039125272503
55 -0.5935230391318356 0.310033820240798 0.7427041351215207
56 -0.7175703906951096 -0.4393716063081815 -0.5404121815501904
57 -0.1561025994916182 0.08154204989362762 0.9843692765070965
58 -0.3179148050874984 0.1660665804592167 0.9334624082204706
59 -0.4683077984748547 0.2446261496808829 0.8490264146538323
60 -0.4599173708870529 0.1539959847532651 0.8745062885058136
61 -0.270798534313247 -0.03826097872042072 0.9618753824280736
62 -0.05991777700920291 -0.2274432121624738 0.9719462151989129
63 0.09597891308931762 -0.2865093755633302 0.9532577961687508
64 0.06432707978130134 -0.1920245902639259 0.9792796247960954
65 0.03199297102977255 -0.09550312518777679 0.9949148721795529
66 -0.1353064278929579 -0.0149613214935844 0.9906908344332319
67 -0.3066702236631776 0.07301225612453821 0.9490113720993977
68 -0.1018302848636355 -0.1195645787463861 0.9875904538794359
69 -0.3640656864912352 -0.7131308001319147 0.599083164362746
70 -0.2030613100551529 -0.628434331817053 0.7508904014250942
71 -0.03065679993570857 -0.508456719142477 0.8605416465090868
72 -0.03823147627306968 -0.3577074764086836 0.9330507572170513
73 -0.2114313476195763 -0.3274049870991966 0.9209249479009377
74 -0.3780634273157147 -0.2869321622894693 0.8801920126712039
75 -0.5372878847961128 -0.3844604274665652 0.750674302586378
76 -0.5363111581874547 -0.5257702693204808 0.6602544702630192
77 -0.5202398620665656 -0.6522822167868464 0.5512516626556316
78 -0.3776121209338208 -0.5879939548668232 0.7153126555317848
79 -0.2070420766045738 -0.4838215506547403 0.8503236358218607
80 -0.3816022962549263 -0.4417837138345247 0.8119155360525763
81 0.5503084314003814 -0.5967946522875759 0.583949290033478
82 0.4172136353897614 -0.7144212047088768 0.561725132700306
83 0.270749585681097 -0.8091547413635847 0.5215009744788063
84 0.2122598335880307 -0.9138109783534364 0.3462589477340865
85 0.2984821109236257 -0.9313458862502471 0.2085743743208119
86 0.3767352753118439 -0.9240149804551224 0.0653211162659435
87 0.5302550060908919 -0.8420294832549889 0.09907561680294706
88 0.6028674497357226 -0.7462587738373829 0.2822209781711341
89 0.6465502021016121 -0.6146774796041915 0.4518234525008672
90 0.5187901530704315 -0.7388115024837241 0.4301329339575155
91 0.3693216185782865 -0.8420441644199251 0.3931452240801923
92 0.4578231515019399 -0.8536567773438468 0.2483305628466818
93 0.1310074912815833 -0.7837990591852788 0.6070387731013379
94 0.133295405308051 -0.6638424585277274 0.7358977681577958
95 0.1314512335896842 -0.5233070993348848 0.8419443289039122
96 -0.3506181188275558 -0.8158783590740502 0.459792820675205
97 -0.1929883367951274 -0.8584490196309965 0.475206042212882
98 -0.03016775196030098 -0.8779299968898912 0.4778376578949982
99 -0.03365403598068528 -0.7801450023113731 0.6246928695213341
100 -0.03293520464446514 -0.6529773581773534 0.7566609822124777
101 -0.2034120412889896 -0.7565792922881335 0.6214590219309987
102 -0.5412591666224977 0.5608625918185881 0.6264755922186076
103 -0.5638372441366328 0.4807803652408252 0.6715190261811693
104 -0.5813679388586539 0.3963942680558284 0.7105511268865348
105 -0.4108354575420106 0.3940872620970183 0.8221371276612697
106 -0.1843920629302401 0.4660666335667799 0.8653215935154163
107 0.05280554495783138 0.5108638156369848 0.8580383070087998
108 0.07331835204689151 0.591343908460229 0.8030795733799413
109 -0.1378152137995673 0.6358739196602269 0.7593887839185662
110 -0.3422689879174704 0.649583637281259 0.6788910355030477
111 -0.3588934197027435 0.5716984895946599 0.7378050896336071
112 -0.3822581482786733 0.4862550649193602 0.7857701444537255
113 -0.1493185175924067 0.5546445680754605 0.8185801020110324
114 0.1968040232901691 0.6374384732552903 0.7449431986606544
115 0.1233210100478846 0.7399544716195431 0.6612558569956204
116 0.04701236046891902 0.8255160009789928 0.5624172562171186
117 -0.1534556303817468 0.8516166818514831 0.5011989591932634
118 -0.2820832867118964 0.7942963063745776 0.5380728547673794
119 -0.4047334899915564 0.7201444874794005 0.5635447801482029
120 -0.004132262446238107 0.6945434944470844 0.7194388498880974
121 -0.08227875900353056 0.7830733939350862 0.6164627040850276
122 -0.2153429189814994 0.7236279661064804 0.6557362228160998
123 0.5734146004429421 -0.8173601897448611 -0.05583919966390655
124 0.6973523987518961 -0.7157685140487405 -0.03708188575887549
125 0.803135824542319 -0.5955430338882866 -0.01735920861861195
126 0.8604797526515773 -0.4856190188037391 0.1541063394308423
127 0.812918222462396 -0.4927096665950859 0.3104853427012909
128 0.7435974979122139 -0.4866120685054237 0.45855365649351
129 0.7179568374421316 -0.6267321699397143 0.3028939859633232
130 0.6582770982227357 -0.7427509193791212 0.1224431856696191
131 0.7711489062535655 -0.6206352120475115 0.1419200406942946
132 -0.09771782017092827 0.9018613259100591 -0.4208293911418168
133 0.08807649493358415 0.9159544324336727 -0.3914971375953121
134 0.2707371783250668 0.8974592319483734 -0.3482359936353748
135 0.4056115460755155 0.8003462038374505 -0.4415033722331146
136 0.3664388488044588 0.7255271366817392 -0.5825229128757597
137 0.3173653755052985 0.6311051215688629 -0.7078033229364861
138 0.1371615406444093 0.6422043789412948 -0.7541619504036768
139 -0.002822232294893722 0.7441421393537804 -0.6680153526999604
140 -0.1427004311685655 0.8182430306320827 -0.5568796366956957
141 0.04123549628676353 0.8425974779474744 -0.5369628702271134
142 0.2309632752848896 0.8362595874702567 -0.4973186783479505
143 0.1852919206464551 0.7488603837162615 -0.6362979096645542
144 0.1164891721167678 0.4940266729420925 -0.8616077525192753
145 -0.04125234089490263 0.4470351433450948 -0.8935646730847865
146 -0.1978341749656595 0.3874766362059903 -0.9004018522916017
147 -0.3389619352740444 0.4785460682241017 -0.809999053717057
148 -0.3254497515721986 0.630870063022288 -0.7043333179566679
149 -0.3006931402424703 0.761397228257745 -0.5743325658645394
150 -0.02281978462834311 0.6061809455627689 -0.7949993199155226
151 -0.1860651315340224 0.5501419504866008 -0.8140783753067179
152 -0.167289202296307 0.6989518503048067 -0.6953277168001809
153 -0.1624254367237793 0.9124584776830895 0.3755496025951143
154 -0.3010143334952926 0.9114543824963623 0.2804305255469874
155 -0.4310979109367822 0.8846966612684275 0.1773877355581251
156 -0.5512300688292932 0.8084352754540149 0.2063439279941226
157 -0.5492017747610908 0.7640098987490629 0.3386241060714886
158 -0.5364773512754997 0.7047048382398462 0.4643093177287921
159 -0.4210481010411403 0.7910547491738833 0.4437914830402835
160 -0.2935646079679672 0.8617457621872042 0.4137802101369858
161 -0.430198058625961 0.8469013977706956 0.3125502404550285
162 0.121814288344708 0.9908343699118886 -0.05838262204100737
163 0.2319787138651565 0.9622818105111494 -0.1421252738708082
164 0.3375118511480786 0.9145179866113916 -0.2230304967910079
165 -0.2036799072279747 0.9217785797662029 -0.3299071767570473
166 -0.1324908707888447 0.9677726798879627 -0.2141546385677525
167 -0.05857490906856907 0.9938480960168138 -0.09399437255156713
168 0.05102923485499 0.9817055375560547 -0.1834400575716549
169 0.1633194367307118 0.9490235711000692 -0.2695941822117737
170 -0.02408813112331372 0.95152828691741 -0.3066165049944394
171 -0.08870949623470616 -0.9765924864918265 -0.1959534143757038
172 0.005887594893960407 -0.953060919822123 -0.3027213559268213
173 0.1003616250589216 -0.909608723867564 -0.4031618951234779
174 0.2581668538674788 -0.8812558813801041 -0.3959014360887614
175 0.3253939891154535 -0.8997139768745178 -0.2909183934786035
176 0.3874533379972169 -0.9038831494671229 -0.1813150930954427
177 0.2980012545157277 -0.951239040068542 -0.07962123433187437
178 0.138950461696838 -0.9866240234177303 -0.0852396950325697
179 -0.02379374817264793 -0.9957837323337231 -0.08859241484132184
180 0.0715836353458538 -0.9781593909468806 -0.1951409466337068
181 0.1678422065478853 -0.9391709266592639 -0.2996447300039106
182 0.234864194910551 -0.9532295435965719 -0.1902426008119365
183 -0.5939351297655914 0.17766106031471 0.7846512660272608
184 -0.5821837778914721 0.03613002479946628 0.8122540674370322
185 -0.5582467123688344 -0.1061572498159368 0.8228555440907624
186 -0.2354819257269866 -0.1907626612733146 0.9529731736622141
187 -0.4372103165696719 0.003228761281511355 0.899353497900372
188 -0.4076847272625779 -0.1473332784569877 0.9011581815729984
189 0.05144696330466846 -0.9381047641589294 0.3425093596225475
190 -0.0278014857192503 -0.979387089677626 0.2000700026605485
191 -0.1062638889505869 -0.9929786971920562 0.05197396298016738
192 0.137256109904535 -0.9685939898306311 0.2073317225073233
193 0.05625338942703179 -0.9967243970940561 0.0581036351312121
194 0.2216630281341315 -0.9731041021555771 0.06272087632037229
195 0.5470467518647311 -0.4634136442743679 0.697128141430682
196 0.4140384020604483 -0.44541245400053 0.7938387414585258
197 0.2696985647522911 -0.4152211247650403 0.868823400766467
198 0.4221142193503847 -0.5892767594200823 0.6888922169901339
199 0.2785856107022145 -0.5641224491860494 0.7772746746382564
200 0.2788125352180392 -0.6997167644724807 0.6577689713884752
201 -0.4733838635749105 0.3723236179183609 -0.7982999694645322
202 -0.5996858686229887 0.4155928941792498 -0.6838562753105409
203 -0.7074445156468939 0.4460112959535283 -0.5482665238394424
204 -0.6870511696524961 0.5855961657111382 -0.4301602271056102
205 -0.5594913162547782 0.6995945683929395 -0.4444512424446494
206 -0.4154424787975554 0.7929749501131879 -0.4456436640450865
207 -0.4496432928072444 0.6762430114123951 -0.583537744065758
208 -0.4696228412393991 0.5309134073310646 -0.7053972929508259
209 -0.5892990109072993 0.5678691854735896 -0.5746749202229384
210 0.9302198192670946 0.1221285982255116 -0.346086251298958
211 0.8922351143688499 0.246468766846397 -0.3783776521630494
212 0.8382383135778988 0.3663857946765354 -0.4038786687971079
213 0.8057481814405186 0.4971455792539318 -0.3218946118430218
214 0.8308379906652257 0.5129266066209555 -0.2159039821024201
215 0.845864230739698 0.5224947833086399 -0.1072982039476743
216 0.9089040643291424 0.4092246001586501 -0.08017872829472338
217 0.9472135955132773 0.2763932022055827 -0.1624598481143982
218 0.9610073603878908 0.1364082000528832 -0.2405361848841689
219 0.9259679352697401 0.2613015679403434 -0.2725892027285978
220 0.8732813769413795 0.3839596894487671 -0.2999243130621033
221 0.8970423417226377 0.3986179006265109 -0.1908371202279043
222 0.7052314581525974 0.5848723949230314 -0.4007154502748289
223 0.623795542233273 0.6873910217198617 -0.3719848179009749
224 0.5311516881507925 0.777559069611042 -0.3365706128588383
225 0.5567458661396948 0.798034482842954 -0.2305970614078592
226 0.6734452051561635 0.7226605239349705 -0.1556705585465881
227 0.7733663638424338 0.6292822366937191 -0.07686568713595344
228 0.7361186910126637 0.6083967836356583 -0.2966186548475809
229 0.6514099229708595 0.7106132420963174 -0.2658833060055846
230 0.7592304493019538 0.623233102674713 -0.1874823313893979
231 -0.3675699011962437 -0.6360465622076329 -0.6784814945438346
232 -0.3961598336275034 -0.5189234672958013 -0.7574799147897799
233 -0.4165191675788666 -0.3910192422981679 -0.8207409671705043
234 -0.2850138269403591 -0.326273170594761 -0.9012840487897548
235 -0.1257431880435096 -0.3865560179551498 -0.9136537066325033
236 0.03719338869828172 -0.4355691467927229 -0.8993865521561893
237 0.06190515022901422 -0.5590796967200078 -0.826799640233707
238 -0.0754137193211093 -0.6374292702034563 -0.7668094264066176
239 -0.2105762124986695 -0.6975522208678622 -0.6848930996090036
240 -0.23919577782376 -0.5862195922066247 -0.77403615521782
241 -0.264528580015206 -0.4599514230919715 -0.8476256949566884
242 -0.1000511183308119 -0.5175240857312483 -0.8497991494516745
243 -0.01716723270428502 0.9349253748749434 0.3544288779659797
244 -0.006879833896475849 0.969296799988372 0.2457974398114409
245 0.003497608279151083 0.990982054243696 0.1339490011283024
246 -0.1297798520626472 0.9908351299788062 0.03745577657024003
247 -0.2767302703449944 0.9595686497264502 0.05146225740232886
248 -0.4173800385618892 0.9064545188062878 0.06429703527952921
249 -0.2932189814239752 0.9414766638683745 0.1662658122524358
250 -0.15557735052725 0.9513860919924336 0.2658198487063858
251 -0.1447287115290266 0.9777591420203179 0.1517915025778439
252 -0.43050826954953 -0.8455872820749922 0.3156656114347851
253 -0.3538813623749131 -0.9174216784092846 0.1819490185419165
254 -0.2670230405725828 -0.9627315877876516 0.04297191733260346
255 -0.1122886638773899 -0.9327409555293881 0.3426157699854963
256 -0.2773814581772936 -0.9010428893213341 0.3334385074686191
257 -0.1935074672839832 -0.9618522666034824 0.193378068392156
258 -0.2082668269524675 -0.7866308753975896 -0.5812372963449377
259 -0.07472866357743338 -0.824015372277305 -0.5616175683600232
260 0.06027530069614854 -0.8452368278917385 -0.5309817255814936
261 -0.2236724300023418 -0.949145130768198 -0.2215720307165775
262 -0.2667105303431206 -0.8961837575194707 -0.3545703960603224
263 -0.3037887837647524 -0.8231964857830814 -0.4796456198623286
264 -0.1725309135440939 -0.8693583003940697 -0.4630866327239159
265 -0.03515362787552501 -0.8987491870855286 -0.4370516229923995
266 -0.1317816662254785 -0.9341510429835255 -0.3316555763734844
267 -0.5709026050480176 -0.7620272436730484 0.3055890957633204
268 -0.640252354897842 -0.7505485565398832 0.1635658470575853
269 -0.693524246883551 -0.7202222807647509 0.01743517348992178
270 -0.6137991239825848 -0.780516277450568 -0.1185115016904243
271 -0.4772424776942432 -0.8716618932578788 -0.1115578832998823
272 -0.327798569425097 -0.9392695054252558 -0.1015918011507588
273 -0.5041440488964133 -0.8456652918775839 0.1751827390924458
274 -0.5667613277342708 -0.8234483280190513 0.02672916885193841
275 -0.4206094015167267 -0.906552115671586 0.03536937838176567
276 -0.652862049702686 -0.7157615234139408 -0.2479043881381732
277 -0.5575129209749381 -0.7412169108400783 -0.3738674016689393
278 -0.4478880529054165 -0.7476926136404959 -0.4902571239380809
279 -0.5240852946459649 -0.8155836027735642 -0.245271259675375
280 -0.4179188149601254 -0.8302664638836001 -0.3687837619154982
281 -0.3769537079141862 -0.8955737856547926 -0.2363334435446875
282 -0.6176563517465997 -0.6625212195827439 0.4237525985167221
283 -0.7341893869088509 -0.5471780935200634 0.4019478549789194
284 -0.8306354175714611 -0.4168644856952886 0.3691460464936431
285 -0.890757569810813 -0.3952858190279722 0.2242767778886612
286 -0.8570790310827284 -0.5035947332161153 0.1086640656117803
287 -0.8009181402248461 -0.5986936705966659 -0.009799053335128656
288 -0.6965850006700748 -0.6577568619226564 0.286575029329374
289 -0.8062412184947114 -0.5320106635787993 0.2587271756862982
290 -0.759262294882699 -0.6359085784442909 0.1383511743008293
291 -0.9487706348232003 -0.2511728495892628 0.1916937195799353
292 -0.9762683050387906 -0.2121424801582059 0.04354037998240262
293 -0.9801120645656769 -0.1679721310176338 -0.1056678952861341
294 -0.9367951769616593 -0.2698219271852633 -0.2227350983374736
295 -0.8874926676824885 -0.4183803203926942 -0.1931700606148026
296 -0.8156705422077974 -0.5563225535099189 -0.1587034436634602
297 -0.9287735216886122 -0.3625466821112938 0.07706911638409723
298 -0.9444914765131082 -0.3197108584355778 -0.07563608789774007
299 -0.8831839046139687 -0.4670610686062989 -0.04289695587295753
300 -0.6419042695072132 -0.2606929508528043 0.7211089336321304
301 -0.7493813248799039 -0.275171537732218 0.6022526502584495
302 -0.8374585741122217 -0.2825265490565451 0.4678053930045314
303 -0.6437124986464331 -0.5440558190261616 0.5381797886117039
304 -0.6520658324634492 -0.4061667409275842 0.6401864796276269
305 -0.7524346131798586 -0.4172757996994895 0.5096303168709925
306 -0.9429645176065221 -0.1365072589673761 0.3036176654681226
307 -0.9627963814725162 0.02088406675581527 0.2694197163890714
308 -0.9572731644221639 0.1777254140903819 0.2281266443526029
309 -0.9724506197571672 0.2193250905546192 0.07897022721956433
310 -0.9938943954433316 0.1053599161548498 -0.03276001792089557
311 -0.989564954712951 -0.01133740356452045 -0.1436407452096037
312 -0.9826009166563699 -0.09686777495186166 0.1584678918959201
313 -0.9907020479301253 0.06427332508061565 0.119909932491588
314 -0.9985192516735458 -0.05410054481345182 0.005695181137563648
315 -0.9278776463637021 0.3709820876847421 0.03762132368254786
316 -0.903413478156577 0.4126106453698126 -0.116604214385857
317 -0.8553549062746058 0.4434630719003431 -0.2677844061417162
318 -0.8648966001479994 0.3284755240181712 -0.3795493395771088
319 -0.9221927410195305 0.1791151904182235 -0.3427510714386297
320 -0.9546399654688277 0.02492851390894586 -0.2967172147415228
321 -0.961926737818622 0.2625594356598621 -0.07589132898822452
322 -0.925101369830566 0.2999513950497834 -0.2328446180294901
323 -0.9710915299251044 0.1441083528779098 -0.1902998243260774
324 -0.8675044809143641 0.4699955796019754 0.1629114199437929
325 -0.7783144817775879 0.6128078817727486 0.1367225932042029
326 -0.6665252933464031 0.7378266549195485 0.1065638804648208
327 -0.6305479488780691 0.7747391728208671 -0.04678138799243359
328 -0.7050878022472099 0.6872928149886516 -0.1745845857662547
329 -0.7588016798438718 0.5795460868083273 -0.297231128805973
330 -0.8536402754627761 0.5207686080257133 0.009916501540204058
331 -0.751514321757543 0.6594439253222201 -0.0189719147405406
332 -0.8164487712237581 0.5582462527317867 -0.147555160120321
333 -0.7979861607596582 0.3553231250458735 -0.486789034432469
334 -0.7920078806038119 0.2375842862154847 -0.562385298532009
335 -0.7704959743202685 0.1151857141093695 -0.6269515171218384
336 -0.8114097250805036 -0.03490204061810956 -0.5834347483699215
337 -0.8765795010716644 -0.06548420986557861 -0.4767810782311237
338 -0.927235422306531 -0.09498213255051903 -0.3622331654006638
339 -0.8642637778340346 0.2114298180578011 -0.4564488518553723
340 -0.8462046251625126 0.0877087325234244 -0.5255900594500489
341 -0.9085900807376497 0.0569350073730131 -0.4137903697774832
342 -0.8599806462417185 0.4174166069938696 0.293592684335631
343 -0.7630851856030947 0.5061095027769692 0.4019380184953139
344 -0.6440649311579839 0.5801283246772239 0.498629613400226
345 -0.7799583561491334 0.5638161925871686 0.2716178632742154
346 -0.6661698243721409 0.6446565272974238 0.3750143022723491
347 -0.673795702030674 0.6982061223020354 0.2418833659120573
348 -0.490004958434729 0.8700453031429911 -0.05400288129535642
349 -0.4237783062726397 0.886079327658353 -0.1878173906463781
350 -0.3479957150670407 0.8821328106559302 -0.3173967338509452
351 -0.5728743628943027 0.7985919736843186 -0.1845692929645431
352 -0.4995717435060547 0.8048050194838653 -0.3204948575311248
353 -0.6407306654677761 0.7007348029863332 -0.3137434464860188
354 -0.3543014828811184 0.9326041197332976 -0.06870236593248935
355 -0.2070985440335541 0.9748437641394123 -0.08240041612567152
356 -0.2813573780083284 0.9378539751435363 -0.2031451381346499
357 0.5850349066379092 -0.531231803462035 -0.6128025203975964
358 0.461803398884746 -0.523606797783261 -0.7159424153475301
359 0.3266195033453421 -0.5024298097896521 -0.8005523007706468
360 0.300567855303464 -0.3660216097179146 -0.880731029076291
361 0.409016994384839 -0.2472135955357383 -0.8784022634799418
362 0.5068799625092337 -0.1220072032393049 -0.8533387053007503
363 0.6360876641543779 -0.13640820007515 -0.7594638151109538
364 0.6708203932555272 -0.2763932022517734 -0.6881909602294338
365 0.688190960242991 -0.4092246002254488 -0.5991063585125361
366 0.5739365540438297 -0.4053854831951924 -0.7115191086308889
367 0.4412724323578855 -0.3905992469857775 -0.8079052349719607
368 0.5471880014263315 -0.2653282433938507 -0.7938426886685993
369 0.9188549083907135 -0.1364082000748729 -0.3702680924392851
370 0.8618033988785244 -0.2763932022510053 -0.4253254041682179
371 0.7824467083208028 -0.4092246002246179 -0.4693744509546107
372 0.8456479189478078 -0.1400364326429218 -0.5150430998585326
373 0.7766489497383815 -0.280031210029293 -0.5642684913051579
374 0.7511546745113195 -0.1400364326429725 -0.6451018931086964
375 0.06820410003633783 0.1364082000712251 -0.9883020811935801
376 0.1381966011232298 0.2763932022435207 -0.9510565162973015
377 0.2046123001090133 0.4092246002136754 -0.8891957226753042
378 0.3571213041363123 0.40922460021394 -0.8396425434145893
379 0.4472135954978755 0.2763932022437654 -0.8506508083551673
380 0.5257311121178815 0.1364082000713132 -0.8396425434103492
381 0.2285155180836406 0.1400364326389003 -0.963416034498459
382 0.2966535014694113 0.2800312100212169 -0.913005597726537
383 0.3814087992898235 0.1400364326389164 -0.9137379960131139
384 0.5257311121178927 0.1364082000709058 0.8396425434104083
385 0.4472135954979795 0.2763932022429211 0.850650808355387
386 0.3571213041365662 0.4092246002127177 0.839642543415077
387 0.2046123001092986 0.4092246002124599 0.8891957226757979
388 0.1381966011234139 0.2763932022426828 0.9510565162975182
389 0.0682041000364328 0.1364082000708199 0.9883020811936295
390 0.3814087992898626 0.1400364326384776 0.9137379960131649
391 0.2966535014695575 0.28003121002034 0.9130055977267585
392 0.228515518083706 0.1400364326384621 0.9634160344985072
393 0.9089040643291425 0.4092246001586501 0.08017872829472214
394 0.9472135955132776 0.2763932022055827 0.1624598481143969
395 0.9610073603878911 0.1364082000528832 0.2405361848841676
396 0.9868782760822057 0.1400364326190657 -0.08038075476343706
397 0.9599908965382306 0.2800312099815381 -4.370281906332118e-16
398 0.9868782760822058 0.1400364326190657 0.08038075476343638
399 0.3248404901422744 -0.795828424143124 -0.511014457026412
400 0.4594617258075557 -0.7205215618112535 -0.5193684640821145
401 0.5831184633166548 -0.6280203242088784 -0.5153283711574576
402 0.6501303179047064 -0.6410795588504423 -0.4078572899498643
403 0.5938302037639671 -0.7462537092130862 -0.3007841262157227
404 0.5222710482153419 -0.8322521487791188 -0.1859820234554606
405 0.4650301898822105 -0.8329406896305465 -0.2999278747564237
406 0.3982781858588278 -0.8205820529699298 -0.4099019163320126
407 0.5321850019512037 -0.7383855872501648 -0.4142050799295279
408 0.9636402586436134 -0.12037078493182 -0.2385546605207443
409 0.9566342767697795 -0.2433356934821713 -0.1601205820209002
410 0.9292315537836743 -0.3611123547954592 -0.07827251539880904
411 0.859293920746147 -0.4954147329126905 -0.1271935540102642
412 0.8168247562349911 -0.5155886351953244 -0.2587772726865138
413 0.7584071771567913 -0.5256957254263094 -0.3853083932456879
414 0.9187178102094996 -0.2617739941582527 -0.2956889602036183
415 0.8983604881664323 -0.3841450727726717 -0.2130281586219253
416 0.8484398904641559 -0.4006172318375987 -0.3459126852602414
417 0.9634251373530418 -0.1203439135777339 0.2394354760286527
418 0.956343399407342 -0.2432617040314211 0.1619600128480438
419 0.9290241138295037 -0.3610317407332008 0.08105725202879886
420 0.9891656072218005 -0.1228643021186594 0.08034777379879048
421 0.9693460864808021 -0.2456975676156485 0.0009326800669737663
422 0.9892375359100367 -0.1228690871485769 -0.07944988967842721
423 0.766847422245421 -0.6239836363787378 -0.1502978793167759
424 0.6514118570948003 -0.7393719768021457 -0.1702694110989722
425 0.7148634702601045 -0.6394599700660297 -0.2829508182897393
426 -0.4527373044582741 0.2467264540642746 -0.8568284484170243
427 -0.5599816921635389 0.1645224110236214 -0.8120054684006962
428 -0.6558763916938858 0.07898383385616631 -0.7507247916566963
429 -0.703775699019468 0.3304055226902499 -0.628913313617578
430 -0.5848300216939152 0.2930075865411684 -0.7563864091552772
431 -0.6860095712182714 0.2057589160526928 -0.6978926397818968
432 0.339710914232888 0.8814177324843933 0.328175677973134
433 0.2191512262682513 0.8995406713212177 0.3778879736960343
434 0.09479268512342157 0.9020706198830132 0.4210498112943031
435 0.3229623298950582 0.6323932971938525 0.7041122432773367
436 0.3773943150851345 0.7273261837415046 0.5732103919028695
437 0.4208402050875497 0.8010863224027452 0.4256221632400196
438 0.3016843575603112 0.8232076038073797 0.4809530012767718
439 0.1750394525439719 0.8313620770128041 0.5274450558665452
440 0.2526670170782145 0.7392471025714203 0.6242380153599724
441 -0.8927854730399208 -0.1741960420735261 0.4154393313768005
442 -0.8657042958505091 -0.05751876029891125 0.4972400470191944
443 -0.8204101413971294 0.06036862044205608 0.5685796598179231
444 -0.8219192003052885 0.2148748803068158 0.5275202498318396
445 -0.871988544444209 0.2553706861452181 0.4176383495511279
446 -0.9079134657148943 0.2917241543393894 0.300981987083177
447 -0.9220913906484957 -0.01991041641384389 0.3864596261062087
448 -0.8809430005088411 0.09995421099806037 0.462545765906721
449 -0.9272564976140861 0.1398301422862125 0.3473368954497574
450 0.4894562366057352 -0.09743081911902388 0.8665678438146356
451 0.3744573169757399 -0.1973037645126523 0.906009349991746
452 0.2501887105279266 -0.2922924573570714 0.9230226045425637
453 0.6585986296921014 -0.3609670684098809 0.6602655681551649
454 0.6460800187837895 -0.242845087407059 0.7236068496432273
455 0.6218533809768555 -0.1203223561366269 0.7738351912270368
456 0.5171632849546596 -0.2240718461250765 0.8260350745997446
457 0.3965851727280302 -0.3247586173748304 0.8586338225419885
458 0.5367660372361679 -0.3481706598047714 0.7685436961688586
459 0.1465052009859391 -0.3621807749755054 -0.9205223040873111
460 0.0985721919363324 -0.2436838598648901 -0.964832472203447
461 0.04883506699531306 -0.1207269249918352 -0.9914838101621121
462 0.3619690286162003 -0.1241371846728396 -0.9238876456064047
463 0.2571481626254888 -0.2480080046885674 -0.934005809440568
464 0.208817226230134 -0.1239083573536886 -0.970073236929802
465 -0.08717585842786078 0.08206944685562478 -0.9928066154091527
466 -0.1756939902178044 0.1654025420921408 -0.9704502155550297
467 -0.2615275752835823 0.2462083405668741 -0.933265653713666
468 -0.01938021596047983 0.2251035134926659 -0.9741420920187066
469 -0.1093384847860367 0.3099085681877243 -0.9444584559992717
470 0.05069326016769021 0.3661133709152449 -0.9291884593615265
471 0.7600526476523304 -0.3649093106440106 0.5377370805533088
472 0.8467159072450051 -0.2464676350353341 0.4715144507842334
473 0.9114285753206707 -0.1216364368813373 0.3930680975502145
474 0.7387558929083129 -0.1234986106171969 0.662561562323731
475 0.7563820551277111 -0.2471945495065789 0.6056245052629722
476 0.8355825432747661 -0.1237334080962656 0.5352493410508382
477 0.3854336578202548 0.528153289433162 0.7566339922844
478 0.5054295686157564 0.5207353284515973 0.6880230147831521
479 0.6157406851793541 0.5033392917528786 0.6062284767252114
480 0.6624277746633614 0.5851350214701337 0.4677675170463348
481 0.600952699304261 0.6865040928099522 0.4093506855424904
482 0.5289805429350104 0.7758817227528549 0.3437835619895801
483 0.4447621389844576 0.6292126013191155 0.6373995152706047
484 0.560046891916087 0.613383097098754 0.5568740028486437
485 0.4941616279174668 0.714385028520234 0.4954375001149018
486 0.9197987572437764 0.1232238185135732 0.3725401142477658
487 0.86735195738955 0.2491905605279783 0.4308185773109934
488 0.7958106937452392 0.3696714555407201 0.4796127132167439
489 0.7020578248736407 0.3696714555406403 0.6086524669235777
490 0.6777593102291061 0.2491905605279051 0.6917704691164221
491 0.6385401506292977 0.1232238185135466 0.7596593753684966
492 0.8469763972894057 0.1259115777231716 0.516504847053656
493 0.7829527876741086 0.2517862565265975 0.5688484976667026
494 0.7529554010847406 0.1259115777231669 0.6459136463743279
495 0.8385319191700803 -0.3740938834562537 0.3961287504001204
496 0.8964977525804456 -0.3726491056445747 0.2396339368297169
497 0.9138263009908409 -0.2487790383329791 0.3209836159424889
498 0.5683360717632541 0.2645545987575632 0.779105239238537
499 0.5988799831028407 0.3897341588878403 0.699607069171495
500 0.4817022439754322 0.4032740802830644 0.778031467436171
501 0.8387072393138818 0.5281532893830341 0.1327564297364467
502 0.8105350977526361 0.520735328417969 0.2680812806753852
503 0.7668318790107199 0.5033392917362748 0.3982692892093411
504 0.8888060766205526 0.4032740802467681 0.2177011124535286
505 0.8504299543584783 0.3897341588700977 0.3533782366525333
506 0.9165986193535451 0.2645545987393849 0.2997629651658426
507 0.4511952338822525 0.8781932458873767 -0.158743452777534
508 0.4608796923332871 0.8873888761768289 -0.01144078810219066
509 0.4604817515111125 0.8771716117151084 0.1361121600973898
510 0.5691013177876408 0.7942164975184701 0.2129409428970029
511 0.6802212562103487 0.7188030782811339 0.1436007564505885
512 0.7758029780413346 0.6269701222898995 0.07098031429900058
513 0.5737849669310701 0.8146253080206809 -0.08459562196781593
514 0.5780423988091206 0.8132895364506972 0.06653656948481622
515 0.6848150580868032 0.7286918102495699 -0.006048296683637865
516 0.6710040198719467 0.5083893485819959 -0.5397164770173892
517 0.5462153127609324 0.5287728837772224 -0.649652268130726
518 0.4060923819470797 0.5343118668363143 -0.7413499890621432
519 0.4594772532708279 0.632627176921154 -0.6234288321432258
520 0.5026010360159126 0.7159224438095713 -0.4846104136783099
521 0.5925924505800109 0.6169546096501043 -0.51788145086213
522 0.659690436867811 0.1238425691954868 -0.7412634791760739
523 0.7176247933696004 0.2512004492732167 -0.6495482970697195
524 0.7554741997624373 0.3715277075864606 -0.5396534962259157
525 0.7708896839641448 0.1259616452395289 -0.6243899095006357
526 0.8157896895284963 0.2515766309917098 -0.5207651881585986
527 0.8613408960303724 0.1256541349488725 -0.4922427238627763
528 0.1951455881722955 -0.5806907425915127 -0.7903900688175468
529 0.1966907124025915 -0.6846239624098093 -0.7018566760734367
530 0.1945689979227753 -0.7757939682635525 -0.6002388056875506
531 -0.07680652702189888 -0.7380711015490954 -0.6703370842083402
532 0.06182957632717523 -0.6673224495355883 -0.7421979869529587
533 0.06102063767429792 -0.7644872470565376 -0.6417442877546621
534 0.3327417248871748 -0.7113230882939339 -0.6191142128711696
535 0.3332913661733237 -0.6117599084938781 -0.7174027317998457
536 0.4662177814533134 -0.627854559532524 -0.6232492537749008
537 -0.4390127033342934 -0.6772129609879532 -0.5904663002924422
538 -0.5416371873497257 -0.6060642138338687 -0.5825077904970997
539 -0.6357811134036261 -0.5254261575742236 -0.5654288008016859
540 -0.6589899435334331 -0.4031266501657416 -0.6349969749911809
541 -0.5892983313261553 -0.3600727881919553 -0.723239285368183
542 -0.5110635072945949 -0.3117988569626506 -0.8009966069269782
543 -0.472133829690859 -0.5672409451928989 -0.6747794876536404
544 -0.5707605551442837 -0.4882734424898682 -0.6601677317549551
545 -0.4967093022721388 -0.4427265128454733 -0.7465072697971615
546 0.1914823078027142 -0.09786983429004037 0.9766043320273501
547 0.2224494215223722 -0.1960466421118914 0.9550298262258692
548 0.3445852000184862 -0.09820773121812885 0.933603921080673
549 -0.7180024564130673 0.2956816025090996 0.6301149597672255
550 -0.6608097665258847 0.4182187473340591 0.6232363370683197
551 -0.5915020077270696 0.5330884072023019 0.6049315043551282
552 -0.8258057835727414 0.3839756394128286 0.413046627095925
553 -0.7775482543290466 0.3429931424525047 0.5270430878214875
554 -0.7169850681107105 0.4670052174122527 0.5175311961766309
555 -0.5983196243078934 -0.1409350662732511 0.7887654494604944
556 -0.6647107796266138 -0.03535171213695103 0.7462639183942671
557 -0.7195612195308387 0.07084541879023683 0.6908057454767788
558 -0.7145962009207004 -0.1568278176435649 0.6817311091939833
559 -0.7751657622806898 -0.04807187356935586 0.6299262940688609
560 -0.8154441808531729 -0.1683080482204643 0.553825955347811
561 0.126155902165163 0.9880594370865496 0.08844906519067525
562 0.240583744301548 0.9582649334949144 0.1544272618802606
563 0.3506005879142639 0.9109010582934005 0.2175741017541738
564 0.2393513537913794 0.9709130753073663 0.006223313862125253
565 0.3542926823457186 0.932335993853293 0.07229308266956189
566 0.3498673211753736 0.9335513586974761 -0.07794047887756572
567 -0.7457229038277775 -0.1156807371478796 -0.6561366608867319
568 -0.7462088218731752 -0.2280680291727749 -0.6254257495721568
569 -0.7365654778071933 -0.3373594574407693 -0.58622512175608
570 -0.7972844783771788 -0.3686833115505463 -0.4779226677224598
571 -0.8668190488104681 -0.289802483602352 -0.4057576334675959
572 -0.9222547782272024 -0.2062080085000957 -0.3269929376416534
573 -0.8181509074283483 -0.1481498670168406 -0.5555904153034524
574 -0.8133837934657618 -0.2608897058319941 -0.5199455413003773
575 -0.878021528597736 -0.1787852758157484 -0.4439752475874998
576 -0.3293621580165043 -0.2005370095581 -0.9226621682198777
577 -0.2215456954227079 -0.1348913655050596 -0.9657752452573265
578 -0.1097873860055014 -0.0668456698527 -0.9917047878759196
579 -0.01267945820847015 -0.31862251510686 -0.9477968791922236
580 -0.1763258117940786 -0.2630241082196834 -0.948539681083717
581 -0.06287731371804003 -0.1935232527599541 -0.9790787476300413
582 -0.736271862956057 -0.5092799308891315 -0.4455756903296887
583 -0.7445794176552117 -0.5737136580431217 -0.3412537609741551
584 -0.7416410044645825 -0.6294821371076577 -0.2317776079761401
585 -0.8844690722500935 -0.3558804534409281 -0.3017673989875949
586 -0.8164982416921855 -0.4371987614315461 -0.3770780613033479
587 -0.8225995803670173 -0.5008722387117176 -0.2691782511049491
588 -0.7230285090068828 0.207935610806889 0.6587811145757368
589 -0.6823010683830302 0.2430261380919391 0.6894951401478427
590 -0.6389580805891709 0.2771850439019848 0.7175660406449411
591 -0.6747287519795928 0.3316935493200894 0.6593333759119908
592 -0.6289945685853606 0.365528508906714 0.6861156913134624
593 -0.6128622918765493 0.4518178339767985 0.6482749849379794
594 -0.6567768572343736 -0.6627792930761444 -0.3596773115875194
595 -0.6507814451504125 -0.5985105256553802 -0.4671923172823599
596 -0.5530754087735473 -0.6791402085041777 -0.4825724499004016
597 -0.6238602699606491 -0.002306935304593358 0.7815324955586469
598 -0.6379293971883451 0.1404147647259711 0.7571854317469828
599 -0.6797975102070153 0.1046808465268489 0.725890670477838
600 -0.02151783835223694 0.3784428983144958 0.925374494649583
601 -0.2601476294222024 0.3202678655033518 0.9109070782642625
602 -0.09365864492175233 0.2317805720075276 0.9682488443944999
603 0.5040810782345601 0.4083024388591717 -0.7610462436590405
604 0.6407355279082818 0.3954239293276258 -0.6581017393923194
605 0.5908553544654446 0.2678547829539014 -0.7610149573748418
606 0.6467648535339978 0.7097016017797269 0.2793185648402848
607 0.7138716646721706 0.6110368884538661 0.3420835677532633
608 0.7524931606567268 0.6251451326675783 0.2072380425184658
609 0.1179071684721931 0.9722376443914402 0.2021184366925817
610 0.107348053070212 0.9432111405069005 0.3143710227195042
611 0.232199673932226 0.9350093472547008 0.2680314010934287
612 -0.6710310491299454 -0.06999087723318123 -0.7381182887638639
613 -0.5964755313046192 -0.1360110987477871 -0.7910233381969788
614 -0.5143351476280913 -0.2003017842057833 -0.8338696247965681
615 -0.5969914990287474 -0.2497321700068506 -0.76238769228725
616 -0.6721709262755183 -0.2961204540468895 -0.6786007092281703
617 -0.6762108586715989 -0.1835469779177639 -0.713476966349913
618 -0.4200549469187788 -0.1190835457656349 -0.8996515718304203
619 -0.4022631315020683 0.0316400565787618 -0.9149772018219047
620 -0.3751110440415654 0.1816274255627901 -0.909012201745103
621 -0.2018876120798138 0.01556568724253055 -0.9792849950190079
622 -0.3147808129037635 -0.05289094599920272 -0.9476896051234049
623 -0.2915532523872892 0.0997378732522464 -0.9513406633070577
624 -0.4835635521432755 0.1002307647651868 -0.8695516573689934
625 -0.5047757036581019 -0.05251304286401533 -0.8616518260443892
626 -0.5842368273973439 0.01433826902700215 -0.8114565567878513
$EndNodes
$Elements
85
1 15 2 0 1 1
2 15 2 0 2 2
3 27 2 0 2 2 3 7 8 9
4 27 2 0 2 3 4 10 11 12
5 27 2 0 2 4 5 13 14 15
6 27 2 0 2 5 6 16 17 18
7 27 2 0 2 6 1 19 20 21
8 23 2 0 1 1 55 51 57 58 59 60 61 62 63 64 65 66 67 68
9 23 2 0 1 31 51 39 69 70 71 72 73 74 75 76 77 78 79 80
10 23 2 0 1 22 26 25 81 82 83 84 85 86 87 88 89 90 91 92
11 23 2 0 1 26 51 31 93 94 95 71 70 69 96 97 98 99 100 101
12 23 2 0 1 41 55 30 102 103 104 105 106 107 108 109 110 111 112 113
13 23 2 0 1 30 52 41 114 115 116 117 118 119 110 109 108 120 121 122
14 23 2 0 1 22 25 24 89 88 87 123 124 125 126 127 128 129 130 131
15 23 2 0 1 42 47 28 132 133 134 135 136 137 138 139 140 141 142 143
16 23 2 0 1 28 48 42 144 145 146 147 148 149 140 139 138 150 151 152
17 23 2 0 1 41 52 38 119 118 117 153 154 155 156 157 158 159 160 161
18 23 2 0 1 43 47 42 162 163 164 134 133 132 165 166 167 168 169 170
19 23 2 0 1 29 44 25 171 172 173 174 175 176 177 178 179 180 181 182
20 23 2 0 1 51 55 39 62 61 60 183 184 185 74 73 72 186 187 188
21 23 2 0 1 26 29 25 189 190 191 179 178 177 86 85 84 192 193 194
22 23 2 0 1 22 51 26 195 196 197 95 94 93 83 82 81 198 199 200
23 23 2 0 1 42 48 37 149 148 147 201 202 203 204 205 206 207 208 209
24 23 2 0 1 4 46 27 210 211 212 213 214 215 216 217 218 219 220 221
25 23 2 0 1 46 47 27 222 223 224 225 226 227 215 214 213 228 229 230
26 23 2 0 1 36 53 45 231 232 233 234 235 236 237 238 239 240 241 242
27 23 2 0 1 38 52 43 155 154 153 243 244 245 246 247 248 249 250 251
28 23 2 0 1 26 31 29 98 97 96 252 253 254 191 190 189 255 256 257
29 23 2 0 1 36 44 29 258 259 260 173 172 171 261 262 263 264 265 266
30 23 2 0 1 31 32 29 267 268 269 270 271 272 254 253 252 273 274 275
31 23 2 0 1 32 36 29 276 277 278 263 262 261 272 271 270 279 280 281
32 23 2 0 1 31 33 32 282 283 284 285 286 287 269 268 267 288 289 290
33 23 2 0 1 33 34 32 291 292 293 294 295 296 287 286 285 297 298 299
34 23 2 0 1 31 39 33 77 76 75 300 301 302 284 283 282 303 304 305
35 23 2 0 1 33 35 34 306 307 308 309 310 311 293 292 291 312 313 314
36 23 2 0 1 35 37 34 315 316 317 318 319 320 311 310 309 321 322 323
37 23 2 0 1 35 38 37 324 325 326 327 328 329 317 316 315 330 331 332
38 23 2 0 1 37 40 34 333 334 335 336 337 338 320 319 318 339 340 341
39 23 2 0 1 35 41 38 342 343 344 158 157 156 326 325 324 345 346 347
40 23 2 0 1 38 42 37 348 349 350 206 205 204 329 328 327 351 352 353
41 23 2 0 1 38 43 42 248 247 246 167 166 165 350 349 348 354 355 356
42 23 2 0 1 23 45 3 357 358 359 360 361 362 363 364 365 366 367 368
43 23 2 0 1 4 23 3 369 370 371 365 364 363 10 11 12 372 373 374
44 23 2 0 1 2 28 3 375 376 377 378 379 380 9 8 7 381 382 383
45 23 2 0 1 6 30 1 384 385 386 387 388 389 21 20 19 390 391 392
46 23 2 0 1 4 27 5 218 217 216 393 394 395 15 14 13 396 397 398
47 23 2 0 1 25 44 23 176 175 174 399 400 401 402 403 404 405 406 407
48 23 2 0 1 4 24 23 408 409 410 411 412 413 371 370 369 414 415 416
49 23 2 0 1 5 24 4 417 418 419 410 409 408 13 14 15 420 421 422
50 23 2 0 1 24 25 23 125 124 123 404 403 402 413 412 411 423 424 425
51 23 2 0 1 37 48 40 203 202 201 426 427 428 335 334 333 429 430 431
52 23 2 0 1 49 52 30 432 433 434 116 115 114 435 436 437 438 439 440
53 23 2 0 1 33 54 35 441 442 443 444 445 446 308 307 306 447 448 449
54 23 2 0 1 6 51 22 450 451 452 197 196 195 453 454 455 456 457 458
55 23 2 0 1 3 45 2 362 361 360 459 460 461 7 8 9 462 463 464
56 23 2 0 1 2 48 28 465 466 467 146 145 144 377 376 375 468 469 470
57 23 2 0 1 6 22 5 455 454 453 471 472 473 16 17 18 474 475 476
58 23 2 0 1 30 50 49 477 478 479 480 481 482 437 436 435 483 484 485
59 23 2 0 1 5 50 6 486 487 488 489 490 491 18 17 16 492 493 494
60 23 2 0 1 22 24 5 128 127 126 419 418 417 473 472 471 495 496 497
61 23 2 0 1 6 50 30 491 490 489 479 478 477 386 385 384 498 499 500
62 23 2 0 1 27 50 5 501 502 503 488 487 486 395 394 393 504 505 506
63 23 2 0 1 47 49 27 507 508 509 510 511 512 227 226 225 513 514 515
64 23 2 0 1 28 47 46 137 136 135 224 223 222 516 517 518 519 520 521
65 23 2 0 1 3 46 4 522 523 524 212 211 210 12 11 10 525 526 527
66 23 2 0 1 36 45 44 239 238 237 528 529 530 260 259 258 531 532 533
67 23 2 0 1 44 45 23 530 529 528 359 358 357 401 400 399 534 535 536
68 23 2 0 1 36 56 53 537 538 539 540 541 542 233 232 231 543 544 545
69 23 2 0 1 1 51 6 65 64 63 452 451 450 19 20 21 546 547 548
70 23 2 0 1 35 54 41 446 445 444 549 550 551 344 343 342 552 553 554
71 23 2 0 1 39 54 33 555 556 557 443 442 441 302 301 300 558 559 560
72 23 2 0 1 43 49 47 561 562 563 509 508 507 164 163 162 564 565 566
73 23 2 0 1 40 56 34 567 568 569 570 571 572 338 337 336 573 574 575
74 23 2 0 1 45 53 2 236 235 234 576 577 578 461 460 459 579 580 581
75 23 2 0 1 34 56 32 572 571 570 582 583 584 296 295 294 585 586 587
76 23 2 0 1 54 55 41 588 589 590 104 103 102 551 550 549 591 592 593
77 23 2 0 1 32 56 36 584 583 582 539 538 537 278 277 276 594 595 596
78 23 2 0 1 39 55 54 185 184 183 590 589 588 557 556 555 597 598 599
79 23 2 0 1 30 55 1 107 106 105 59 58 57 389 388 387 600 601 602
80 23 2 0 1 28 46 3 518 517 516 524 523 522 380 379 378 603 604 605
81 23 2 0 1 49 50 27 482 481 480 503 502 501 512 511 510 606 607 608
82 23 2 0 1 43 52 49 245 244 243 434 433 432 563 562 561 609 610 611
83 23 2 0 1 53 56 40 542 541 540 569 568 567 612 613 614 615 616 617
84 23 2 0 1 2 53 48 578 577 576 618 619 620 467 466 465 621 622 623
85 23 2 0 1 48 53 40 620 619 618 614 613 612 428 427 426 624 625 626
$EndElements
