$MeshFormat
2.2 0 8
$EndMeshFormat
$PhysicalNames
2
2 1 "Omega"
1 2 "Gamma"
$EndPhysicalNames
$Nodes
876
1 2 0 0
2 1.9897976322517601 0.099178736070721904 0
3 1.9612944587089369 0.19476041964680141 0
4 1.917397268574857 0.28435007970244658 0
5 1.8606793597171341 0.36645427228663557 0
6 1.794412726058831 0.44110691335601759 0
7 1.7211916489753021 0.50897358469579324 0
8 1.6425589959667219 0.57050045966896479 0
9 1.559535975636356 0.6259701132475195 0
10 1.473155797411821 0.67606526152973445 0
11 1.3842251877257521 0.72148656187572691 0
12 1.2932446202574579 0.76265258147046677 0
13 1.200543985813717 0.79978572957596628 0
14 1.1063672610347519 0.83299998209207982 0
15 1.0110009857743969 0.86263164714539409 0
16 0.91469001004266248 0.88903502733158601 0
17 0.81760212646714892 0.91242266550700402 0
18 0.71985877711715518 0.93289988478510799 0
19 0.62155356100776127 0.95048279208331121 0
20 0.52277349997645328 0.96516684886323312 0
21 0.42362705562853692 0.97713371496344281 0
22 0.32420520489947752 0.98654505341236254 0
23 0.22458004596058889 0.99348237486912827 0
24 0.12481401174271781 0.99795786604223402 0
25 0.024967041046251932 0.99991669038929321 0
26 -0.074896821749860509 0.99925800082495619 0
27 -0.1747109249879702 0.99602967975705492 0
28 -0.27441401221023942 0.99032064354831273 0
29 -0.37394574378375389 0.98215202411216485 0
30 -0.47323982883812088 0.97147775166495487 0
31 -0.57221610048142957 0.95817821378578705 0
32 -0.67077129013368419 0.94205537735685951 0
33 -0.76880605958773329 0.92302209535264768 0
34 -0.8662347760853234 0.90109699636088458 0
35 -0.96295174133011752 0.87622075798476473 0
36 -1.058815246903813 0.84823764552621084 0
37 -1.1536237600524071 0.81686936257254927 0
38 -1.247093167327209 0.78171552795359944 0
39 -1.338967582850775 0.74258368754849802 0
40 -1.428972872245357 0.69932858940615594 0
41 -1.51670570038277 0.65163780216698186 0
42 -1.601534917759331 0.59896432459251669 0
43 -1.6824810280398661 0.54051086696267736 0
44 -1.758557724500426 0.47585493447339261 0
45 -1.8285447723138151 0.40466623643427257 0
46 -1.8904544984471581 0.32637889564260703 0
47 -1.94110741251896 0.2404177110612882 0
48 -1.9776412875912619 0.14759334372394539 0
49 -1.9973832204431221 0.049843442061172902 0
50 -1.9973832177417199 -0.049843468022814592 0
51 -1.9776412802685921 -0.14759336819952151 0
52 -1.941107401503908 -0.24041773350700579 0
53 -1.890454484549579 -0.32637891569308253 0
54 -1.8285447564718651 -0.40466625424617059 0
55 -1.75855770741458 -0.47585495029207142 0
56 -1.68248101012784 -0.54051088096899469 0
57 -1.6015348992967799 -0.59896433691073026 0
58 -1.5167056919688431 -0.65163780704191321 0
59 -1.4289728534204711 -0.69932859901516986 0
60 -1.3389675640941801 -0.74258369603218288 0
61 -1.247093148722954 -0.78171553540456584 0
62 -1.153623741674155 -0.81686936904906948 0
63 -1.0588152288287631 -0.84823765113904392 0
64 -0.96295172361346382 -0.87622076283979056 0
65 -0.86623475876721867 -0.90109700053168507 0
66 -0.7688060426975456 -0.92302209889088904 0
67 -0.67077127368531619 -0.94205538029919111 0
68 -0.57221608450257699 -0.95817821615923515 0
69 -0.47323981335128801 -0.97147775353309196 0
70 -0.37394572880657928 -0.98215202552936776 0
71 -0.27441399775477721 -0.99032064455480939 0
72 -0.17471091106440231 -0.99602968038196416 0
73 -0.07489680837010837 -0.99925800108813878 0
74 0.024967053873242891 -0.9999166903039266 0
75 0.12481402400963609 -0.9979578656450363 0
76 0.22458005765958891 -0.99348237419915331 0
77 0.32420521602511948 -0.98654505249951197 0
78 0.42362706617481599 -0.97713371383026004 0
79 0.52277350993642113 -0.9651668475258246 0
80 0.62155357037959014 -0.95048279055046125 0
81 0.71985878589867647 -0.93289988308015481 0
82 0.81760213465438114 -0.91242266366485658 0
83 0.91469001764190772 -0.88903502537762835 0
84 1.0110009927773269 -0.86263164510220436 0
85 1.106367267432359 -0.83299997997688691 0
86 1.20054399161305 -0.79978572739513776 0
87 1.293244625439222 -0.76265257926400909 0
88 1.3842251923040401 -0.72148655967652253 0
89 1.473155801382944 -0.6760652593726989 0
90 1.5595359791369341 -0.62597011107648737 0
91 1.6425589988601521 -0.57050045758063117 0
92 1.721191651272622 -0.50897358274502258 0
93 1.794412727789334 -0.44110691159838961 0
94 1.860679360914739 -0.366454270776223 0
95 1.9173972693232899 -0.28435007843390309 0
96 1.961294459079304 -0.19476041870784361 0
97 1.989797632351656 -0.099178735578746832 0
98 -0.017913645277470448 -0.0023747356109731421 0
99 0.85605095706587586 0.0072693466597302117 0
100 -0.8755378842048992 0.00021247898609533139 0
101 0.40129885206010851 -0.40971800181588652 0
102 0.41619406252095048 0.40011213493148678 0
103 -0.43833641607731599 -0.36547267426640478 0
104 -0.43691355670269311 0.3634798950652951 0
105 1.4228933231680569 -1.65166189606432e-11 0
106 -1.4390540983206961 0.00070138303245994118 0
107 -0.039093236382461323 -0.53064205389514951 0
108 -0.03909323668076739 0.53064205324523428 0
109 1.1376788775331199 -0.34386062071559609 0
110 1.1376788776525979 0.34386062087565977 0
111 -0.8875432886081408 -0.44132178979561187 0
112 -0.88754328802547766 0.4413217888057423 0
113 0.46370377169739541 0.0050020547487566536 0
114 -0.4977417970423863 0.0048538097754686586 0
115 0.80759985941864554 -0.52124628903666403 0
116 0.80759985940675727 0.52124628830859643 0
117 -1.2491934141026391 0.3436291735028163 0
118 -1.2644174222563671 -0.34754885947991998 0
119 0.26630107502171563 -0.67608878042929199 0
120 0.26630107464850472 0.67608878001160422 0
121 1.4662432871775981 -0.30519827406803118 0
122 1.468156190859375 0.32765503903680759 0
123 -0.30128038069292251 -0.67163579054535838 0
124 -0.30128038151994257 0.67163579306925458 0
125 -0.63012490354619766 -0.63868606977257381 0
126 -0.63012490330709658 0.63868606905245373 0
127 0.11673374375855559 -0.27927045620510238 0
128 0.13106424264738159 0.27199805211996819 0
129 -0.16646020286649851 -0.27568751840462608 0
130 -0.16769321878454599 0.27090992041668033 0
131 0.6640818818788049 -0.24369420827968111 0
132 0.67239568628091517 0.23374783437719249 0
133 -1.556960882525269 0.26418696211485582 0
134 -1.564634886092195 -0.26643068243939261 0
135 -0.68968088841691633 -0.2276824988341894 0
136 -0.69070711211560754 0.22400952725409329 0
137 1.1376788775835389 -0.053645058910535427 0
138 -1.158808259113437 0.077897165966964735 0
139 1.714912153613994 -0.017588183537951121 0
140 -1.720298595567834 0.01020144386442284 0
141 0.55464678187941407 -0.67718575454240582 0
142 0.55464678160039582 0.67718575386448288 0
143 -1.024973307863722 -0.21271421831966719 0
144 1.0391450406023679 -0.59192001685538109 0
145 1.039145040345425 0.59192001705121389 0
146 -1.1197223115253381 0.55225866465408624 0
147 -1.116950225121867 -0.55909354842337866 0
148 0.92556589099312203 -0.23270683686282009 0
149 0.92564050867438663 0.2399533710176546 0
150 0.2207909111756802 -0.044364973257896408 0
151 1.6726521808806789 0.21675738895034499 0
152 -0.25308822155354438 -0.038544720021118931 0
153 -0.97401293774772912 0.24243889403344879 0
154 0.057035644513496957 0.76655174569896811 0
155 0.057035645333284653 -0.76655174499694245 0
156 1.3108300446275309 -0.50010898535009218 0
157 1.3044764989638289 0.48634740515744213 0
158 -0.86831003382884719 0.66864383615158041 0
159 -0.86831003208159907 -0.66864383540802197 0
160 1.669279661118249 -0.24380893071558149 0
161 1.230121408172917 0.1445941922085214 0
162 -1.269993609753975 -0.11754462968107481 0
163 0.33571143015898591 0.1837752841721404 0
164 -0.37209585873664253 0.1953984331186229 0
165 -0.21065082168324281 0.47886096935824241 0
166 -0.2106508211720628 -0.47886096925044458 0
167 0.20860664507213031 -0.4697057383532986 0
168 0.21105385572338581 0.46913075760078871 0
169 -1.4425303081427709 -0.46012868915797989 0
170 -1.4415538188328549 0.46254823626798192 0
171 -0.40330626594984742 -0.1796641506416724 0
172 0.3775675328159952 -0.18584302265431599 0
173 -0.68479808835117173 -0.432032523476094 0
174 -0.68427682097421716 0.43078169681112399 0
175 1.31384756040102 -0.15579161067303909 0
176 -0.47625494364359588 -0.76512053206742792 0
177 -0.4762549475673204 0.7651205325019248 0
178 0.75651995796483129 -0.72318773777049639 0
179 0.75651995740093247 0.72318773736693798 0
180 -0.12627079994739029 -0.81844429859109591 0
181 -0.12627080332388191 0.81844429905474092 0
182 -1.734907390553819 0.19990436383714219 0
183 -1.7336380858876339 -0.2002477763780989 0
184 0.6562891432723581 -0.047370799167106563 0
185 0.59226806375201824 -0.48265386906649582 0
186 0.59226806357905781 0.48265386844797342 0
187 -0.68384559454748561 -0.026327725876145919 0
188 -1.372681994637724 0.1845498485491531 0
189 -1.07722867418152 0.37423194620564598 0
190 0.94622166653563744 -0.41979633859876508 0
191 0.94349960857037829 0.4198549800566983 0
192 -0.46908413089943141 -0.57660361961639317 0
193 -0.46908413073457089 0.5766036200900968 0
194 1.0679661453199201 0.1136853045930392 0
195 0.41198905594097729 -0.78482415508602954 0
196 0.41198905534802061 0.78482415553554996 0
197 -1.2950348433383221 -0.57728482145807947 0
198 -1.2950348440137549 0.5772848225118492 0
199 -0.023176211382599982 -0.36268716008479401 0
200 -0.023176211459273101 0.36268715944933733 0
201 0.50937878284120675 0.16989920315038501 0
202 1.5182155433183311 -0.15007004977042571 0
203 0.41697094263711881 -0.56965811858682103 0
204 0.41697094231281723 0.56965811812279887 0
205 -0.018142528645201061 -0.17675832855150789 0
206 -0.017798181607415229 0.1792707960538793 0
207 -0.85336463627461945 -0.17098260074245539 0
208 -1.0903738627619759 -0.38514654648805391 0
209 1.5109788306954719 0.1507745168454451 0
210 -1.578753121517527 0.10112446699458839 0
211 -1.5787531173824489 -0.1011244677713919 0
212 0.92779097246546194 -0.71364518258794574 0
213 0.9277909715385938 0.71364518249488818 0
214 1.612357424690386 0.39253712379261402 0
215 -1.043601531214351 -0.04789687388949887 0
216 1.8169360464404729 0.1282764070606964 0
217 0.13787675028967949 0.085683048538729156 0
218 -1.415712662344591 -0.1671294068835375 0
219 1.480716555278069 -0.48736008778691658 0
220 1.488254644585713 0.48577154410462992 0
221 1.2022204257894591 -0.62531756900033419 0
222 1.202220425122857 0.6253175687817214 0
223 0.5361866753182859 -0.14460047084086941 0
224 0.21624305109900621 -0.82917229135833326 0
225 0.2162430510648827 0.82917229140587789 0
226 -0.556377447353679 0.15345313242223849 0
227 0.79272071760384533 -0.35568845236752278 0
228 0.79534281500667425 0.35443935159436979 0
229 -0.17055233188228289 0.099857280656010211 0
230 1.804257610040966 -0.15361983599560791 0
231 -0.73951106849620818 -0.76318819447994846 0
232 -0.73951106963425239 0.7631881939948757 0
233 1.297266464377643 0.3187584927601077 0
234 -0.15164932029744399 -0.63115323934279177 0
235 -0.15164931971215601 0.63115324063542677 0
236 -0.31686403707342592 -0.82461029934474006 0
237 -0.31686404536940599 0.82461029970648392 0
238 1.616202040664025 -0.40272626338830458 0
239 -1.038619239143433 -0.68965292402613765 0
240 -1.038619245737588 0.68965292362151265 0
241 0.12260669427576069 -0.62126330383859896 0
242 0.1226066935415529 0.62126330456640033 0
243 -0.55827673675776501 -0.137202884211542 0
244 1.2981248908373699 -0.34639175422978369 0
245 1.083752385487379 -0.1957841907215013 0
246 -1.154919457437882 0.23227792367733699 0
247 -0.82859262798390132 0.14856873714655591 0
248 0.28094873090784861 -0.3145929603240748 0
249 0.72972037253612931 0.095342013448623947 0
250 0.8024199761911599 -0.14514151670499439 0
251 -0.82326708078876298 0.30487128428703758 0
252 -0.30400816419835858 -0.3405786495161609 0
253 -0.30293610965810852 0.34361749573026013 0
254 0.27782289698924773 0.32580751739065938 0
255 0.98623225661651148 -0.073818918261902663 0
256 -1.687529990745738 -0.34491101842919342 0
257 -1.6875436246641431 0.34488529643293808 0
258 -0.77893692918953528 0.55169365599680953 0
259 -0.77924080743814517 -0.55200845870821513 0
260 0.55981386335481265 -0.33255935661447522 0
261 0.56099540809590653 0.33291835957806348 0
262 -1.8479567100442591 0.093543152633249749 0
263 -1.845757105401949 -0.092440306036733991 0
264 -0.79892977050481095 -0.32241138086578353 0
265 -0.56838390333507716 -0.31498975515457472 0
266 -0.5614607667190572 0.29940391100096708 0
267 0.63247337491146594 0.8080169616815045 0
268 0.63247337741694254 -0.80801696050658434 0
269 1.2752411379005399 4.8801258165961729e-11 0
270 1.569008792789315 0.015754323299537031 0
271 -1.295744742506681 0.02238206929726607 0
272 -1.406730406410087 -0.31324304001319392 0
273 1.1484205773094509 -0.48866775105047039 0
274 1.148420576390182 0.48866775096321641 0
275 1.8579060417907769 -0.020462438787890069 0
276 -0.97274457307745765 0.55767480267492153 0
277 -0.97274457393082447 -0.5576748028795605 0
278 -1.1653022611622199 -0.22965285331738799 0
279 0.672521993492051 -0.60242579371207139 0
280 0.67252199315517913 0.60242579335542978 0
281 -1.4175685953047961 0.32176479005680991 0
282 -1.579579094555571 0.42641356414850579 0
283 -1.5826525702475831 -0.43784370516803622 0
284 -1.0199198672535019 0.089443912241229384 0
285 0.32797307476231258 0.044658865565976723 0
286 0.1081578072445028 -0.1238323755629943 0
287 1.37391118879722 0.17335399622186379 0
288 -0.14687196369754921 -0.12678630440025021 0
289 -0.359200124388946 0.049211792003409832 0
290 -0.35694990315226488 -0.49176759329013098 0
291 -0.3569499036132836 0.49176759373611872 0
292 0.090867924833551272 -0.44949708460041649 0
293 0.094472937728757561 0.44980462548394662 0
294 -0.042080705562648008 0.86692014062922707 0
295 -0.042080704228828071 -0.86692014004218221 0
296 -0.61313405416591271 0.81891164096081048 0
297 -0.61313405390622977 -0.8189116380947733 0
298 -0.54796773075176186 -0.48300639435693898 0
299 -0.54796773064269788 0.48300639447408178 0
300 -0.94065547208382894 -0.31558181899127358 0
301 0.23043510500612341 -0.1855785826796795 0
302 0.90082982211952034 -0.57863281544783296 0
303 0.90082982201742678 0.57863281461079163 0
304 -1.158395142224151 0.68421642452113274 0
305 -1.1583951394942931 -0.68421642095876212 0
306 0.93339323241422378 0.1035858890124034 0
307 1.106045864045718 0.67147639444126861 0
308 1.1060458659670269 -0.67147639354567745 0
309 -1.190927735687868 0.48801063782964998 0
310 -1.185205083451299 -0.49131097331436469 0
311 1.0373610275620091 0.25188931147070132 0
312 -0.26355263041080601 -0.17698768958147171 0
313 -0.64873179862731345 0.10001393798009239 0
314 0.60350713839246084 0.081044367956131694 0
315 1.740843898823845 0.34348840607772091 0
316 -0.01085334819129437 -0.6914610832765764 0
317 -0.010853348379271601 0.69146108362651193 0
318 0.80534549733068106 0.19810574659046751 0
319 1.1708620899567259 -0.243367489529659 0
320 0.665751940571637 -0.39005487924293458 0
321 0.67334972362065171 0.3861474755288421 0
322 0.42528977170334392 0.27094722768389062 0
323 1.013774678742416 -0.31765689492824661 0
324 1.647758968736279 -0.1340085497077822 0
325 -0.4672396020719507 0.27183509093865171 0
326 -1.2423136070294361 0.1748884885521198 0
327 -1.3135002804632989 -0.25284113591655338 0
328 1.659979239898479 0.081298592682398002 0
329 -0.96374544501533976 0.34473229093365593 0
330 -1.437760061382634 -0.5836895311978445 0
331 -1.4375973194957761 0.58409278789646524 0
332 -0.1008929420606918 0.43965503432329478 0
333 -0.10089294160086019 -0.43965503458709371 0
334 0.1091383235850102 -0.88066105521315896 0
335 0.1091383232760068 0.88066105449625331 0
336 1.3825295575266281 -0.61141818155608529 0
337 1.3825295545127121 0.61141818390111835 0
338 -1.145848972979298 -0.050749609833753831 0
339 -0.38770393498033251 -0.070630675414911581 0
340 -0.25794780671639012 0.16820436006339301 0
341 0.45356205318737841 -0.27540053362886913 0
342 1.561170772541304 0.24496121192612519 0
343 1.79273976366613 -0.26996460521221038 0
344 0.10880419121259401 -0.024358517840811968 0
345 0.52008829137825574 -0.84554434757378749 0
346 0.5200882906922335 0.84554434865337302 0
347 0.34667063446398211 -0.49148566779892933 0
348 0.33617892217839968 0.47807935703155519 0
349 0.21468262770428251 0.18390637348047439 0
350 -0.79358840705816946 -0.071495220264883225 0
351 0.36149446676461811 -0.076552496421381899 0
352 1.3603747887071549 0.39185762445138678 0
353 1.2389485850566291 0.40570108289149909 0
354 -0.8954428444934015 -0.80755765848782535 0
355 -0.89544285789560674 0.80755765735773821 0
356 -1.3508491188369081 0.44191941675247481 0
357 -1.344101591774739 -0.44300428692799221 0
358 0.33120737318995558 -0.85733120615363501 0
359 0.33120737162368508 0.85733120768112614 0
360 1.1806750034736451 0.2113793602557153 0
361 0.84244949213472808 -0.79632228124507531 0
362 0.84244949161615823 0.79632227907836839 0
363 1.15380221551259 0.060047418574402073 0
364 -0.4104782010397458 -0.87184172001782279 0
365 -0.41047821099999809 0.8718417200545433 0
366 1.8128919178694349 0.2295703007163705 0
367 -0.47924102632054127 -0.27713867365904682 0
368 -1.470885513373327 0.1124760139288724 0
369 0.43886899385815248 -0.68084929558503826 0
370 0.43886899339001861 0.68084929537975192 0
371 -0.77559036183874819 0.046070494980950873 0
372 1.5547788200973791 -0.25973930856254129 0
373 1.419299403918882 -0.1228613489763918 0
374 -0.13806306948168681 -0.016170336767190159 0
375 -0.22421278055275759 0.88796923533926608 0
376 -0.22421277112361521 -0.88796923546139628 0
377 1.388476692694061 -0.4090661742756474 0
378 -0.96181293292090841 -0.13274375993445731 0
379 -0.51992500790965857 -0.66209870961516459 0
380 -0.51992500825251087 0.66209870904976453 0
381 -0.40547457760531519 -0.68405560692072098 0
382 -0.4054745795572085 0.68405560704155699 0
383 0.17206846242775539 -0.72234842304244951 0
384 0.17206846276126661 0.72234842283946954 0
385 -0.99353653520612473 -0.45742710861103741 0
386 -1.1158056062676049 -0.14366741834524971 0
387 1.0595639837254209 -0.42423153234628708 0
388 1.0581072470033399 0.42256516384659831 0
389 0.42347645545212231 0.085212856633290618 0
390 1.711542520894284 -0.35295899595948838 0
391 1.3483285143719359 0.080047932780160605 0
392 -0.75052059939073357 -0.66068787726344336 0
393 -0.75048261555927631 0.66064852809434804 0
394 -1.3551964188341521 -0.072277930368217405 0
395 -0.18248437883406071 -0.38130607014522228 0
396 -0.1827143033800552 0.38061653802344059 0
397 -1.783628730932554 0.29887204703323689 0
398 -1.783628723725176 -0.29887205464786798 0
399 0.52876601332579132 -0.57206261004271841 0
400 0.52876601304112669 0.57206260937350761 0
401 -0.99702935487697553 0.45597024350279708 0
402 -1.8994146368735889 -1.032598170472287e-08 0
403 -0.24080929973200729 0.58605501116290826 0
404 -0.24080929981643009 -0.58605500936991151 0
405 0.22245218996510641 -0.57615960556897516 0
406 0.22131974757141251 0.57668400818011611 0
407 -1.686877368060848 -0.10301502888321611 0
408 -1.6770299144231779 0.10490700488195009 0
409 -1.6271731548946451 -0.1887889868797025 0
410 -1.6287503430472181 0.18489169826696281 0
411 0.73687862031616425 0.82762031255821666 0
412 0.73687862257013415 -0.827620311589081 0
413 -0.78629973123885055 0.40363232493037049 0
414 0.18092741893838279 -0.36332612618040372 0
415 0.18347245175956081 0.36535853272766 0
416 0.80945562022291551 -0.63026819174979587 0
417 0.80945561981629077 0.63026819109436205 0
418 1.5791032519765451 0.47791637966703249 0
419 -1.832082918564129 0.19778611461127851 0
420 -1.8341267541830779 -0.20010640028302271 0
421 1.4017324502263731 -0.22172366091693971 0
422 -1.254861768501236 0.68114606917142007 0
423 -1.254861759152567 -0.68114606968985403 0
424 0.81840697944977014 -0.25270647807740593 0
425 1.051936451615413 0.0077042868868194576 0
426 -1.6140974134389801 -0.00058412568455529874 0
427 0.48608170910065041 -0.47159542962123419 0
428 0.48549531953095559 0.48369652116376233 0
429 -1.519124727722819 -0.53515836103150993 0
430 -1.5190753071535199 0.53528082627359252 0
431 -0.7161808454081825 0.32551430814779952 0
432 1.2390554472465141 -0.43187648530685691 0
433 -1.5046079070801259 -0.36805891814256059 0
434 -1.499586725117372 0.36947632145306841 0
435 -0.44302755216906858 0.096706383736580762 0
436 -0.23137794215964111 0.76275665400457959 0
437 -0.23137793877449819 -0.76275665229158762 0
438 0.55166377602257566 -0.051076371864445858 0
439 1.2339790123523009 -0.087537988084983101 0
440 -0.78555264843523531 -0.41734033284113431 0
441 -0.7099857218268667 -0.33399196088933158 0
442 -0.63518469046725912 -0.51592469594012447 0
443 -0.63511022350024671 0.51574600578004526 0
444 0.90195814902342641 -0.13541488960242429 0
445 -0.066977644821351989 -0.27078003154742381 0
446 -0.068386651768116369 0.26843061502737642 0
447 -0.65644390449429668 -0.13243760347340119 0
448 -0.58121195531180148 -0.041783410592510117 0
449 0.63581173028897653 -0.15007167183212219 0
450 0.98396975424034727 0.33267727696202809 0
451 0.7596849067926541 -0.046031392730558472 0
452 -1.0610905189074591 0.27692110640317491 0
453 -0.91274447397609149 0.099379664217489061 0
454 1.5771079729061499 -0.48815714487025891 0
455 0.22643972418909089 0.057868070776045971 0
456 1.2961201589383811 -0.66873661461515754 0
457 1.296120155718562 0.66873661620755298 0
458 0.82077589639270743 0.10919215164177989 0
459 0.31363495436011329 -0.7670742997652038 0
460 0.31363495366913702 0.76707429981802011 0
461 -0.26431386180223271 0.059880956959617829 0
462 0.037733379634574161 0.084900276564690264 0
463 -0.03274703038385543 0.78278359029136646 0
464 -0.032747029370478402 -0.78278358952101101 0
465 0.65327322465481008 -0.70142352016697462 0
466 0.65327322404320465 0.70142351989438967 0
467 -1.29623674747754 0.25122899926572101 0
468 0.8944152680808154 -0.33256018835207413 0
469 -0.53005624779531824 -0.86259315569125694 0
470 -0.53005625610587936 0.86259315744063758 0
471 -1.37405817295518 0.078313485060982915 0
472 -0.36190204547561139 -0.58225176751500807 0
473 -0.36190204554912642 0.5822517683826669 0
474 0.023909935624075961 -0.27478189777695072 0
475 0.02911523775350831 0.27110894217893039 0
476 0.69306923729401881 -0.51040769361169624 0
477 0.6941546347118247 0.50984949256174927 0
478 1.032410181437531 0.75955890652882152 0
479 1.032410184980471 -0.75955890511463175 0
480 -1.0684301891497201 0.17625471530629239 0
481 0.84951685457650117 -0.42778386889175418 0
482 0.84761211220148525 0.42562839756995557 0
483 -1.475557042888604 -0.092893323076800621 0
484 -1.4682221110532949 0.21220164472252809 0
485 0.08877900940366848 0.17947791482277861 0
486 -0.87561385386907398 -0.57586202805350173 0
487 -0.87456983412997791 0.574780471933102 0
488 0.02760052205300087 -0.0948616760855574 0
489 -1.1582911477730791 0.32270111705571092 0
490 -0.38919290443388938 -0.77275810706451842 0
491 -0.38919290982056992 0.77275810355178765 0
492 -0.56274275782630478 0.060935924757218853 0
493 -0.99547889322024663 -0.78399649080904332 0
494 -0.99547890795662186 0.78399648726538695 0
495 1.88636543884966 -0.1099987927217967 0
496 1.5242700967315039 0.40463541415444187 0
497 1.895014163968558 0.061640137285040308 0
498 -0.06898184883677462 0.087543173041991773 0
499 0.31333239388191819 -0.5876523972939266 0
500 0.31544887576470282 0.58626598495940241 0
501 1.473532080708376 0.57853088449285739 0
502 1.472846794899074 -0.57845907624239723 0
503 -1.5203437716106909 -0.17659432796187899 0
504 -0.1133406006620373 0.1830825549882987 0
505 0.56322031024130881 -0.23562061862605679 0
506 0.45004122476460612 -0.093278165868825133 0
507 0.58928201665741398 0.2302159332645673 0
508 1.5135903782623841 -0.3978939718388943 0
509 1.498647300364538 -0.0528423650333609 0
510 -0.1127689901265084 0.91831914877640453 0
511 -0.11276898326744671 -0.91831914778931423 0
512 0.1410751148068298 -0.52824146475647127 0
513 0.14205907070884891 0.52829285712307328 0
514 -0.37107941890551382 -0.29022143052631572 0
515 0.98254335179909635 -0.51877823313270721 0
516 0.98194638093980013 0.51854855761643381 0
517 1.6970567873048681 0.41013919446585217 0
518 -0.65281339025196994 0.73337988736982296 0
519 -0.65281503927860729 -0.73338159423267379 0
520 -1.103718029114612 0.46513364659403977 0
521 -0.13599667655583139 0.54474689202782423 0
522 -0.1359966764870788 -0.5447468916990067 0
523 -0.5603495002490757 -0.57363290324699345 0
524 -0.5603440725252935 0.57361987810699067 0
525 -1.2009268620113009 0.58718403597268798 0
526 -1.1997133267565581 -0.58863192347113247 0
527 -0.37107031122529632 0.29447668799403581 0
528 -0.7001641977978752 -0.85003071640420369 0
529 -0.70016413826145285 0.85003064890453139 0
530 1.153576346284731 -0.14704984697319529 0
531 -0.58655103042239909 -0.22546633165061861 0
532 0.49929058254900199 0.74112598023464393 0
533 0.49929058277253718 -0.74112598013707331 0
534 -1.3548763107296089 0.6413861271001432 0
535 -1.3548763047544661 -0.64138611986035343 0
536 -0.79802547228440979 0.83031467890721089 0
537 -0.79802547302154658 -0.83031469042113248 0
538 0.88740803320288653 0.34048255951520151 0
539 -1.1682648343344451 -0.32340770919012207 0
540 0.95723837820657631 0.0096372266660812306 0
541 0.9930495177051144 -0.1654275828851583 0
542 -0.75217257206817623 -0.16067452334967031 0
543 -0.4469943001197203 -0.47996274926724769 0
544 -0.4469413887697864 0.47988864445190299 0
545 0.43499163782509209 0.88431448263651813 0
546 0.43499163939616919 -0.88431448131634371 0
547 -0.5974596587909986 0.23045648425191881 0
548 -0.94195280332736975 -0.2287126492566251 0
549 -0.067969039677093029 -0.096440063746794036 0
550 -1.089128119143451 -0.29144023357424342 0
551 0.65578584375634374 0.15096206041006499 0
552 -0.97636860239298429 0.01476334221622258 0
553 -0.72363410739731593 0.13686998142878529 0
554 0.99121791894782629 0.16131691283407329 0
555 1.43685229948994 0.1047928374097591 0
556 -0.88517557937588442 0.20821599001793811 0
557 1.0152993847199581 -0.66895993376341067 0
558 1.0152993833083539 0.6689599343235918 0
559 -0.4766452652153822 -0.090712096446251889 0
560 -1.664914526208263 0.43557681685444688 0
561 -1.665324923504331 -0.43726377819096868 0
562 0.53339577481792866 0.062851310359273202 0
563 1.332306268232786 -0.064842309930078668 0
564 1.2243548929001169 -0.53550967309377051 0
565 1.226640794020226 0.53675387936521601 0
566 -1.527488503250273 0.033844490737439087 0
567 1.5974740878221989 0.15843815451069271 0
568 0.001097405243034395 -0.44819296174604978 0
569 0.001403953731244701 0.4482191125311108 0
570 0.29456151545513221 -0.41145249352959778 0
571 0.37120294159631478 -0.31238274983267589 0
572 -1.086074056006836 -0.47434243906606449 0
573 0.07214640868017487 -0.35900005511179711 0
574 0.072146408560008285 0.35900005437449478 0
575 -1.809595415657193 0.0062803880839491068 0
576 1.457980825965419 0.21946155822196409 0
577 0.28340730103895018 -0.1249100169033041 0
578 -1.097885468373557 0.76241071255289461 0
579 -1.0978854551079791 -0.76241071533035343 0
580 -0.26362868762466152 -0.2623484908969993 0
581 1.205535939385594 0.71535786242235855 0
582 1.205535943098788 -0.71535786074000796 0
583 0.18633163465584279 -0.91923005375593148 0
584 0.1863316318607838 0.91923005302851835 0
585 1.7798808867879641 0.047462749948424789 0
586 -0.26779007927805731 0.25861312175298051 0
587 -0.78007189458515391 0.2236151117416918 0
588 1.068069745543311 -0.1096315682897082 0
589 -0.88301177199339753 -0.089206748128495869 0
590 -1.6040913828773731 -0.35049312674773903 0
591 1.7213653634389841 -0.1007565607606002 0
592 0.93970522343615481 0.80313111283041594 0
593 0.93970522693225922 -0.80313111197876208 0
594 -1.6028083628212559 0.34913246467622272 0
595 1.127629161671015 -0.57330667235258492 0
596 1.1263736189818221 0.57458405929334455 0
597 1.873206512457366 -0.2049953571658073 0
598 -1.466269176473348 -0.25551558499388521 0
599 1.286588962724299 -0.25009109666291551 0
600 -0.95483618007031357 -0.63850352764947493 0
601 -0.95471189489236186 0.63837477087881234 0
602 -1.0916890978152149 0.029024114669189461 0
603 1.876191915260649 0.1748537911394823 0
604 -0.12107326543423649 -0.70904719128937299 0
605 -0.1210732662248942 0.70904719281400375 0
606 1.7420742603300381 0.15680822932535879 0
607 1.1459889303242401 0.14439027494326051 0
608 1.392196552846644 0.50645621387733197 0
609 1.39447682335559 -0.51852895712837443 0
610 0.36152197541559589 0.31998849720500899 0
611 0.83923695327948422 -0.70501935688271911 0
612 0.83923695266741505 0.70501935630663803 0
613 -1.0408666606374539 -0.60284157685169815 0
614 -1.040452432363508 0.59766696862589819 0
615 -0.36378571502394869 -0.40535388869536071 0
616 -0.36378571477106142 0.40535388894616142 0
617 1.6552923111131961 0.30750201425173829 0
618 0.73429909304265695 0.27522463065799968 0
619 1.3762798393160749 0.27743795411629513 0
620 0.021976878940749432 -0.60926436451994503 0
621 0.02197687827650233 0.60926436428909447 0
622 0.76173172189292959 -0.44103623663011438 0
623 0.76361182898947855 0.43946220111270262 0
624 0.28255625958914948 0.41131150299525571 0
625 0.47049067452740451 -0.18783636951620569 0
626 0.72077771514986777 -0.29352848089967959 0
627 1.296725180122414 0.21495743715424201 0
628 -0.81799393224209027 0.73699248147258756 0
629 -0.81799392587703046 -0.73699247373224341 0
630 -0.31998294715962872 -0.91137878498162728 0
631 -0.319982958583231 0.91137878455215415 0
632 1.2158659527986919 -0.33140024259094902 0
633 1.369886805171739 -0.30191586554648853 0
634 -0.61246374028997497 0.39321120700040418 0
635 -0.61224913137235126 -0.39561504407381037 0
636 0.36018290261666591 -0.67769117445771843 0
637 0.36053564918886682 0.67746010563785453 0
638 -0.3124641129546723 -0.1170255373331046 0
639 0.065297746965134018 -0.19687897759321499 0
640 -1.540714394303327 0.17497615720556151 0
641 -0.49546264366366649 -0.18514225829325989 0
642 -1.337226640160033 0.34649433205613761 0
643 -0.46314835403886012 0.18560826701524669 0
644 0.28296520547367621 0.12147594278781459 0
645 -1.9252842677976589 0.089711349051476597 0
646 -1.9248443443243179 -0.089490797251144269 0
647 0.2182923870918588 0.27659950519078269 0
648 1.21085834434261 0.29531934603570281 0
649 -0.215356542251574 0.67334763236482287 0
650 -0.21535654262052489 -0.6733476283324229 0
651 0.13261509089617271 -0.80155028251143523 0
652 0.1326150909735602 0.80155028126953098 0
653 -0.32100117099400272 0.12321689938011959 0
654 1.6880262967831841 -0.43760468802235508 0
655 1.6349262881368269 -0.040341329659020798 0
656 0.72025060459230472 -0.11893600923523701 0
657 1.0714604230214699 -0.51938084114748606 0
658 1.0707985727321141 0.51925710975416139 0
659 1.620716608906376 -0.31806958743444402 0
660 -1.0109298395945581 -0.36361138097825491 0
661 -1.0463086574690721 0.52346420942752181 0
662 -1.3300305102081911 -0.16906460520577851 0
663 -0.56611141771029738 -0.7410805650235619 0
664 -0.56611141708574264 0.74108056327687699 0
665 0.2929305000557792 -0.2316013412773201 0
666 0.21014087841684581 -0.26190600386227159 0
667 -1.676381391466109 -0.26468256573070642 0
668 -1.6797593130812909 0.26106674215216458 0
669 -1.344383190218313 -0.36694002182901919 0
670 -0.072781494641960903 -0.61938580400380694 0
671 -0.072781494879403025 0.6193858044396825 0
672 0.072188756291788947 0.68313359188019662 0
673 0.072188757171781026 -0.68313359165053877 0
674 -1.74702754113721 0.39445723913536002 0
675 -1.747027531539586 -0.39445724608271238 0
676 1.727080273400122 -0.18043169647835641 0
677 0.63665750497877538 -0.31296220168912958 0
678 0.64337670523092627 0.29773980512292708 0
679 0.47618972733960002 0.33369017208896018 0
680 -0.1099048758025514 -0.18912093687017659 0
681 1.063317083025044 0.33003106878607652 0
682 -1.2321738906392019 0.097592933992065811 0
683 1.083256681826954 -0.26805611353162029 0
684 0.5485513452304186 -0.41306791268820309 0
685 0.54554548357585808 0.41595231959839019 0
686 -0.87646381904323367 0.35889958763658869 0
687 -0.27632739314327742 -0.42038593142167868 0
688 -0.27622802186734408 0.42081303461435471 0
689 1.6041888449116071 -0.1954206602436572 0
690 1.482699614381497 -0.22284056535608279 0
691 -1.7690199978764509 -0.064142718068227522 0
692 -1.7676100595273589 0.1131902581753976 0
693 -0.86304603389265933 -0.26947953167049832 0
694 -0.70540647238701437 -0.58123993502351223 0
695 -0.70540647190680217 0.58123993434121179 0
696 0.67686145430157196 0.037852938941605963 0
697 1.296712047869772 0.57766716095273041 0
698 1.301755317189617 -0.57660333012396903 0
699 0.41629259969555571 0.18955330238190971 0
700 0.65902498617901539 -0.88078839894670979 0
701 0.65902498049312364 0.88078840061408958 0
702 -0.86962127071324036 -0.35971307774597799 0
703 -1.161654033732068 0.1476555402286569 0
704 0.034339656497705123 -0.92038383961151315 0
705 0.034339655967969243 0.92038384087687519 0
706 0.18507751458537269 -0.1166851704586226 0
707 0.77153740028268558 0.038200602960326353 0
708 0.60549798022250245 -0.5617694083392929 0
709 0.60549797991359211 0.56176940771365247 0
710 -1.3629896759726261 -0.52225031292922297 0
711 -1.363232991241593 0.5223257131973994 0
712 -1.5997730558578851 -0.51017291445337731 0
713 -1.597123970856559 0.50510876815470007 0
714 -0.10627023802303349 0.34370321320061858 0
715 -0.1079982759010743 -0.34602316295383201 0
716 0.26809490899673188 0.92208411428765658 0
717 0.26809491086818471 -0.92208411072703256 0
718 1.789380012756115 -0.055721675656268767 0
719 1.925816655392131 -0.033599965960678657 0
720 -0.82183265401561956 0.48702430975971323 0
721 -0.93428451142660096 -0.7206617158944032 0
722 -0.93428452746622181 0.72066171589913885 0
723 -1.2433143244098079 -0.045940634009392488 0
724 0.8466008550020373 -0.075282875302312785 0
725 0.74704726641637431 -0.20606466574140361 0
726 -1.2211022459028431 0.27576051685254149 0
727 -0.77191667086212479 -0.24811754345093789 0
728 0.056421796952910719 -0.5311835388927717 0
729 0.057237716217689819 0.53124771953980998 0
730 0.89734231088988015 -0.49324750902154468 0
731 0.8962975566271697 0.49278220763249508 0
732 0.29500150979038348 0.25665274673736238 0
733 0.15264046599608899 -0.1940252610603142 0
734 0.88410917311391657 0.17264554566120291 0
735 1.5460328626153119 0.54877124289304258 0
736 -0.52381516385541937 -0.38113656409558871 0
737 -0.5267312713185418 0.37941418219118678 0
738 -1.2496154180726979 -0.19319020167438181 0
739 0.29704066549768149 -0.02713344949852518 0
740 1.4450071056402209 0.41999199007455063 0
741 -0.22173627640403501 -0.1105366258232809 0
742 -0.73531047180421183 0.4950196546032124 0
743 -0.73563726482180503 -0.49712825056695081 0
744 1.498162874218556 0.046470579696457993 0
745 1.309121768851369 -0.42186084979059502 0
746 1.5623830890181869 0.092887046714489996 0
747 -1.0407091667577719 -0.12518110947769101 0
748 0.1950111006843 -0.64847882255485323 0
749 0.1950111001724055 0.64847882225135789 0
750 0.47336035684693129 -0.36294172230575927 0
751 -0.32280622316910018 -0.20524945979591269 0
752 1.002927085590364 0.070178679832754054 0
753 -0.82531532822703657 -0.4880219090576069 0
754 -0.19300787510761461 -0.18827337457045759 0
755 1.5760549290391519 -0.092811930561057993 0
756 0.41216094937404552 -0.48889917289824147 0
757 0.4137098116357808 0.48288653281240079 0
758 0.57381906315487718 -0.75282397319825844 0
759 0.57381906283317041 0.75282397309783577 0
760 -0.32875884633457181 -0.020357839319124819 0
761 -0.31696140167414821 -0.748073513024063 0
762 -0.31696140546370782 0.74807351377923048 0
763 1.254282034374554 0.070576262835746362 0
764 1.2036605599121331 -0.0063989942997578894 0
765 -0.28574739580239322 -0.51469749527367625 0
766 -0.28574222277022088 0.51471973192083509 0
767 1.0198798309509971 -0.23592632378586931 0
768 -0.8470623623420237 0.073789660175110974 0
769 0.27227538474101259 0.5189562103194898 0
770 0.27353769528368838 -0.51591970741020143 0
771 -0.6390839831024997 0.29245478687614118 0
772 0.4962380510555045 0.25453736635796259 0
773 -0.6311237659182386 0.027893430190218619 0
774 1.1457888215256871 0.41519865464424338 0
775 0.73144994274006159 0.1731120506613085 0
776 -1.0048358472948229 -0.28488984369549769 0
777 -0.61364326309778272 -0.89225431109052278 0
778 -0.61364327432586618 0.89225430805694139 0
779 0.23969598320503571 -0.75507982887203706 0
780 0.23969598295899 0.75507982886444702 0
781 -1.1761075231910461 -0.40670646190508553 0
782 0.58784127484825988 -0.88751277350390301 0
783 0.58784126926773284 0.88751277564434583 0
784 -1.2322200432578061 -0.26932815191567311 0
785 -1.776366045828403 -0.134776057769774 0
786 0.038013229916007509 -0.83937727339871038 0
787 0.038013229187633779 0.83937727429922993 0
788 0.90961611918288543 -0.053522021968165662 0
789 1.8108966240108439 0.31931322672055218 0
790 1.7391425882100471 0.2538588205793636 0
791 -1.1736114799099939 0.40203146086564368 0
792 1.1606420614348909 -0.4149591978627466 0
793 0.74319886513024058 -0.58245781235183147 0
794 0.74400841185786648 0.58192425978522666 0
795 -1.3864486071799029 -0.23155875460258971 0
796 -0.81572557381270039 -0.61573755648168604 0
797 -0.81807485317690931 0.61394162304396005 0
798 1.1301806506183389 -0.75583577335446839 0
799 1.130180646343462 0.75583577501209898 0
800 0.36870907936924502 -0.92683172386095158 0
801 0.36870906906150308 0.92683172885574594 0
802 0.8310665150781793 0.26855450096218619 0
803 1.347928403065431 0.0077975597716502341 0
804 -1.904313033331686 0.1562041921836741 0
805 -1.9041998607090831 -0.15664828498908279 0
806 -1.382802813766568 0.26275441888384399 0
807 -0.2065043711799367 0.026255795206829729 0
808 0.69536351707341681 0.76541814657609497 0
809 0.69536351817735353 -0.7654181464899148 0
810 -0.91685274578677778 0.5092309703325697 0
811 -0.91685274710555897 -0.50923097058650946 0
812 -1.408470680725207 -0.39027499121414921 0
813 -1.366013358154178 0.0072797517556228812 0
814 1.7897453759481079 -0.34607010580128622 0
815 0.17262069191382909 0.01612997081344358 0
816 -0.97201179973768626 0.1580926441304325 0
817 -0.63868972320032613 -0.2925986715613707 0
818 -1.0420344101806209 -0.53027589516634788 0
819 -0.41435339920529579 0.00069686871541947183 0
820 1.6572069693567999 0.4729454229116391 0
821 1.542900974139698 -0.55444913325382572 0
822 -0.94045728124117878 -0.38753103522443122 0
823 0.38694189563830389 -0.0050286685841960223 0
824 0.57826991129307082 0.13899457502808441 0
825 -0.72151261954203205 -0.097733768241025157 0
826 1.2324895209710851 -0.1746107838618759 0
827 -0.64021467175196822 0.17127673050358291 0
828 0.86208774891436968 -0.19149243031191121 0
829 -1.095659755735567 0.1039103304691637 0
830 0.72845607058307871 -0.6512772433982863 0
831 0.72845607010795876 0.65127724282465049 0
832 -0.2336581081657125 -0.33094152818515482 0
833 0.60434345736137907 0.016660289245091681 0
834 -0.69514088544087704 0.053370111356137437 0
835 -1.1983133654409339 -0.13012422447687341 0
836 -1.095544185584401 -0.20759671796200499 0
837 -0.23947234659362229 0.33491402210754317 0
838 0.88917461559436672 -0.64845900597893569 0
839 0.88917461497917172 0.64845900543308688 0
840 -1.206242251931142 0.015951326361189119 0
841 -0.94806654454530792 -0.050974312150026839 0
842 0.49539955096499511 -0.63609041157483659 0
843 0.49539955041311662 0.63609041096634678 0
844 0.35214918634959719 0.116245914096003 0
845 1.088007733938418 0.1882701182913486 0
846 -0.90564026521911511 0.29318057215102922 0
847 -1.414233302754297 0.38957617794724347 0
848 1.5642493591871529 0.3354581606323454 0
849 -1.5318599736297589 -0.039945694193645097 0
850 -1.310435162109933 0.1359350378002516 0
851 0.96499550837646908 -0.61425360638397053 0
852 0.96494474506580774 0.61423407628198801 0
853 1.649464514130365 -0.49474758319036832 0
854 1.5527006377869541 -0.33315927911195242 0
855 -1.182378239365546 -0.74987236740532726 0
856 -1.1823782567235279 0.74987236359518239 0
857 -1.275876617826442 -0.49710355437416548 0
858 -1.2758766138412621 0.49710355316507698 0
859 -1.111623198772377 0.62219580347906356 0
860 -1.110908918230721 -0.62488727874622185 0
861 -0.18663137109308889 0.1924835447338544 0
862 -1.474253020468522 0.28359491907145717 0
863 0.36676345735277288 0.24418341163606239 0
864 -1.8518476388156211 -0.26866746290702093 0
865 -1.851714636874267 0.26851645520688622 0
866 -1.262947500423117 0.41986476236196663 0
867 -1.264242278752745 -0.42344899323468083 0
868 0.60294119871491381 -0.62297341736069267 0
869 0.60294119835069981 0.6229734168402925 0
870 -1.515430313364722 -0.46064932894751331 0
871 -1.5185419001816129 0.46041927099763619 0
872 1.305836860042934 0.13982575714158091 0
873 1.119649678332387 0.27012497095253402 0
874 -0.034087964084959163 0.94095956429935124 0
875 -0.034087957099087032 -0.94095956376701495 0
876 -0.52803047999998887 0.2276492765425128 0
$EndNodes
$Elements
1750
1 2 2 1 1 150 344 706
2 2 2 1 1 500 204 637
3 2 2 1 1 203 499 636
4 2 2 1 1 344 286 706
5 2 2 1 1 328 585 606
6 2 2 1 1 233 352 353
7 2 2 1 1 352 157 353
8 2 2 1 1 570 101 571
9 2 2 1 1 204 370 637
10 2 2 1 1 369 203 636
11 2 2 1 1 164 340 586
12 2 2 1 1 222 307 596
13 2 2 1 1 308 221 595
14 2 2 1 1 307 145 596
15 2 2 1 1 144 308 595
16 2 2 1 1 217 349 485
17 2 2 1 1 349 128 485
18 2 2 1 1 139 328 655
19 2 2 1 1 328 270 655
20 2 2 1 1 295 180 511
21 2 2 1 1 181 294 510
22 2 2 1 1 100 350 371
23 2 2 1 1 350 187 371
24 2 2 1 1 327 272 669
25 2 2 1 1 376 180 437
26 2 2 1 1 181 375 436
27 2 2 1 1 236 376 437
28 2 2 1 1 375 237 436
29 2 2 1 1 527 164 586
30 2 2 1 1 118 327 669
31 2 2 1 1 248 414 570
32 2 2 1 1 292 167 414
33 2 2 1 1 168 293 415
34 2 2 1 1 341 505 625
35 2 2 1 1 228 321 618
36 2 2 1 1 287 555 576
37 2 2 1 1 332 108 521
38 2 2 1 1 107 333 522
39 2 2 1 1 575 140 692
40 2 2 1 1 610 102 624
41 2 2 1 1 343 160 390
42 2 2 1 1 555 209 576
43 2 2 1 1 104 325 527
44 2 2 1 1 453 556 816
45 2 2 1 1 328 139 585
46 2 2 1 1 94 95 343
47 2 2 1 1 102 348 624
48 2 2 1 1 221 308 582
49 2 2 1 1 307 222 581
50 2 2 1 1 497 2 603
51 2 2 1 1 473 193 544
52 2 2 1 1 192 472 543
53 2 2 1 1 291 473 544
54 2 2 1 1 472 290 543
55 2 2 1 1 347 101 570
56 2 2 1 1 302 115 416
57 2 2 1 1 116 303 417
58 2 2 1 1 453 247 556
59 2 2 1 1 310 147 572
60 2 2 1 1 309 146 525
61 2 2 1 1 147 310 526
62 2 2 1 1 618 321 678
63 2 2 1 1 2 3 603
64 2 2 1 1 274 353 565
65 2 2 1 1 349 217 455
66 2 2 1 1 294 181 463
67 2 2 1 1 180 295 464
68 2 2 1 1 590 134 667
69 2 2 1 1 104 527 616
70 2 2 1 1 634 431 771
71 2 2 1 1 6 315 789
72 2 2 1 1 133 594 668
73 2 2 1 1 341 260 505
74 2 2 1 1 109 323 387
75 2 2 1 1 323 190 387
76 2 2 1 1 605 436 649
77 2 2 1 1 437 604 650
78 2 2 1 1 344 150 815
79 2 2 1 1 167 292 512
80 2 2 1 1 293 168 513
81 2 2 1 1 205 549 680
82 2 2 1 1 414 248 666
83 2 2 1 1 215 338 386
84 2 2 1 1 433 272 598
85 2 2 1 1 323 148 468
86 2 2 1 1 190 323 468
87 2 2 1 1 185 320 684
88 2 2 1 1 321 186 685
89 2 2 1 1 320 260 684
90 2 2 1 1 261 321 685
91 2 2 1 1 353 157 565
92 2 2 1 1 374 152 741
93 2 2 1 1 113 438 562
94 2 2 1 1 137 363 425
95 2 2 1 1 181 436 605
96 2 2 1 1 437 180 604
97 2 2 1 1 363 194 425
98 2 2 1 1 298 192 543
99 2 2 1 1 193 299 544
100 2 2 1 1 265 367 531
101 2 2 1 1 388 191 450
102 2 2 1 1 562 438 833
103 2 2 1 1 58 59 330
104 2 2 1 1 40 41 331
105 2 2 1 1 388 450 681
106 2 2 1 1 58 330 429
107 2 2 1 1 331 41 430
108 2 2 1 1 272 327 795
109 2 2 1 1 514 103 615
110 2 2 1 1 360 627 648
111 2 2 1 1 192 298 523
112 2 2 1 1 299 193 524
113 2 2 1 1 134 433 598
114 2 2 1 1 549 288 680
115 2 2 1 1 99 306 458
116 2 2 1 1 5 6 789
117 2 2 1 1 519 231 528
118 2 2 1 1 232 518 529
119 2 2 1 1 297 519 528
120 2 2 1 1 518 296 529
121 2 2 1 1 415 254 624
122 2 2 1 1 107 522 670
123 2 2 1 1 521 108 671
124 2 2 1 1 367 103 514
125 2 2 1 1 189 329 401
126 2 2 1 1 329 112 401
127 2 2 1 1 531 367 641
128 2 2 1 1 164 435 653
129 2 2 1 1 69 70 364
130 2 2 1 1 29 30 365
131 2 2 1 1 174 431 634
132 2 2 1 1 177 470 664
133 2 2 1 1 469 176 663
134 2 2 1 1 470 296 664
135 2 2 1 1 297 469 663
136 2 2 1 1 329 189 452
137 2 2 1 1 153 329 452
138 2 2 1 1 360 161 627
139 2 2 1 1 288 374 741
140 2 2 1 1 344 217 462
141 2 2 1 1 98 344 462
142 2 2 1 1 149 311 450
143 2 2 1 1 379 125 663
144 2 2 1 1 126 380 664
145 2 2 1 1 125 519 663
146 2 2 1 1 518 126 664
147 2 2 1 1 441 635 817
148 2 2 1 1 115 302 730
149 2 2 1 1 303 116 731
150 2 2 1 1 140 407 426
151 2 2 1 1 408 140 426
152 2 2 1 1 407 211 426
153 2 2 1 1 210 408 426
154 2 2 1 1 435 289 653
155 2 2 1 1 343 95 597
156 2 2 1 1 88 89 336
157 2 2 1 1 10 11 337
158 2 2 1 1 140 408 692
159 2 2 1 1 239 305 579
160 2 2 1 1 304 240 578
161 2 2 1 1 505 223 625
162 2 2 1 1 202 373 690
163 2 2 1 1 351 172 506
164 2 2 1 1 152 374 807
165 2 2 1 1 410 133 668
166 2 2 1 1 134 409 667
167 2 2 1 1 191 482 538
168 2 2 1 1 362 17 411
169 2 2 1 1 82 361 412
170 2 2 1 1 171 339 559
171 2 2 1 1 240 304 859
172 2 2 1 1 305 239 860
173 2 2 1 1 166 333 395
174 2 2 1 1 332 165 396
175 2 2 1 1 192 379 381
176 2 2 1 1 380 193 382
177 2 2 1 1 379 176 381
178 2 2 1 1 177 380 382
179 2 2 1 1 121 377 508
180 2 2 1 1 377 219 508
181 2 2 1 1 393 126 518
182 2 2 1 1 125 392 519
183 2 2 1 1 232 393 518
184 2 2 1 1 392 231 519
185 2 2 1 1 341 172 571
186 2 2 1 1 544 299 737
187 2 2 1 1 298 543 736
188 2 2 1 1 349 455 644
189 2 2 1 1 635 265 817
190 2 2 1 1 146 309 520
191 2 2 1 1 184 438 449
192 2 2 1 1 438 223 449
193 2 2 1 1 373 421 690
194 2 2 1 1 266 325 737
195 2 2 1 1 325 104 737
196 2 2 1 1 306 99 540
197 2 2 1 1 145 307 558
198 2 2 1 1 308 144 557
199 2 2 1 1 373 105 563
200 2 2 1 1 364 70 630
201 2 2 1 1 29 365 631
202 2 2 1 1 585 216 606
203 2 2 1 1 102 679 685
204 2 2 1 1 173 442 635
205 2 2 1 1 443 174 634
206 2 2 1 1 442 298 635
207 2 2 1 1 299 443 634
208 2 2 1 1 428 102 685
209 2 2 1 1 394 106 483
210 2 2 1 1 218 394 483
211 2 2 1 1 224 358 459
212 2 2 1 1 359 225 460
213 2 2 1 1 172 577 665
214 2 2 1 1 155 316 464
215 2 2 1 1 317 154 463
216 2 2 1 1 311 149 554
217 2 2 1 1 157 352 608
218 2 2 1 1 226 313 492
219 2 2 1 1 254 415 647
220 2 2 1 1 104 544 737
221 2 2 1 1 543 103 736
222 2 2 1 1 339 171 638
223 2 2 1 1 16 17 362
224 2 2 1 1 82 83 361
225 2 2 1 1 330 169 429
226 2 2 1 1 170 331 430
227 2 2 1 1 64 65 354
228 2 2 1 1 34 35 355
229 2 2 1 1 319 245 683
230 2 2 1 1 109 319 683
231 2 2 1 1 387 190 515
232 2 2 1 1 191 388 516
233 2 2 1 1 638 171 751
234 2 2 1 1 27 28 375
235 2 2 1 1 71 72 376
236 2 2 1 1 79 345 546
237 2 2 1 1 346 20 545
238 2 2 1 1 203 399 427
239 2 2 1 1 400 204 428
240 2 2 1 1 431 251 587
241 2 2 1 1 1 497 719
242 2 2 1 1 313 226 827
243 2 2 1 1 353 274 774
244 2 2 1 1 266 634 771
245 2 2 1 1 229 340 461
246 2 2 1 1 441 173 635
247 2 2 1 1 123 404 472
248 2 2 1 1 403 124 473
249 2 2 1 1 229 374 498
250 2 2 1 1 374 98 498
251 2 2 1 1 320 185 476
252 2 2 1 1 186 321 477
253 2 2 1 1 69 364 469
254 2 2 1 1 365 30 470
255 2 2 1 1 315 6 517
256 2 2 1 1 179 362 411
257 2 2 1 1 361 178 412
258 2 2 1 1 246 452 489
259 2 2 1 1 452 189 489
260 2 2 1 1 326 246 726
261 2 2 1 1 182 397 419
262 2 2 1 1 398 183 420
263 2 2 1 1 180 376 511
264 2 2 1 1 375 181 510
265 2 2 1 1 278 386 835
266 2 2 1 1 414 167 570
267 2 2 1 1 88 336 456
268 2 2 1 1 337 11 457
269 2 2 1 1 168 415 624
270 2 2 1 1 738 278 835
271 2 2 1 1 321 261 678
272 2 2 1 1 260 320 677
273 2 2 1 1 264 440 441
274 2 2 1 1 440 173 441
275 2 2 1 1 1 2 497
276 2 2 1 1 75 334 704
277 2 2 1 1 335 24 705
278 2 2 1 1 172 351 577
279 2 2 1 1 563 105 803
280 2 2 1 1 577 301 665
281 2 2 1 1 390 160 659
282 2 2 1 1 324 160 676
283 2 2 1 1 248 570 571
284 2 2 1 1 323 109 683
285 2 2 1 1 316 155 673
286 2 2 1 1 154 317 672
287 2 2 1 1 319 109 632
288 2 2 1 1 373 175 421
289 2 2 1 1 136 431 587
290 2 2 1 1 245 319 530
291 2 2 1 1 262 575 692
292 2 2 1 1 203 347 499
293 2 2 1 1 348 204 500
294 2 2 1 1 421 175 599
295 2 2 1 1 230 495 718
296 2 2 1 1 94 343 814
297 2 2 1 1 57 58 429
298 2 2 1 1 41 42 430
299 2 2 1 1 608 352 740
300 2 2 1 1 160 324 689
301 2 2 1 1 122 352 619
302 2 2 1 1 352 233 619
303 2 2 1 1 413 251 431
304 2 2 1 1 195 358 546
305 2 2 1 1 359 196 545
306 2 2 1 1 182 408 410
307 2 2 1 1 407 183 409
308 2 2 1 1 408 210 410
309 2 2 1 1 211 407 409
310 2 2 1 1 227 320 622
311 2 2 1 1 321 228 623
312 2 2 1 1 320 227 626
313 2 2 1 1 177 365 470
314 2 2 1 1 364 176 469
315 2 2 1 1 148 323 767
316 2 2 1 1 368 106 471
317 2 2 1 1 556 153 816
318 2 2 1 1 189 401 520
319 2 2 1 1 4 366 603
320 2 2 1 1 246 326 703
321 2 2 1 1 286 344 488
322 2 2 1 1 344 98 488
323 2 2 1 1 236 364 630
324 2 2 1 1 365 237 631
325 2 2 1 1 582 308 798
326 2 2 1 1 307 581 799
327 2 2 1 1 449 131 725
328 2 2 1 1 187 350 825
329 2 2 1 1 479 85 798
330 2 2 1 1 14 478 799
331 2 2 1 1 482 228 538
332 2 2 1 1 216 366 606
333 2 2 1 1 287 391 555
334 2 2 1 1 467 642 806
335 2 2 1 1 81 82 412
336 2 2 1 1 17 18 411
337 2 2 1 1 53 54 398
338 2 2 1 1 45 46 397
339 2 2 1 1 148 424 468
340 2 2 1 1 424 227 468
341 2 2 1 1 373 202 509
342 2 2 1 1 105 373 509
343 2 2 1 1 330 59 535
344 2 2 1 1 40 331 534
345 2 2 1 1 151 342 567
346 2 2 1 1 342 209 567
347 2 2 1 1 60 61 423
348 2 2 1 1 38 39 422
349 2 2 1 1 467 117 642
350 2 2 1 1 279 476 708
351 2 2 1 1 477 280 709
352 2 2 1 1 333 199 715
353 2 2 1 1 200 332 714
354 2 2 1 1 325 164 527
355 2 2 1 1 656 449 725
356 2 2 1 1 327 118 784
357 2 2 1 1 171 559 641
358 2 2 1 1 571 172 665
359 2 2 1 1 421 599 633
360 2 2 1 1 137 425 588
361 2 2 1 1 425 255 588
362 2 2 1 1 375 28 631
363 2 2 1 1 71 376 630
364 2 2 1 1 384 154 672
365 2 2 1 1 155 383 673
366 2 2 1 1 135 447 542
367 2 2 1 1 123 381 761
368 2 2 1 1 382 124 762
369 2 2 1 1 310 572 781
370 2 2 1 1 230 343 597
371 2 2 1 1 101 427 750
372 2 2 1 1 358 195 459
373 2 2 1 1 196 359 460
374 2 2 1 1 527 253 616
375 2 2 1 1 435 226 492
376 2 2 1 1 114 435 492
377 2 2 1 1 309 525 858
378 2 2 1 1 526 310 857
379 2 2 1 1 399 185 427
380 2 2 1 1 186 400 428
381 2 2 1 1 325 266 876
382 2 2 1 1 338 215 602
383 2 2 1 1 164 325 643
384 2 2 1 1 387 515 657
385 2 2 1 1 516 388 658
386 2 2 1 1 312 638 751
387 2 2 1 1 336 89 502
388 2 2 1 1 10 337 501
389 2 2 1 1 166 395 687
390 2 2 1 1 396 165 688
391 2 2 1 1 506 172 625
392 2 2 1 1 252 514 615
393 2 2 1 1 24 335 584
394 2 2 1 1 334 75 583
395 2 2 1 1 427 684 750
396 2 2 1 1 209 342 576
397 2 2 1 1 342 122 576
398 2 2 1 1 472 404 765
399 2 2 1 1 403 473 766
400 2 2 1 1 199 568 573
401 2 2 1 1 569 200 574
402 2 2 1 1 195 369 636
403 2 2 1 1 370 196 637
404 2 2 1 1 165 332 521
405 2 2 1 1 333 166 522
406 2 2 1 1 112 329 686
407 2 2 1 1 328 151 567
408 2 2 1 1 454 238 508
409 2 2 1 1 219 454 508
410 2 2 1 1 270 328 746
411 2 2 1 1 271 682 850
412 2 2 1 1 447 135 531
413 2 2 1 1 243 447 531
414 2 2 1 1 127 414 666
415 2 2 1 1 198 534 711
416 2 2 1 1 535 197 710
417 2 2 1 1 534 331 711
418 2 2 1 1 330 535 710
419 2 2 1 1 377 156 609
420 2 2 1 1 423 61 855
421 2 2 1 1 38 422 856
422 2 2 1 1 471 271 850
423 2 2 1 1 49 50 402
424 2 2 1 1 568 292 573
425 2 2 1 1 293 569 574
426 2 2 1 1 190 468 481
427 2 2 1 1 468 227 481
428 2 2 1 1 151 328 606
429 2 2 1 1 174 413 431
430 2 2 1 1 84 85 479
431 2 2 1 1 14 15 478
432 2 2 1 1 169 330 710
433 2 2 1 1 331 170 711
434 2 2 1 1 342 151 617
435 2 2 1 1 398 420 864
436 2 2 1 1 419 397 865
437 2 2 1 1 154 384 652
438 2 2 1 1 383 155 651
439 2 2 1 1 367 265 736
440 2 2 1 1 103 367 736
441 2 2 1 1 260 341 750
442 2 2 1 1 188 368 471
443 2 2 1 1 699 201 772
444 2 2 1 1 495 275 718
445 2 2 1 1 338 602 840
446 2 2 1 1 450 191 538
447 2 2 1 1 132 618 678
448 2 2 1 1 205 445 474
449 2 2 1 1 446 206 475
450 2 2 1 1 475 206 485
451 2 2 1 1 78 79 546
452 2 2 1 1 20 21 545
453 2 2 1 1 627 233 648
454 2 2 1 1 64 354 493
455 2 2 1 1 355 35 494
456 2 2 1 1 233 353 648
457 2 2 1 1 353 110 648
458 2 2 1 1 153 452 480
459 2 2 1 1 214 418 496
460 2 2 1 1 329 153 846
461 2 2 1 1 418 220 496
462 2 2 1 1 394 162 723
463 2 2 1 1 256 590 667
464 2 2 1 1 68 69 469
465 2 2 1 1 30 31 470
466 2 2 1 1 315 517 617
467 2 2 1 1 176 364 490
468 2 2 1 1 365 177 491
469 2 2 1 1 364 236 490
470 2 2 1 1 237 365 491
471 2 2 1 1 602 138 840
472 2 2 1 1 381 490 761
473 2 2 1 1 491 382 762
474 2 2 1 1 517 214 617
475 2 2 1 1 267 346 759
476 2 2 1 1 345 268 758
477 2 2 1 1 215 386 747
478 2 2 1 1 696 451 707
479 2 2 1 1 368 188 484
480 2 2 1 1 368 210 566
481 2 2 1 1 108 332 569
482 2 2 1 1 333 107 568
483 2 2 1 1 332 200 569
484 2 2 1 1 199 333 568
485 2 2 1 1 106 368 566
486 2 2 1 1 195 345 533
487 2 2 1 1 346 196 532
488 2 2 1 1 347 203 756
489 2 2 1 1 204 348 757
490 2 2 1 1 594 257 668
491 2 2 1 1 476 279 793
492 2 2 1 1 280 477 794
493 2 2 1 1 187 447 448
494 2 2 1 1 447 243 448
495 2 2 1 1 254 610 624
496 2 2 1 1 224 459 779
497 2 2 1 1 460 225 780
498 2 2 1 1 110 353 774
499 2 2 1 1 687 395 832
500 2 2 1 1 308 479 798
501 2 2 1 1 478 307 799
502 2 2 1 1 184 451 696
503 2 2 1 1 415 128 647
504 2 2 1 1 237 375 631
505 2 2 1 1 376 236 630
506 2 2 1 1 322 699 772
507 2 2 1 1 396 688 837
508 2 2 1 1 225 359 716
509 2 2 1 1 358 224 717
510 2 2 1 1 247 371 553
511 2 2 1 1 156 377 745
512 2 2 1 1 432 632 792
513 2 2 1 1 131 449 505
514 2 2 1 1 449 223 505
515 2 2 1 1 282 560 594
516 2 2 1 1 345 195 546
517 2 2 1 1 196 346 545
518 2 2 1 1 458 318 775
519 2 2 1 1 249 458 775
520 2 2 1 1 224 334 583
521 2 2 1 1 335 225 584
522 2 2 1 1 158 393 628
523 2 2 1 1 392 159 629
524 2 2 1 1 561 283 590
525 2 2 1 1 428 204 757
526 2 2 1 1 203 427 756
527 2 2 1 1 192 381 472
528 2 2 1 1 382 193 473
529 2 2 1 1 381 123 472
530 2 2 1 1 124 382 473
531 2 2 1 1 350 207 542
532 2 2 1 1 413 174 742
533 2 2 1 1 275 497 585
534 2 2 1 1 497 216 585
535 2 2 1 1 74 75 704
536 2 2 1 1 24 25 705
537 2 2 1 1 334 224 651
538 2 2 1 1 225 335 652
539 2 2 1 1 343 230 676
540 2 2 1 1 160 343 676
541 2 2 1 1 132 507 551
542 2 2 1 1 27 375 510
543 2 2 1 1 376 72 511
544 2 2 1 1 211 409 503
545 2 2 1 1 409 134 503
546 2 2 1 1 377 121 633
547 2 2 1 1 244 377 633
548 2 2 1 1 271 394 723
549 2 2 1 1 542 447 825
550 2 2 1 1 122 342 848
551 2 2 1 1 393 158 797
552 2 2 1 1 159 392 796
553 2 2 1 1 626 424 725
554 2 2 1 1 171 367 514
555 2 2 1 1 161 360 607
556 2 2 1 1 34 355 536
557 2 2 1 1 354 65 537
558 2 2 1 1 93 390 654
559 2 2 1 1 560 257 594
560 2 2 1 1 448 243 559
561 2 2 1 1 114 448 559
562 2 2 1 1 207 693 727
563 2 2 1 1 340 164 653
564 2 2 1 1 363 161 607
565 2 2 1 1 256 561 590
566 2 2 1 1 467 326 726
567 2 2 1 1 448 114 492
568 2 2 1 1 340 229 861
569 2 2 1 1 243 531 641
570 2 2 1 1 207 350 589
571 2 2 1 1 350 100 589
572 2 2 1 1 172 341 625
573 2 2 1 1 227 424 626
574 2 2 1 1 395 333 715
575 2 2 1 1 332 396 714
576 2 2 1 1 345 79 782
577 2 2 1 1 20 346 783
578 2 2 1 1 125 379 523
579 2 2 1 1 380 126 524
580 2 2 1 1 219 377 609
581 2 2 1 1 101 347 756
582 2 2 1 1 348 102 757
583 2 2 1 1 169 357 812
584 2 2 1 1 371 187 834
585 2 2 1 1 3 4 603
586 2 2 1 1 734 149 802
587 2 2 1 1 720 413 742
588 2 2 1 1 381 176 490
589 2 2 1 1 177 382 491
590 2 2 1 1 305 423 855
591 2 2 1 1 422 304 856
592 2 2 1 1 336 609 698
593 2 2 1 1 608 337 697
594 2 2 1 1 210 368 640
595 2 2 1 1 357 169 710
596 2 2 1 1 170 356 711
597 2 2 1 1 609 156 698
598 2 2 1 1 157 608 697
599 2 2 1 1 542 207 727
600 2 2 1 1 498 206 504
601 2 2 1 1 217 344 815
602 2 2 1 1 369 195 533
603 2 2 1 1 196 370 532
604 2 2 1 1 366 4 789
605 2 2 1 1 432 244 632
606 2 2 1 1 286 488 639
607 2 2 1 1 488 205 639
608 2 2 1 1 506 113 823
609 2 2 1 1 351 506 823
610 2 2 1 1 166 404 522
611 2 2 1 1 403 165 521
612 2 2 1 1 404 234 522
613 2 2 1 1 235 403 521
614 2 2 1 1 268 345 782
615 2 2 1 1 346 267 783
616 2 2 1 1 349 163 732
617 2 2 1 1 317 605 671
618 2 2 1 1 604 316 670
619 2 2 1 1 318 734 802
620 2 2 1 1 497 275 719
621 2 2 1 1 161 363 763
622 2 2 1 1 363 137 764
623 2 2 1 1 378 143 548
624 2 2 1 1 207 378 548
625 2 2 1 1 423 305 526
626 2 2 1 1 304 422 525
627 2 2 1 1 87 88 456
628 2 2 1 1 11 12 457
629 2 2 1 1 462 217 485
630 2 2 1 1 206 462 485
631 2 2 1 1 781 118 867
632 2 2 1 1 514 252 580
633 2 2 1 1 209 555 744
634 2 2 1 1 128 349 647
635 2 2 1 1 163 349 644
636 2 2 1 1 156 432 564
637 2 2 1 1 209 744 746
638 2 2 1 1 432 273 564
639 2 2 1 1 356 170 847
640 2 2 1 1 352 122 740
641 2 2 1 1 238 390 659
642 2 2 1 1 539 118 781
643 2 2 1 1 397 182 668
644 2 2 1 1 183 398 667
645 2 2 1 1 257 397 668
646 2 2 1 1 398 256 667
647 2 2 1 1 459 195 636
648 2 2 1 1 196 460 637
649 2 2 1 1 212 361 593
650 2 2 1 1 362 213 592
651 2 2 1 1 361 83 593
652 2 2 1 1 16 362 592
653 2 2 1 1 255 425 540
654 2 2 1 1 223 438 506
655 2 2 1 1 438 113 506
656 2 2 1 1 591 139 655
657 2 2 1 1 324 591 655
658 2 2 1 1 242 384 672
659 2 2 1 1 383 241 673
660 2 2 1 1 175 373 563
661 2 2 1 1 605 235 671
662 2 2 1 1 234 604 670
663 2 2 1 1 96 97 495
664 2 2 1 1 361 212 611
665 2 2 1 1 213 362 612
666 2 2 1 1 178 361 611
667 2 2 1 1 362 179 612
668 2 2 1 1 374 288 549
669 2 2 1 1 98 374 549
670 2 2 1 1 398 54 675
671 2 2 1 1 45 397 674
672 2 2 1 1 476 185 708
673 2 2 1 1 186 477 709
674 2 2 1 1 544 104 616
675 2 2 1 1 103 543 615
676 2 2 1 1 291 544 616
677 2 2 1 1 543 290 615
678 2 2 1 1 520 401 661
679 2 2 1 1 414 127 573
680 2 2 1 1 128 415 574
681 2 2 1 1 551 507 824
682 2 2 1 1 379 192 523
683 2 2 1 1 193 380 524
684 2 2 1 1 229 498 504
685 2 2 1 1 405 119 499
686 2 2 1 1 120 406 500
687 2 2 1 1 203 369 842
688 2 2 1 1 370 204 843
689 2 2 1 1 393 232 628
690 2 2 1 1 231 392 629
691 2 2 1 1 194 363 607
692 2 2 1 1 606 366 790
693 2 2 1 1 113 389 823
694 2 2 1 1 389 285 823
695 2 2 1 1 168 406 513
696 2 2 1 1 405 167 512
697 2 2 1 1 128 475 485
698 2 2 1 1 445 199 474
699 2 2 1 1 200 446 475
700 2 2 1 1 366 216 603
701 2 2 1 1 142 532 843
702 2 2 1 1 533 141 842
703 2 2 1 1 532 370 843
704 2 2 1 1 369 533 842
705 2 2 1 1 402 263 575
706 2 2 1 1 158 628 722
707 2 2 1 1 629 159 721
708 2 2 1 1 628 355 722
709 2 2 1 1 354 629 721
710 2 2 1 1 467 188 850
711 2 2 1 1 326 467 850
712 2 2 1 1 60 423 535
713 2 2 1 1 422 39 534
714 2 2 1 1 371 247 768
715 2 2 1 1 202 372 689
716 2 2 1 1 253 527 586
717 2 2 1 1 121 372 690
718 2 2 1 1 129 395 715
719 2 2 1 1 396 130 714
720 2 2 1 1 241 405 512
721 2 2 1 1 406 242 513
722 2 2 1 1 514 580 751
723 2 2 1 1 153 480 816
724 2 2 1 1 452 246 480
725 2 2 1 1 215 552 602
726 2 2 1 1 552 284 602
727 2 2 1 1 269 391 763
728 2 2 1 1 117 489 791
729 2 2 1 1 529 33 536
730 2 2 1 1 66 528 537
731 2 2 1 1 442 125 523
732 2 2 1 1 126 443 524
733 2 2 1 1 604 234 650
734 2 2 1 1 235 605 649
735 2 2 1 1 218 483 503
736 2 2 1 1 205 488 549
737 2 2 1 1 388 110 774
738 2 2 1 1 274 388 774
739 2 2 1 1 92 93 654
740 2 2 1 1 462 206 498
741 2 2 1 1 372 121 854
742 2 2 1 1 367 171 641
743 2 2 1 1 314 562 833
744 2 2 1 1 117 791 866
745 2 2 1 1 513 242 729
746 2 2 1 1 241 512 728
747 2 2 1 1 100 371 768
748 2 2 1 1 242 621 729
749 2 2 1 1 620 241 728
750 2 2 1 1 435 164 643
751 2 2 1 1 201 389 562
752 2 2 1 1 341 571 750
753 2 2 1 1 571 101 750
754 2 2 1 1 120 500 637
755 2 2 1 1 499 119 636
756 2 2 1 1 419 262 692
757 2 2 1 1 391 105 555
758 2 2 1 1 182 419 692
759 2 2 1 1 561 56 712
760 2 2 1 1 43 560 713
761 2 2 1 1 389 113 562
762 2 2 1 1 632 109 792
763 2 2 1 1 249 551 696
764 2 2 1 1 551 314 696
765 2 2 1 1 397 257 674
766 2 2 1 1 256 398 675
767 2 2 1 1 160 372 659
768 2 2 1 1 372 160 689
769 2 2 1 1 372 202 690
770 2 2 1 1 484 806 862
771 2 2 1 1 206 446 504
772 2 2 1 1 378 207 589
773 2 2 1 1 238 454 853
774 2 2 1 1 385 208 572
775 2 2 1 1 422 198 525
776 2 2 1 1 197 423 526
777 2 2 1 1 525 198 858
778 2 2 1 1 197 526 857
779 2 2 1 1 446 130 504
780 2 2 1 1 96 495 597
781 2 2 1 1 374 229 807
782 2 2 1 1 385 277 811
783 2 2 1 1 111 385 811
784 2 2 1 1 272 433 812
785 2 2 1 1 109 387 792
786 2 2 1 1 387 273 792
787 2 2 1 1 743 440 753
788 2 2 1 1 127 474 573
789 2 2 1 1 475 128 574
790 2 2 1 1 55 56 561
791 2 2 1 1 43 44 560
792 2 2 1 1 298 442 523
793 2 2 1 1 443 299 524
794 2 2 1 1 285 455 739
795 2 2 1 1 455 150 739
796 2 2 1 1 389 201 699
797 2 2 1 1 546 358 800
798 2 2 1 1 359 545 801
799 2 2 1 1 763 391 872
800 2 2 1 1 838 212 851
801 2 2 1 1 213 839 852
802 2 2 1 1 347 570 770
803 2 2 1 1 570 167 770
804 2 2 1 1 162 394 662
805 2 2 1 1 198 422 534
806 2 2 1 1 423 197 535
807 2 2 1 1 98 462 498
808 2 2 1 1 453 284 552
809 2 2 1 1 100 453 552
810 2 2 1 1 26 27 510
811 2 2 1 1 72 73 511
812 2 2 1 1 399 203 842
813 2 2 1 1 204 400 843
814 2 2 1 1 212 557 851
815 2 2 1 1 558 213 852
816 2 2 1 1 720 487 810
817 2 2 1 1 290 472 765
818 2 2 1 1 473 291 766
819 2 2 1 1 251 413 686
820 2 2 1 1 413 112 686
821 2 2 1 1 445 129 715
822 2 2 1 1 130 446 714
823 2 2 1 1 63 64 493
824 2 2 1 1 35 36 494
825 2 2 1 1 486 277 600
826 2 2 1 1 276 487 601
827 2 2 1 1 159 486 600
828 2 2 1 1 487 158 601
829 2 2 1 1 386 278 836
830 2 2 1 1 386 338 835
831 2 2 1 1 59 60 535
832 2 2 1 1 39 40 534
833 2 2 1 1 143 378 747
834 2 2 1 1 285 389 844
835 2 2 1 1 215 378 841
836 2 2 1 1 591 324 676
837 2 2 1 1 399 141 868
838 2 2 1 1 142 400 869
839 2 2 1 1 403 235 649
840 2 2 1 1 234 404 650
841 2 2 1 1 124 403 649
842 2 2 1 1 404 123 650
843 2 2 1 1 232 529 536
844 2 2 1 1 528 231 537
845 2 2 1 1 173 440 743
846 2 2 1 1 377 244 745
847 2 2 1 1 262 402 575
848 2 2 1 1 9 10 501
849 2 2 1 1 89 90 502
850 2 2 1 1 439 137 530
851 2 2 1 1 205 474 639
852 2 2 1 1 224 383 651
853 2 2 1 1 384 225 652
854 2 2 1 1 654 238 853
855 2 2 1 1 418 214 820
856 2 2 1 1 378 215 747
857 2 2 1 1 440 264 702
858 2 2 1 1 111 440 702
859 2 2 1 1 391 287 872
860 2 2 1 1 461 289 760
861 2 2 1 1 152 461 760
862 2 2 1 1 23 24 584
863 2 2 1 1 75 76 583
864 2 2 1 1 258 487 720
865 2 2 1 1 216 497 603
866 2 2 1 1 183 407 785
867 2 2 1 1 33 34 536
868 2 2 1 1 65 66 537
869 2 2 1 1 383 224 779
870 2 2 1 1 225 384 780
871 2 2 1 1 483 211 503
872 2 2 1 1 277 385 818
873 2 2 1 1 115 476 793
874 2 2 1 1 477 116 794
875 2 2 1 1 610 322 679
876 2 2 1 1 102 610 679
877 2 2 1 1 276 401 810
878 2 2 1 1 401 112 810
879 2 2 1 1 119 383 779
880 2 2 1 1 384 120 780
881 2 2 1 1 155 464 786
882 2 2 1 1 463 154 787
883 2 2 1 1 255 444 541
884 2 2 1 1 221 456 698
885 2 2 1 1 457 222 697
886 2 2 1 1 220 608 740
887 2 2 1 1 176 379 663
888 2 2 1 1 380 177 664
889 2 2 1 1 444 148 541
890 2 2 1 1 397 46 865
891 2 2 1 1 53 398 864
892 2 2 1 1 464 295 786
893 2 2 1 1 294 463 787
894 2 2 1 1 390 93 814
895 2 2 1 1 343 390 814
896 2 2 1 1 210 426 566
897 2 2 1 1 461 340 653
898 2 2 1 1 116 482 731
899 2 2 1 1 481 115 730
900 2 2 1 1 241 383 748
901 2 2 1 1 384 242 749
902 2 2 1 1 6 7 517
903 2 2 1 1 208 385 660
904 2 2 1 1 149 450 538
905 2 2 1 1 618 132 775
906 2 2 1 1 439 175 563
907 2 2 1 1 292 414 573
908 2 2 1 1 415 293 574
909 2 2 1 1 445 205 680
910 2 2 1 1 383 119 748
911 2 2 1 1 120 384 749
912 2 2 1 1 385 111 822
913 2 2 1 1 32 33 529
914 2 2 1 1 66 67 528
915 2 2 1 1 105 391 803
916 2 2 1 1 391 269 803
917 2 2 1 1 273 387 657
918 2 2 1 1 388 274 658
919 2 2 1 1 267 411 701
920 2 2 1 1 412 268 700
921 2 2 1 1 114 559 819
922 2 2 1 1 559 339 819
923 2 2 1 1 390 238 654
924 2 2 1 1 564 273 595
925 2 2 1 1 274 565 596
926 2 2 1 1 221 564 595
927 2 2 1 1 565 222 596
928 2 2 1 1 133 410 640
929 2 2 1 1 283 433 590
930 2 2 1 1 131 626 725
931 2 2 1 1 110 388 681
932 2 2 1 1 435 114 819
933 2 2 1 1 289 435 819
934 2 2 1 1 368 484 640
935 2 2 1 1 434 282 594
936 2 2 1 1 693 300 702
937 2 2 1 1 421 121 690
938 2 2 1 1 418 8 735
939 2 2 1 1 526 305 860
940 2 2 1 1 304 525 859
941 2 2 1 1 484 188 806
942 2 2 1 1 269 439 563
943 2 2 1 1 49 402 645
944 2 2 1 1 402 50 646
945 2 2 1 1 394 218 662
946 2 2 1 1 141 399 842
947 2 2 1 1 400 142 843
948 2 2 1 1 402 262 645
949 2 2 1 1 263 402 646
950 2 2 1 1 427 101 756
951 2 2 1 1 102 428 757
952 2 2 1 1 550 208 660
953 2 2 1 1 346 532 759
954 2 2 1 1 533 345 758
955 2 2 1 1 4 5 789
956 2 2 1 1 202 689 755
957 2 2 1 1 411 18 701
958 2 2 1 1 81 412 700
959 2 2 1 1 259 392 694
960 2 2 1 1 393 258 695
961 2 2 1 1 392 125 694
962 2 2 1 1 126 393 695
963 2 2 1 1 270 509 755
964 2 2 1 1 106 394 813
965 2 2 1 1 394 271 813
966 2 2 1 1 283 561 712
967 2 2 1 1 560 282 713
968 2 2 1 1 579 305 855
969 2 2 1 1 304 578 856
970 2 2 1 1 220 418 735
971 2 2 1 1 620 107 670
972 2 2 1 1 108 621 671
973 2 2 1 1 316 620 670
974 2 2 1 1 621 317 671
975 2 2 1 1 553 371 834
976 2 2 1 1 320 476 622
977 2 2 1 1 477 321 623
978 2 2 1 1 84 479 593
979 2 2 1 1 478 15 592
980 2 2 1 1 584 225 716
981 2 2 1 1 224 583 717
982 2 2 1 1 264 441 727
983 2 2 1 1 441 135 727
984 2 2 1 1 806 281 862
985 2 2 1 1 554 149 734
986 2 2 1 1 342 617 848
987 2 2 1 1 143 747 836
988 2 2 1 1 392 259 796
989 2 2 1 1 258 393 797
990 2 2 1 1 494 36 578
991 2 2 1 1 63 493 579
992 2 2 1 1 130 396 837
993 2 2 1 1 99 458 707
994 2 2 1 1 83 84 593
995 2 2 1 1 15 16 592
996 2 2 1 1 395 129 832
997 2 2 1 1 401 276 661
998 2 2 1 1 8 418 820
999 2 2 1 1 317 463 605
1000 2 2 1 1 464 316 604
1001 2 2 1 1 416 178 611
1002 2 2 1 1 179 417 612
1003 2 2 1 1 306 554 734
1004 2 2 1 1 318 618 775
1005 2 2 1 1 433 134 590
1006 2 2 1 1 184 449 656
1007 2 2 1 1 480 284 816
1008 2 2 1 1 240 494 578
1009 2 2 1 1 493 239 579
1010 2 2 1 1 483 106 849
1011 2 2 1 1 448 492 773
1012 2 2 1 1 185 399 708
1013 2 2 1 1 400 186 709
1014 2 2 1 1 133 434 594
1015 2 2 1 1 474 199 573
1016 2 2 1 1 200 475 574
1017 2 2 1 1 747 386 836
1018 2 2 1 1 499 347 770
1019 2 2 1 1 348 500 769
1020 2 2 1 1 455 285 644
1021 2 2 1 1 266 547 876
1022 2 2 1 1 451 184 656
1023 2 2 1 1 495 230 597
1024 2 2 1 1 165 403 766
1025 2 2 1 1 404 166 765
1026 2 2 1 1 161 763 872
1027 2 2 1 1 307 478 558
1028 2 2 1 1 479 308 557
1029 2 2 1 1 478 213 558
1030 2 2 1 1 212 479 557
1031 2 2 1 1 47 419 865
1032 2 2 1 1 420 52 864
1033 2 2 1 1 456 221 582
1034 2 2 1 1 222 457 581
1035 2 2 1 1 87 456 582
1036 2 2 1 1 457 12 581
1037 2 2 1 1 218 503 598
1038 2 2 1 1 471 106 813
1039 2 2 1 1 502 219 609
1040 2 2 1 1 220 501 608
1041 2 2 1 1 336 502 609
1042 2 2 1 1 501 337 608
1043 2 2 1 1 410 210 640
1044 2 2 1 1 474 127 639
1045 2 2 1 1 255 541 588
1046 2 2 1 1 119 405 748
1047 2 2 1 1 406 120 749
1048 2 2 1 1 488 98 549
1049 2 2 1 1 541 245 588
1050 2 2 1 1 167 405 770
1051 2 2 1 1 406 168 769
1052 2 2 1 1 405 241 748
1053 2 2 1 1 242 406 749
1054 2 2 1 1 268 412 809
1055 2 2 1 1 411 267 808
1056 2 2 1 1 642 281 806
1057 2 2 1 1 655 270 755
1058 2 2 1 1 121 421 633
1059 2 2 1 1 262 419 804
1060 2 2 1 1 420 263 805
1061 2 2 1 1 564 221 698
1062 2 2 1 1 222 565 697
1063 2 2 1 1 278 539 550
1064 2 2 1 1 409 183 667
1065 2 2 1 1 182 410 668
1066 2 2 1 1 214 517 820
1067 2 2 1 1 91 454 821
1068 2 2 1 1 450 311 681
1069 2 2 1 1 419 47 804
1070 2 2 1 1 52 420 805
1071 2 2 1 1 407 140 691
1072 2 2 1 1 408 182 692
1073 2 2 1 1 480 246 703
1074 2 2 1 1 624 348 769
1075 2 2 1 1 168 624 769
1076 2 2 1 1 430 42 713
1077 2 2 1 1 57 429 712
1078 2 2 1 1 170 434 847
1079 2 2 1 1 496 122 848
1080 2 2 1 1 689 324 755
1081 2 2 1 1 550 660 776
1082 2 2 1 1 679 261 685
1083 2 2 1 1 194 554 752
1084 2 2 1 1 554 306 752
1085 2 2 1 1 79 80 782
1086 2 2 1 1 19 20 783
1087 2 2 1 1 439 269 764
1088 2 2 1 1 137 439 764
1089 2 2 1 1 179 411 808
1090 2 2 1 1 412 178 809
1091 2 2 1 1 112 413 720
1092 2 2 1 1 434 281 847
1093 2 2 1 1 302 416 838
1094 2 2 1 1 417 303 839
1095 2 2 1 1 190 481 730
1096 2 2 1 1 482 191 731
1097 2 2 1 1 454 219 821
1098 2 2 1 1 522 234 670
1099 2 2 1 1 235 521 671
1100 2 2 1 1 106 566 849
1101 2 2 1 1 8 9 735
1102 2 2 1 1 433 169 812
1103 2 2 1 1 455 217 815
1104 2 2 1 1 226 435 643
1105 2 2 1 1 36 37 578
1106 2 2 1 1 62 63 579
1107 2 2 1 1 259 743 753
1108 2 2 1 1 416 115 793
1109 2 2 1 1 116 417 794
1110 2 2 1 1 426 211 849
1111 2 2 1 1 12 13 581
1112 2 2 1 1 86 87 582
1113 2 2 1 1 178 416 830
1114 2 2 1 1 417 179 831
1115 2 2 1 1 90 91 821
1116 2 2 1 1 559 243 641
1117 2 2 1 1 427 185 684
1118 2 2 1 1 186 428 685
1119 2 2 1 1 213 478 592
1120 2 2 1 1 479 212 593
1121 2 2 1 1 318 458 734
1122 2 2 1 1 263 420 785
1123 2 2 1 1 486 259 753
1124 2 2 1 1 420 183 785
1125 2 2 1 1 170 430 871
1126 2 2 1 1 429 169 870
1127 2 2 1 1 539 208 550
1128 2 2 1 1 430 713 871
1129 2 2 1 1 712 429 870
1130 2 2 1 1 463 181 605
1131 2 2 1 1 180 464 604
1132 2 2 1 1 424 148 828
1133 2 2 1 1 357 669 812
1134 2 2 1 1 434 170 871
1135 2 2 1 1 424 250 725
1136 2 2 1 1 484 133 640
1137 2 2 1 1 556 247 587
1138 2 2 1 1 251 556 587
1139 2 2 1 1 248 571 665
1140 2 2 1 1 436 124 649
1141 2 2 1 1 123 437 650
1142 2 2 1 1 252 687 832
1143 2 2 1 1 525 146 859
1144 2 2 1 1 147 526 860
1145 2 2 1 1 433 283 870
1146 2 2 1 1 169 433 870
1147 2 2 1 1 250 424 828
1148 2 2 1 1 313 553 834
1149 2 2 1 1 662 218 795
1150 2 2 1 1 713 282 871
1151 2 2 1 1 283 712 870
1152 2 2 1 1 425 194 752
1153 2 2 1 1 540 425 752
1154 2 2 1 1 282 434 871
1155 2 2 1 1 434 133 862
1156 2 2 1 1 281 434 862
1157 2 2 1 1 503 134 598
1158 2 2 1 1 95 96 597
1159 2 2 1 1 591 230 718
1160 2 2 1 1 458 249 707
1161 2 2 1 1 575 263 691
1162 2 2 1 1 530 137 588
1163 2 2 1 1 287 576 619
1164 2 2 1 1 245 530 588
1165 2 2 1 1 576 122 619
1166 2 2 1 1 7 8 820
1167 2 2 1 1 239 493 721
1168 2 2 1 1 494 240 722
1169 2 2 1 1 249 696 707
1170 2 2 1 1 264 693 702
1171 2 2 1 1 548 300 693
1172 2 2 1 1 688 253 837
1173 2 2 1 1 515 190 730
1174 2 2 1 1 191 516 731
1175 2 2 1 1 476 115 622
1176 2 2 1 1 116 477 623
1177 2 2 1 1 244 432 745
1178 2 2 1 1 187 448 773
1179 2 2 1 1 162 738 835
1180 2 2 1 1 436 237 762
1181 2 2 1 1 236 437 761
1182 2 2 1 1 115 481 622
1183 2 2 1 1 482 116 623
1184 2 2 1 1 223 506 625
1185 2 2 1 1 451 250 724
1186 2 2 1 1 99 451 724
1187 2 2 1 1 122 496 740
1188 2 2 1 1 328 567 746
1189 2 2 1 1 639 127 733
1190 2 2 1 1 515 144 657
1191 2 2 1 1 145 516 658
1192 2 2 1 1 129 445 680
1193 2 2 1 1 250 451 656
1194 2 2 1 1 431 136 771
1195 2 2 1 1 501 220 735
1196 2 2 1 1 289 461 653
1197 2 2 1 1 610 254 732
1198 2 2 1 1 287 619 627
1199 2 2 1 1 619 233 627
1200 2 2 1 1 717 77 800
1201 2 2 1 1 22 716 801
1202 2 2 1 1 125 442 694
1203 2 2 1 1 443 126 695
1204 2 2 1 1 119 459 636
1205 2 2 1 1 460 120 637
1206 2 2 1 1 432 156 745
1207 2 2 1 1 486 753 811
1208 2 2 1 1 226 547 827
1209 2 2 1 1 239 600 613
1210 2 2 1 1 601 240 614
1211 2 2 1 1 600 277 613
1212 2 2 1 1 276 601 614
1213 2 2 1 1 599 244 633
1214 2 2 1 1 219 502 821
1215 2 2 1 1 312 580 754
1216 2 2 1 1 580 129 754
1217 2 2 1 1 326 682 703
1218 2 2 1 1 682 138 703
1219 2 2 1 1 46 47 865
1220 2 2 1 1 52 53 864
1221 2 2 1 1 481 227 622
1222 2 2 1 1 228 482 623
1223 2 2 1 1 273 432 792
1224 2 2 1 1 465 141 758
1225 2 2 1 1 142 466 759
1226 2 2 1 1 268 465 758
1227 2 2 1 1 466 267 759
1228 2 2 1 1 199 445 715
1229 2 2 1 1 446 200 714
1230 2 2 1 1 586 340 861
1231 2 2 1 1 130 586 861
1232 2 2 1 1 229 461 807
1233 2 2 1 1 459 119 779
1234 2 2 1 1 120 460 780
1235 2 2 1 1 466 280 831
1236 2 2 1 1 279 465 830
1237 2 2 1 1 456 336 698
1238 2 2 1 1 337 457 697
1239 2 2 1 1 239 613 860
1240 2 2 1 1 614 240 859
1241 2 2 1 1 93 94 814
1242 2 2 1 1 112 720 810
1243 2 2 1 1 250 444 724
1244 2 2 1 1 291 688 766
1245 2 2 1 1 687 290 765
1246 2 2 1 1 297 528 777
1247 2 2 1 1 529 296 778
1248 2 2 1 1 528 67 777
1249 2 2 1 1 32 529 778
1250 2 2 1 1 121 508 854
1251 2 2 1 1 327 662 795
1252 2 2 1 1 568 107 728
1253 2 2 1 1 108 569 729
1254 2 2 1 1 292 568 728
1255 2 2 1 1 569 293 729
1256 2 2 1 1 617 214 848
1257 2 2 1 1 124 436 762
1258 2 2 1 1 437 123 761
1259 2 2 1 1 131 505 677
1260 2 2 1 1 505 260 677
1261 2 2 1 1 642 356 847
1262 2 2 1 1 247 553 587
1263 2 2 1 1 553 136 587
1264 2 2 1 1 442 173 743
1265 2 2 1 1 174 443 742
1266 2 2 1 1 354 537 629
1267 2 2 1 1 536 355 628
1268 2 2 1 1 537 231 629
1269 2 2 1 1 232 536 628
1270 2 2 1 1 465 178 830
1271 2 2 1 1 179 466 831
1272 2 2 1 1 438 184 833
1273 2 2 1 1 358 717 800
1274 2 2 1 1 716 359 801
1275 2 2 1 1 480 703 829
1276 2 2 1 1 440 111 753
1277 2 2 1 1 507 132 678
1278 2 2 1 1 261 507 678
1279 2 2 1 1 451 99 707
1280 2 2 1 1 469 297 777
1281 2 2 1 1 296 470 778
1282 2 2 1 1 68 469 777
1283 2 2 1 1 470 31 778
1284 2 2 1 1 444 250 828
1285 2 2 1 1 175 439 826
1286 2 2 1 1 70 71 630
1287 2 2 1 1 28 29 631
1288 2 2 1 1 489 189 791
1289 2 2 1 1 135 441 817
1290 2 2 1 1 662 327 738
1291 2 2 1 1 162 662 738
1292 2 2 1 1 444 255 788
1293 2 2 1 1 201 562 824
1294 2 2 1 1 148 444 828
1295 2 2 1 1 291 616 688
1296 2 2 1 1 615 290 687
1297 2 2 1 1 562 314 824
1298 2 2 1 1 548 143 776
1299 2 2 1 1 300 548 776
1300 2 2 1 1 708 399 868
1301 2 2 1 1 400 709 869
1302 2 2 1 1 296 518 664
1303 2 2 1 1 519 297 663
1304 2 2 1 1 201 507 772
1305 2 2 1 1 572 208 781
1306 2 2 1 1 136 553 827
1307 2 2 1 1 553 313 827
1308 2 2 1 1 149 538 802
1309 2 2 1 1 229 504 861
1310 2 2 1 1 447 187 825
1311 2 2 1 1 48 49 645
1312 2 2 1 1 50 51 646
1313 2 2 1 1 453 100 768
1314 2 2 1 1 407 691 785
1315 2 2 1 1 76 77 717
1316 2 2 1 1 22 23 716
1317 2 2 1 1 117 467 726
1318 2 2 1 1 47 48 804
1319 2 2 1 1 51 52 805
1320 2 2 1 1 620 316 673
1321 2 2 1 1 317 621 672
1322 2 2 1 1 610 732 863
1323 2 2 1 1 189 520 791
1324 2 2 1 1 146 520 661
1325 2 2 1 1 507 201 824
1326 2 2 1 1 258 720 742
1327 2 2 1 1 154 652 787
1328 2 2 1 1 651 155 786
1329 2 2 1 1 652 335 787
1330 2 2 1 1 334 651 786
1331 2 2 1 1 54 55 675
1332 2 2 1 1 44 45 674
1333 2 2 1 1 144 515 851
1334 2 2 1 1 516 145 852
1335 2 2 1 1 515 302 851
1336 2 2 1 1 303 516 852
1337 2 2 1 1 280 466 869
1338 2 2 1 1 465 279 868
1339 2 2 1 1 458 306 734
1340 2 2 1 1 247 453 768
1341 2 2 1 1 578 37 856
1342 2 2 1 1 62 579 855
1343 2 2 1 1 151 606 790
1344 2 2 1 1 581 13 799
1345 2 2 1 1 86 582 798
1346 2 2 1 1 284 453 816
1347 2 2 1 1 271 471 813
1348 2 2 1 1 600 239 721
1349 2 2 1 1 240 601 722
1350 2 2 1 1 299 634 737
1351 2 2 1 1 635 298 736
1352 2 2 1 1 80 81 700
1353 2 2 1 1 18 19 701
1354 2 2 1 1 141 465 868
1355 2 2 1 1 466 142 869
1356 2 2 1 1 153 556 846
1357 2 2 1 1 454 91 853
1358 2 2 1 1 150 455 815
1359 2 2 1 1 56 57 712
1360 2 2 1 1 42 43 713
1361 2 2 1 1 97 1 719
1362 2 2 1 1 489 117 726
1363 2 2 1 1 509 270 744
1364 2 2 1 1 105 509 744
1365 2 2 1 1 552 215 841
1366 2 2 1 1 490 236 761
1367 2 2 1 1 237 491 762
1368 2 2 1 1 178 465 809
1369 2 2 1 1 466 179 808
1370 2 2 1 1 465 268 809
1371 2 2 1 1 267 466 808
1372 2 2 1 1 461 152 807
1373 2 2 1 1 554 194 845
1374 2 2 1 1 311 554 845
1375 2 2 1 1 693 264 727
1376 2 2 1 1 599 175 826
1377 2 2 1 1 319 599 826
1378 2 2 1 1 188 467 806
1379 2 2 1 1 507 261 772
1380 2 2 1 1 595 273 657
1381 2 2 1 1 274 596 658
1382 2 2 1 1 144 595 657
1383 2 2 1 1 596 145 658
1384 2 2 1 1 495 97 719
1385 2 2 1 1 617 151 790
1386 2 2 1 1 315 617 790
1387 2 2 1 1 350 542 825
1388 2 2 1 1 73 74 875
1389 2 2 1 1 25 26 874
1390 2 2 1 1 642 117 866
1391 2 2 1 1 356 642 866
1392 2 2 1 1 541 148 767
1393 2 2 1 1 246 489 726
1394 2 2 1 1 140 575 691
1395 2 2 1 1 275 495 719
1396 2 2 1 1 493 354 721
1397 2 2 1 1 355 494 722
1398 2 2 1 1 845 360 873
1399 2 2 1 1 286 639 733
1400 2 2 1 1 405 499 770
1401 2 2 1 1 500 406 769
1402 2 2 1 1 188 471 850
1403 2 2 1 1 248 665 666
1404 2 2 1 1 665 301 666
1405 2 2 1 1 538 228 802
1406 2 2 1 1 647 349 732
1407 2 2 1 1 385 572 818
1408 2 2 1 1 301 577 706
1409 2 2 1 1 577 150 706
1410 2 2 1 1 67 68 777
1411 2 2 1 1 31 32 778
1412 2 2 1 1 9 501 735
1413 2 2 1 1 510 294 874
1414 2 2 1 1 295 511 875
1415 2 2 1 1 26 510 874
1416 2 2 1 1 511 73 875
1417 2 2 1 1 284 480 829
1418 2 2 1 1 360 648 873
1419 2 2 1 1 648 110 873
1420 2 2 1 1 85 86 798
1421 2 2 1 1 13 14 799
1422 2 2 1 1 77 78 800
1423 2 2 1 1 21 22 801
1424 2 2 1 1 259 486 796
1425 2 2 1 1 487 258 797
1426 2 2 1 1 496 220 740
1427 2 2 1 1 599 319 632
1428 2 2 1 1 244 599 632
1429 2 2 1 1 310 781 867
1430 2 2 1 1 269 563 803
1431 2 2 1 1 118 539 784
1432 2 2 1 1 539 278 784
1433 2 2 1 1 508 238 854
1434 2 2 1 1 91 92 853
1435 2 2 1 1 61 62 855
1436 2 2 1 1 37 38 856
1437 2 2 1 1 389 699 844
1438 2 2 1 1 699 163 844
1439 2 2 1 1 211 483 849
1440 2 2 1 1 512 292 728
1441 2 2 1 1 293 513 729
1442 2 2 1 1 250 656 725
1443 2 2 1 1 486 159 796
1444 2 2 1 1 158 487 797
1445 2 2 1 1 302 515 730
1446 2 2 1 1 516 303 731
1447 2 2 1 1 133 484 862
1448 2 2 1 1 492 313 773
1449 2 2 1 1 614 146 661
1450 2 2 1 1 276 614 661
1451 2 2 1 1 277 486 811
1452 2 2 1 1 487 276 810
1453 2 2 1 1 682 326 850
1454 2 2 1 1 132 551 775
1455 2 2 1 1 560 44 674
1456 2 2 1 1 55 561 675
1457 2 2 1 1 257 560 674
1458 2 2 1 1 561 256 675
1459 2 2 1 1 118 669 867
1460 2 2 1 1 669 357 867
1461 2 2 1 1 207 548 693
1462 2 2 1 1 100 552 841
1463 2 2 1 1 566 426 849
1464 2 2 1 1 171 514 751
1465 2 2 1 1 509 202 755
1466 2 2 1 1 502 90 821
1467 2 2 1 1 306 540 752
1468 2 2 1 1 644 285 844
1469 2 2 1 1 530 319 826
1470 2 2 1 1 439 530 826
1471 2 2 1 1 703 138 829
1472 2 2 1 1 681 311 873
1473 2 2 1 1 107 620 728
1474 2 2 1 1 621 108 729
1475 2 2 1 1 684 260 750
1476 2 2 1 1 278 550 836
1477 2 2 1 1 540 99 788
1478 2 2 1 1 214 496 848
1479 2 2 1 1 565 157 697
1480 2 2 1 1 156 564 698
1481 2 2 1 1 267 701 783
1482 2 2 1 1 700 268 782
1483 2 2 1 1 753 111 811
1484 2 2 1 1 135 542 727
1485 2 2 1 1 645 262 804
1486 2 2 1 1 263 646 805
1487 2 2 1 1 275 585 718
1488 2 2 1 1 585 139 718
1489 2 2 1 1 791 309 866
1490 2 2 1 1 586 130 837
1491 2 2 1 1 129 580 832
1492 2 2 1 1 520 309 791
1493 2 2 1 1 230 591 676
1494 2 2 1 1 688 165 766
1495 2 2 1 1 166 687 765
1496 2 2 1 1 228 618 802
1497 2 2 1 1 589 100 841
1498 2 2 1 1 577 351 739
1499 2 2 1 1 150 577 739
1500 2 2 1 1 504 130 861
1501 2 2 1 1 517 7 820
1502 2 2 1 1 607 360 845
1503 2 2 1 1 532 142 759
1504 2 2 1 1 141 533 758
1505 2 2 1 1 601 158 722
1506 2 2 1 1 159 600 721
1507 2 2 1 1 531 135 817
1508 2 2 1 1 545 21 801
1509 2 2 1 1 78 546 800
1510 2 2 1 1 556 251 846
1511 2 2 1 1 241 620 673
1512 2 2 1 1 621 242 672
1513 2 2 1 1 555 105 744
1514 2 2 1 1 638 312 741
1515 2 2 1 1 152 638 741
1516 2 2 1 1 23 584 716
1517 2 2 1 1 583 76 717
1518 2 2 1 1 245 541 767
1519 2 2 1 1 136 547 771
1520 2 2 1 1 320 626 677
1521 2 2 1 1 626 131 677
1522 2 2 1 1 739 351 823
1523 2 2 1 1 285 739 823
1524 2 2 1 1 666 301 733
1525 2 2 1 1 127 666 733
1526 2 2 1 1 208 539 781
1527 2 2 1 1 547 266 771
1528 2 2 1 1 311 845 873
1529 2 2 1 1 255 540 788
1530 2 2 1 1 139 591 718
1531 2 2 1 1 744 270 746
1532 2 2 1 1 265 531 817
1533 2 2 1 1 252 615 687
1534 2 2 1 1 616 253 688
1535 2 2 1 1 366 789 790
1536 2 2 1 1 789 315 790
1537 2 2 1 1 143 550 776
1538 2 2 1 1 567 209 746
1539 2 2 1 1 550 143 836
1540 2 2 1 1 551 249 775
1541 2 2 1 1 416 611 838
1542 2 2 1 1 612 417 839
1543 2 2 1 1 580 312 751
1544 2 2 1 1 723 162 835
1545 2 2 1 1 338 723 835
1546 2 2 1 1 547 136 827
1547 2 2 1 1 711 356 858
1548 2 2 1 1 357 710 857
1549 2 2 1 1 198 711 858
1550 2 2 1 1 710 197 857
1551 2 2 1 1 302 838 851
1552 2 2 1 1 839 303 852
1553 2 2 1 1 683 245 767
1554 2 2 1 1 323 683 767
1555 2 2 1 1 572 147 818
1556 2 2 1 1 261 679 772
1557 2 2 1 1 314 551 824
1558 2 2 1 1 218 598 795
1559 2 2 1 1 547 226 876
1560 2 2 1 1 269 763 764
1561 2 2 1 1 763 363 764
1562 2 2 1 1 301 706 733
1563 2 2 1 1 706 286 733
1564 2 2 1 1 339 638 760
1565 2 2 1 1 638 152 760
1566 2 2 1 1 557 144 851
1567 2 2 1 1 145 558 852
1568 2 2 1 1 339 760 819
1569 2 2 1 1 760 289 819
1570 2 2 1 1 265 635 736
1571 2 2 1 1 634 266 737
1572 2 2 1 1 238 659 854
1573 2 2 1 1 259 694 743
1574 2 2 1 1 695 258 742
1575 2 2 1 1 694 442 743
1576 2 2 1 1 443 695 742
1577 2 2 1 1 324 655 755
1578 2 2 1 1 147 613 818
1579 2 2 1 1 682 271 840
1580 2 2 1 1 254 647 732
1581 2 2 1 1 738 327 784
1582 2 2 1 1 110 681 873
1583 2 2 1 1 598 272 795
1584 2 2 1 1 580 252 832
1585 2 2 1 1 271 723 840
1586 2 2 1 1 253 586 837
1587 2 2 1 1 741 312 754
1588 2 2 1 1 288 741 754
1589 2 2 1 1 378 589 841
1590 2 2 1 1 138 602 829
1591 2 2 1 1 602 284 829
1592 2 2 1 1 99 724 788
1593 2 2 1 1 660 385 822
1594 2 2 1 1 251 686 846
1595 2 2 1 1 618 318 802
1596 2 2 1 1 699 322 863
1597 2 2 1 1 163 699 863
1598 2 2 1 1 295 704 786
1599 2 2 1 1 705 294 787
1600 2 2 1 1 704 334 786
1601 2 2 1 1 335 705 787
1602 2 2 1 1 613 277 818
1603 2 2 1 1 129 680 754
1604 2 2 1 1 680 288 754
1605 2 2 1 1 74 704 875
1606 2 2 1 1 705 25 874
1607 2 2 1 1 226 643 876
1608 2 2 1 1 643 325 876
1609 2 2 1 1 184 696 833
1610 2 2 1 1 696 314 833
1611 2 2 1 1 194 607 845
1612 2 2 1 1 611 212 838
1613 2 2 1 1 213 612 839
1614 2 2 1 1 660 300 776
1615 2 2 1 1 163 644 844
1616 2 2 1 1 679 322 772
1617 2 2 1 1 48 645 804
1618 2 2 1 1 646 51 805
1619 2 2 1 1 146 614 859
1620 2 2 1 1 613 147 860
1621 2 2 1 1 322 610 863
1622 2 2 1 1 287 627 872
1623 2 2 1 1 138 682 840
1624 2 2 1 1 80 700 782
1625 2 2 1 1 701 19 783
1626 2 2 1 1 691 263 785
1627 2 2 1 1 669 272 812
1628 2 2 1 1 300 660 822
1629 2 2 1 1 724 444 788
1630 2 2 1 1 627 161 872
1631 2 2 1 1 281 642 847
1632 2 2 1 1 416 793 830
1633 2 2 1 1 794 417 831
1634 2 2 1 1 278 738 784
1635 2 2 1 1 92 654 853
1636 2 2 1 1 702 300 822
1637 2 2 1 1 111 702 822
1638 2 2 1 1 659 372 854
1639 2 2 1 1 686 329 846
1640 2 2 1 1 723 338 840
1641 2 2 1 1 279 708 868
1642 2 2 1 1 709 280 869
1643 2 2 1 1 357 857 867
1644 2 2 1 1 858 356 866
1645 2 2 1 1 857 310 867
1646 2 2 1 1 309 858 866
1647 2 2 1 1 294 705 874
1648 2 2 1 1 704 295 875
1649 2 2 1 1 732 163 863
1650 2 2 1 1 187 773 834
1651 2 2 1 1 773 313 834
1652 2 2 1 1 793 279 830
1653 2 2 1 1 280 794 831
1654 1 2 2 2 1 2
1655 1 2 2 2 2 3
1656 1 2 2 2 3 4
1657 1 2 2 2 4 5
1658 1 2 2 2 5 6
1659 1 2 2 2 6 7
1660 1 2 2 2 7 8
1661 1 2 2 2 8 9
1662 1 2 2 2 9 10
1663 1 2 2 2 10 11
1664 1 2 2 2 11 12
1665 1 2 2 2 12 13
1666 1 2 2 2 13 14
1667 1 2 2 2 14 15
1668 1 2 2 2 15 16
1669 1 2 2 2 16 17
1670 1 2 2 2 17 18
1671 1 2 2 2 18 19
1672 1 2 2 2 19 20
1673 1 2 2 2 20 21
1674 1 2 2 2 21 22
1675 1 2 2 2 22 23
1676 1 2 2 2 23 24
1677 1 2 2 2 24 25
1678 1 2 2 2 25 26
1679 1 2 2 2 26 27
1680 1 2 2 2 27 28
1681 1 2 2 2 28 29
1682 1 2 2 2 29 30
1683 1 2 2 2 30 31
1684 1 2 2 2 31 32
1685 1 2 2 2 32 33
1686 1 2 2 2 33 34
1687 1 2 2 2 34 35
1688 1 2 2 2 35 36
1689 1 2 2 2 36 37
1690 1 2 2 2 37 38
1691 1 2 2 2 38 39
1692 1 2 2 2 39 40
1693 1 2 2 2 40 41
1694 1 2 2 2 41 42
1695 1 2 2 2 42 43
1696 1 2 2 2 43 44
1697 1 2 2 2 44 45
1698 1 2 2 2 45 46
1699 1 2 2 2 46 47
1700 1 2 2 2 47 48
1701 1 2 2 2 48 49
1702 1 2 2 2 49 50
1703 1 2 2 2 50 51
1704 1 2 2 2 51 52
1705 1 2 2 2 52 53
1706 1 2 2 2 53 54
1707 1 2 2 2 54 55
1708 1 2 2 2 55 56
1709 1 2 2 2 56 57
1710 1 2 2 2 57 58
1711 1 2 2 2 58 59
1712 1 2 2 2 59 60
1713 1 2 2 2 60 61
1714 1 2 2 2 61 62
1715 1 2 2 2 62 63
1716 1 2 2 2 63 64
1717 1 2 2 2 64 65
1718 1 2 2 2 65 66
1719 1 2 2 2 66 67
1720 1 2 2 2 67 68
1721 1 2 2 2 68 69
1722 1 2 2 2 69 70
1723 1 2 2 2 70 71
1724 1 2 2 2 71 72
1725 1 2 2 2 72 73
1726 1 2 2 2 73 74
1727 1 2 2 2 74 75
1728 1 2 2 2 75 76
1729 1 2 2 2 76 77
1730 1 2 2 2 77 78
1731 1 2 2 2 78 79
1732 1 2 2 2 79 80
1733 1 2 2 2 80 81
1734 1 2 2 2 81 82
1735 1 2 2 2 82 83
1736 1 2 2 2 83 84
1737 1 2 2 2 84 85
1738 1 2 2 2 85 86
1739 1 2 2 2 86 87
1740 1 2 2 2 87 88
1741 1 2 2 2 88 89
1742 1 2 2 2 89 90
1743 1 2 2 2 90 91
1744 1 2 2 2 91 92
1745 1 2 2 2 92 93
1746 1 2 2 2 93 94
1747 1 2 2 2 94 95
1748 1 2 2 2 95 96
1749 1 2 2 2 96 97
1750 1 2 2 2 97 1
$EndElements
