$MeshFormat
2.2 0 8
$EndMeshFormat
$PhysicalNames
2
2 1 "Omega"
1 2 "Gamma"
$EndPhysicalNames
$Nodes
1005
1 2 0 0
2 1.90211303259 0.30901699437500002 0
3 1.6180339887499999 0.58778525229199996 0
4 1.17557050458 0.80901699437499996 0
5 0.61803398875000004 0.95105651629499999 0
6 1.2246467991500001e-16 1 0
7 -0.61803398875000004 0.95105651629499999 0
8 -1.17557050458 0.80901699437499996 0
9 -1.6180339887499999 0.58778525229199996 0
10 -1.90211303259 0.30901699437500002 0
11 -2 5.6655388976500001e-16 0
12 -1.90211303259 -0.30901699437500002 0
13 -1.6180339887499999 -0.58778525229199996 0
14 -1.17557050458 -0.80901699437499996 0
15 -0.61803398875000004 -0.95105651629499999 0
16 1.40896279966e-15 -1 0
17 0.61803398875000004 -0.95105651629499999 0
18 1.17557050458 -0.80901699437499996 0
19 1.6180339887499999 -0.58778525229199996 0
20 1.90211303259 -0.30901699437500002 0
21 1.9755282581475619 0.077254248593555869 0
22 1.951056516295131 0.1545084971870859 0
23 1.926584774442565 0.23176274578104539 0
24 1.831093271630164 0.37870905885408918 0
25 1.7600735106704051 0.44840112333310278 0
26 1.6890537497101921 0.51809318781256186 0
27 1.5295412919162359 0.63203160070848197 0
28 1.4410485950824441 0.67627794912497796 0
29 1.352555898248446 0.7205242975415771 0
30 1.264063201414253 0.76477064595827327 0
31 1.0826477519419251 0.83269024802826763 0
32 0.9897249993038173 0.85636350168154329 0
33 0.89680224666567798 0.88003675533482728 0
34 0.80387949402708969 0.90371000898822551 0
35 0.7109567413886051 0.92738326264159743 0
36 0.52974341892914723 0.95804844253852584 0
37 0.44145284910772931 0.96504036878209642 0
38 0.35316227928646082 0.97203229502565514 0
39 0.26487170946506911 0.97902422126922373 0
40 0.17658113964335501 0.98601614751281774 0
41 0.088290569821712461 0.9930080737564061 0
42 -0.088290569821267664 0.99300807375644129 0
43 -0.17658113964242569 0.98601614751289135 0
44 -0.26487170946361338 0.97902422126933897 0
45 -0.35316227928504051 0.9720322950257676 0
46 -0.44145284910670368 0.96504036878217758 0
47 -0.52974341892833854 0.9580484425385899 0
48 -0.71095674138819576 0.92738326264170168 0
49 -0.80387949402629799 0.90371000898842724 0
50 -0.89680224666433728 0.88003675533516879 0
51 -0.98972499930291702 0.85636350168177267 0
52 -1.082647751941566 0.83269024802835889 0
53 -1.2640632014137849 0.76477064595850752 0
54 -1.352555898247499 0.72052429754205061 0
55 -1.4410485950814309 0.67627794912548445 0
56 -1.5295412919156941 0.63203160070875275 0
57 -1.689053749709869 0.51809318781287828 0
58 -1.760073510669617 0.44840112333387561 0
59 -1.831093271629765 0.37870905885448097 0
60 -1.926584774442452 0.2317627457814033 0
61 -1.9510565162948761 0.15450849718789039 0
62 -1.975528258147436 0.077254248593952912 0
63 -1.9755282581475631 -0.077254248593549305 0
64 -1.951056516295137 -0.15450849718706841 0
65 -1.9265847744425719 -0.2317627457810218 0
66 -1.831093271630164 -0.37870905885408918 0
67 -1.7600735106704051 -0.44840112333310278 0
68 -1.6890537497101921 -0.51809318781256186 0
69 -1.5295412919162359 -0.63203160070848197 0
70 -1.4410485950824441 -0.67627794912497796 0
71 -1.352555898248446 -0.7205242975415771 0
72 -1.264063201414253 -0.76477064595827327 0
73 -1.0826477519419251 -0.83269024802826763 0
74 -0.9897249993038173 -0.85636350168154329 0
75 -0.89680224666567798 -0.88003675533482728 0
76 -0.80387949402708969 -0.90371000898822551 0
77 -0.7109567413886051 -0.92738326264159743 0
78 -0.52974341892879917 -0.95804844253855337 0
79 -0.44145284910759042 -0.96504036878210742 0
80 -0.3531622792865125 -0.97203229502565103 0
81 -0.26487170946512217 -0.9790242212692194 0
82 -0.17658113964341249 -0.98601614751281308 0
83 -0.08829056982170802 -0.99300807375640632 0
84 0.088290569821247791 -0.99300807375644295 0
85 0.17658113964241429 -0.98601614751289224 0
86 0.26487170946358901 -0.97902422126934097 0
87 0.35316227928500049 -0.97203229502577082 0
88 0.44145284910664828 -0.96504036878218202 0
89 0.52974341892831101 -0.958048442538592 0
90 0.71095674138819576 -0.92738326264170168 0
91 0.80387949402629799 -0.90371000898842724 0
92 0.89680224666433728 -0.88003675533516879 0
93 0.98972499930291702 -0.85636350168177267 0
94 1.082647751941566 -0.83269024802835889 0
95 1.2640632014137849 -0.76477064595850752 0
96 1.352555898247499 -0.72052429754205061 0
97 1.4410485950814309 -0.67627794912548445 0
98 1.5295412919156941 -0.63203160070875275 0
99 1.689053749709869 -0.51809318781287828 0
100 1.760073510669617 -0.44840112333387561 0
101 1.831093271629765 -0.37870905885448097 0
102 1.9265847744424589 -0.23176274578137859 0
103 1.951056516294861 -0.15450849718793941 0
104 1.9755282581474309 -0.07725424859396729 0
105 2.4610237864116971e-14 2.221694912738596e-15 0
106 -0.87165098975023936 -0.00073844873268590874 0
107 0.87165098975027677 0.00073844873268488591 0
108 1.4172564551457281 4.0149339996605749e-14 0
109 -1.417256455145709 -3.8761671263113472e-14 0
110 -0.42582658199841028 -0.38952040180374858 0
111 0.42582658199844348 0.38952040180374548 0
112 -0.42661218286292513 0.38946408498499641 0
113 0.42661218286295871 -0.38946408498499829 0
114 1.6596460270191281e-14 -0.5419990738613526 0
115 2.7405128807664159e-14 0.5419990738613506 0
116 -0.86367765050214484 -0.43645248768398659 0
117 0.86367765050217271 0.43645248768398182 0
118 -0.86066227753948032 0.43555293505567039 0
119 0.86066227753950519 -0.43555293505567039 0
120 -0.3901153112243384 0.0070005051810168358 0
121 0.39011531122438742 -0.0070005051810193269 0
122 -1.2434575500140841 -0.3548755170793384 0
123 1.2434575500141141 0.35487551707933213 0
124 1.2562440073098691 -0.33462489722143629 0
125 -1.256244007309842 0.33462489722144317 0
126 -0.28574840163449489 -0.65882670386473929 0
127 0.28574840163450149 0.65882670386477749 0
128 0.28468203266147918 -0.66823845540077287 0
129 -0.2846820326615071 0.66823845540072424 0
130 -0.14074545814220191 -0.25918451468989628 0
131 0.14074545814225051 0.25918451468989889 0
132 -1.714108056488997 -0.00062900375237036213 0
133 1.714108056489007 0.00062900375237074312 0
134 0.59047587088927789 0.64641323430367326 0
135 -0.59047587088935161 -0.64641323430364739 0
136 -0.59047587088754128 0.64641323430413811 0
137 0.59047587088749165 -0.64641323430416164 0
138 0.15659267705136529 -0.2587569154898639 0
139 -0.1565926770513193 0.2587569154898674 0
140 -0.6102822506657275 -0.14825479410215961 0
141 0.61028225066577058 0.14825479410215889 0
142 -0.63014894706198832 0.18721754581593061 0
143 0.63014894706203306 -0.18721754581593819 0
144 1.5489045593584549 -0.25435693256981301 0
145 -1.548904559358437 0.25435693256981939 0
146 1.5504220896654941 0.25820839370790721 0
147 -1.550422089665475 -0.25820839370791032 0
148 1.147769077474569 0.057648766401896208 0
149 -1.1477690774745399 -0.057648766401894203 0
150 -1.0103594920585699 0.2174374629766308 0
151 1.0103594920586021 -0.2174374629766288 0
152 -1.0954519705252539 -0.55528243290513379 0
153 1.095451970525289 0.55528243290512724 0
154 1.0948490219091169 -0.56088669068822616 0
155 -1.094849021909083 0.5608866906882336 0
156 0.072822547021463194 -0.76188964634122636 0
157 -0.072822547021493558 0.76188964634121192 0
158 -0.95425582274415821 -0.22767641767004301 0
159 0.95425582274419074 0.22767641767003949 0
160 0.81661677974796776 -0.66328091197293182 0
161 -0.81661677974800539 0.66328091197293615 0
162 -0.81661677974953539 -0.66328091197291061 0
163 0.81661677974947844 0.66328091197290651 0
164 1.250677459662495 -0.1269342164537203 0
165 -1.2506774596624719 0.12693421645372349 0
166 0.2026458193369165 -0.46912559285142857 0
167 -0.2026458193368616 0.46912559285142419 0
168 -0.65045552087337288 -0.3925763388262925 0
169 0.65045552087340175 0.39257633882629323 0
170 -0.63617621366567312 0.39256506375388778 0
171 0.63617621366569765 -0.39256506375389871 0
172 -0.19128929613673029 -0.47917992340578669 0
173 0.1912892961367825 0.47917992340580062 0
174 -0.1942191223007313 -0.048113700121484831 0
175 0.19421912230078051 0.04811370012148708 0
176 1.450219391378079 0.43224670670572363 0
177 -1.450219391378055 -0.43224670670572912 0
178 1.446559182089052 -0.43546478878792572 0
179 -1.4465591820890289 0.43546478878793138 0
180 -0.35333107641096467 -0.20340970854687171 0
181 0.3533310764110168 0.20340970854686949 0
182 -0.34590152295715859 0.19568780817347819 0
183 0.34590152295720561 -0.19568780817347919 0
184 -0.1227945406233249 -0.80008947884838943 0
185 0.1227945406232709 0.80008947884840398 0
186 1.727300306233581 -0.199236928600797 0
187 -1.7273003062335719 0.19923692860080469 0
188 -1.727296148313328 -0.19924166442409519 0
189 1.7272961483133349 0.19924166442408839 0
190 1.368437836836782 0.19245974240668659 0
191 -1.36843783683676 -0.1924597424066912 0
192 -0.80733169753541822 0.23794304184524481 0
193 0.80733169753545853 -0.2379430418452485 0
194 -0.44485520401446088 -0.77343910298634033 0
195 0.44485520401440443 0.77343910298635798 0
196 -0.4404064730491416 0.76180093579155805 0
197 0.44040647304910752 -0.76180093579157859 0
198 -1.052187866175279 -0.37637400849347902 0
199 1.0521878661753099 0.37637400849347352 0
200 0.0094383397660983796 -0.36230930312150361 0
201 -0.0094383397660514016 0.36230930312150311 0
202 -1.3035994875509771 -0.52443615120051168 0
203 1.303599487551004 0.52443615120050213 0
204 1.2822858190289921 -0.51184982537623269 0
205 -1.2822858190289641 0.51184982537624268 0
206 0.0043024140102806228 -0.17743098718246711 0
207 -0.0043024140102325718 0.17743098718246969 0
208 -0.43220028088271312 -0.56474962586262623 0
209 0.4319959008904774 -0.56476334986148469 0
210 -0.43199590089050333 0.5647633498614657 0
211 0.4322002808826681 0.56474962586264454 0
212 -0.57475893072929019 0.0031412676216562348 0
213 0.57475893072933726 -0.003141267621660916 0
214 1.376459214369852 -0.22775092609002889 0
215 -1.376459214369832 0.22775092609003739 0
216 -0.77256930108980759 -0.26703873941892808 0
217 0.77256930108984545 0.26703873941892659 0
218 -0.22260607422471759 0.091055063215058601 0
219 0.22260607422476619 -0.091055063215057186 0
220 1.065142639324985 -0.3815407687246154 0
221 -1.0651426393249539 0.381540768724621 0
222 1.554823837024603 -0.079210612100875502 0
223 1.5532112533354649 0.076539122274331267 0
224 -1.554823837024587 0.079210612100877431 0
225 -1.5532112533354501 -0.076539122274336346 0
226 0.21926489853950981 -0.82142735878200335 0
227 -0.21926489853955319 0.82142735878198259 0
228 1.0137427535350521 -0.044822068170659098 0
229 -1.013742753535017 0.044822068170659077 0
230 -1.85544287966717 -0.00073555857592655025 0
231 1.855442879667174 0.00073555857592574414 0
232 -0.13618547649558091 -0.63223363415731493 0
233 0.13618547649557339 0.63223363415736034 0
234 0.97593518104600352 -0.69093032578547375 0
235 -0.97593518104601307 0.69093032578549018 0
236 0.97593518104689125 0.69093032578564018 0
237 -0.97593518104691146 -0.6909303257856596 0
238 -0.28966573687798469 -0.82257289821860646 0
239 0.28966573687793812 0.82257289821863766 0
240 0.13330473240325519 -0.61826326122436814 0
241 -0.1333047324032561 0.61826326122433117 0
242 -0.71465823613988633 -0.53864742501793428 0
243 0.71465823613979707 0.5386474250179687 0
244 -0.71851867587453233 0.53608176942373842 0
245 0.71851867587448726 -0.53608176942376362 0
246 -0.28117500073996737 -0.3388851162092793 0
247 0.28117500074001273 0.33888511620927592 0
248 1.1207270730277481 0.23958582040563711 0
249 -1.1207270730277179 -0.23958582040563889 0
250 -0.69638143092744531 0.76717128134462964 0
251 0.69638143092741789 -0.76717128134463408 0
252 -0.69638143092883487 -0.76717128134444101 0
253 0.6963814309287889 0.76717128134444679 0
254 0.28519170034550329 -0.34082971864482781 0
255 -0.28519170034545899 0.34082971864482969 0
256 -0.50515382054942659 -0.25384343953119393 0
257 0.50515382054947322 0.25384343953119348 0
258 -0.49498875036339168 0.24853639717967829 0
259 0.49498875036343648 -0.2485363971796832 0
260 -0.70781704294036207 -0.035305141897306179 0
261 0.70781704294040404 0.035305141897303542 0
262 1.297558785527442 0.046848949831890731 0
263 -1.2975587855274171 -0.046848949831889981 0
264 1.592791772653199 -0.39731528290356688 0
265 -1.5927917726531819 0.39731528290357659 0
266 1.5927917726531911 0.39731528290356283 0
267 -1.5927917726531731 -0.39731528290357271 0
268 -0.74151308095651081 0.094662687294189654 0
269 0.74151308095655244 -0.094662687294194484 0
270 0.55686879605176054 -0.49019213471174622 0
271 -0.55686879605177098 0.49019213471173001 0
272 -0.55686879605277895 -0.4901921347114252 0
273 0.55686879605275774 0.4901921347114413 0
274 -0.47482482587099761 -0.1079822664381983 0
275 0.47482482587104752 0.10798226643819669 0
276 -0.47362178717970438 0.1199797111110887 0
277 0.47362178717975129 -0.11997971111109321 0
278 1.152501388694646 -0.23644775192959941 0
279 -1.152501388694618 0.23644775192960271 0
280 -0.013295766178462809 -0.8657426566984594 0
281 0.013295766178402099 0.86574265669846062 0
282 -0.95809940353136525 -0.54726916925683566 0
283 0.95809940353139567 0.54726916925681679 0
284 -0.95550694284885285 0.54843289631743275 0
285 0.95550694284889071 -0.54843289631741265 0
286 0.57192589881909017 0.82277812798084993 0
287 -0.57192589881913891 -0.82277812798083816 0
288 -0.57192589881773037 0.82277812798123529 0
289 0.57192589881770295 -0.82277812798124361 0
290 1.002954860515048 0.091774657907011503 0
291 -1.002954860515016 -0.091774657907013668 0
292 -0.89621044573866626 0.13013627449822951 0
293 0.89621044573870323 -0.13013627449822951 0
294 -0.83833078904209501 -0.1371438464173351 0
295 0.83833078904212732 0.13714384641733271 0
296 -0.33266650652692709 -0.47561192264758212 0
297 0.33266650652695512 0.47561192264751762 0
298 -1.7093147532278909 -0.31923230457613999 0
299 1.7093147532279009 0.31923230457613072 0
300 1.7093140683069019 -0.3192325196737521 0
301 -1.709314068306891 0.31923251967376298 0
302 -0.33404742555797551 0.47561391610638948 0
303 0.3340474255580082 -0.4756139161063459 0
304 1.8407000333885679 -0.1134823875820309 0
305 -1.840700033388561 0.1134823875820338 0
306 -1.8406925113520101 -0.11348641921255589 0
307 1.8406925113520149 0.1134864192125543 0
308 -0.92651690930855757 0.31649203605351262 0
309 0.92651690930859376 -0.31649203605351028 0
310 -1.2043940979637711 0.64213130209337221 0
311 1.2043940979638039 -0.64213130209335945 0
312 -1.2043940979637131 -0.64213130209341651 0
313 1.204394097963748 0.64213130209340386 0
314 0.095887870180745738 -0.095533741129920691 0
315 -0.095887870180698026 0.095533741129923799 0
316 -0.0093190353118855797 -0.66708915474611552 0
317 0.0093190353118579265 0.66708915474611208 0
318 1.3752931697755519 0.31970171632110639 0
319 -1.3752931697755251 -0.31970171632111177 0
320 -1.1531513939120519 -0.46233590611826242 0
321 1.153151393912083 0.46233590611825442 0
322 0.34610811910974792 -0.84831082949922554 0
323 -0.34610811910979528 0.84831082949921977 0
324 1.468590832118992 -0.1241870525050538 0
325 -1.4685908321189729 0.12418705250505881 0
326 -0.1026260056711461 -0.39228987341138538 0
327 0.1026260056711929 0.39228987341139032 0
328 1.23717720013928 0.186269636269047 0
329 -1.2371772001392529 -0.18626963626904799 0
330 -0.13000303564589211 0.87174383932464816 0
331 0.13000303564585311 -0.87174383932466082 0
332 1.192193230481907 -0.47462386664439238 0
333 -1.192193230481879 0.47462386664440248 0
334 -0.207759500967475 -0.19387808212742999 0
335 0.20775950096752649 0.1938780821274326 0
336 0.14244052544036931 -0.3754325769085291 0
337 -0.14244052544031949 0.37543257690852549 0
338 -0.67358277076940187 0.26655622675733071 0
339 0.67358277076944506 -0.26655622675733759 0
340 -0.064399313556403465 -0.090230556081250843 0
341 0.064399313556452842 0.090230556081253938 0
342 1.406015250525035 0.55363676270814199 0
343 -1.406015250525009 -0.55363676270814799 0
344 1.386131684822512 -0.54942954957114887 0
345 -1.3861316848224881 0.54942954957115819 0
346 -0.31088007646208549 -0.088654383158407235 0
347 0.310880076462136 0.088654383158405375 0
348 1.1427525082359831 -0.048197426553602048 0
349 -1.142752508235952 0.04819742655360712 0
350 -0.93822376420836462 -0.33937184094940043 0
351 0.93822376420839926 0.33937184094939449 0
352 -0.77345751733166757 0.38233281522942858 0
353 0.7734575173316951 -0.3823328152294464 0
354 1.4608228759605431 0.12669588035013271 0
355 -1.4608228759605231 -0.12669588035013651 0
356 -1.667375120505096 -0.1047765526795898 0
357 1.6673751205051059 0.1047765526795863 0
358 1.6674128037043949 -0.1047686482700705 0
359 -1.6674128037043841 0.10476864827007611 0
360 0.82216330133992699 -0.78383062347675081 0
361 -0.82216330133994897 0.78383062347675392 0
362 -0.82216330134121529 -0.78383062347666166 0
363 0.82216330134117666 0.78383062347665788 0
364 1.106001213378863 -0.73175659317383712 0
365 -1.1060012133788579 0.73175659317384711 0
366 1.1060012133793009 0.73175659317384201 0
367 -1.1060012133793 -0.73175659317385222 0
368 1.2985269829943351 -0.047142807733445397 0
369 -1.2985269829943109 0.04714280773344752 0
370 1.3464604346399549 -0.36367337569646008 0
371 -1.3464604346399289 0.36367337569646679 0
372 -0.53977372169332205 -0.34486101772076411 0
373 0.53977372169336735 0.34486101772076722 0
374 -0.55636788472231036 0.33968531281960951 0
375 0.55636788472235177 -0.33968531281962039 0
376 -0.20036412178172211 -0.87148856046111189 0
377 0.20036412178167251 0.87148856046112366 0
378 -0.39442293773897408 -0.68188511281160746 0
379 0.39442293773894549 0.68188511281163688 0
380 0.393270582239163 -0.68267721079831079 0
381 -0.3932705822391821 0.68267721079828159 0
382 -0.77059244036148677 -0.37969647044558902 0
383 0.77059244036151053 0.37969647044559002 0
384 0.092152158631566491 -0.48006040409416362 0
385 -0.092152158631515144 0.48006040409415751 0
386 -0.32564380444576568 0.086887411427545205 0
387 0.32564380444581448 -0.086887411427546829 0
388 -0.17538027186867969 0.71653340383046182 0
389 0.17538027186864941 -0.7165334038304888 0
390 0.81893047331125257 -0.54842071768034328 0
391 -0.81893047331127311 0.54842071768033129 0
392 -0.82176848434294292 -0.54926563815337093 0
393 0.82176848434288352 0.54926563815337015 0
394 1.2609508837749841 -0.226247585534323 0
395 -1.2609508837749599 0.22624758553432789 0
396 -0.67017449170678478 -0.2775061952036883 0
397 0.67017449170682597 0.27750619520368691 0
398 0.2640047490789052 -0.56030142992440513 0
399 -0.26400474907883159 0.56030142992439302 0
400 1.842346964024874 -0.2430883952765103 0
401 -1.842346964024868 0.24308839527651921 0
402 1.8423478049461159 0.24308710793551599 0
403 -1.8423478049461151 -0.24308710793551341 0
404 -1.5350500635884541 -0.49043948056016451 0
405 1.535050063588475 0.49043948056015341 0
406 -1.5346465868368571 0.49006822613078149 0
407 1.5346465868368759 -0.49006822613077128 0
408 1.480774716637276 -0.31005716744421929 0
409 -1.4807747166372529 0.3100571674442234 0
410 -0.70298489236355299 -0.65332367473513397 0
411 0.70298489236345485 0.65332367473515518 0
412 -0.70298489236138062 0.65332367473554986 0
413 0.70298489236130901 -0.65332367473556829 0
414 -0.28105804337445489 -0.56214105698391315 0
415 0.28105804337450119 0.56214105698393568 0
416 -0.1065986373598041 -0.52798543826459599 0
417 0.10659863735985919 0.52798543826461886 0
418 -0.39295289058748478 -0.86961480060542928 0
419 0.3929528905874477 0.86961480060547436 0
420 1.3104756480146611 0.42696481500589029 0
421 -1.3104756480146329 -0.42696481500589789 0
422 1.092045508556484 -0.14258258823391029 0
423 -1.0920455085564531 0.1425825882339159 0
424 -0.65432938789360107 0.056508161015718088 0
425 0.65432938789364559 -0.056508161015724909 0
426 1.462595236941479 0.32557460638421892 0
427 -1.462595236941457 -0.32557460638422242 0
428 -0.24533911256900531 0.20928401048148981 0
429 0.24533911256905189 -0.20928401048148801 0
430 -0.23825890490318979 -0.74272597487429903 0
431 0.23825890490314791 0.74272597487433356 0
432 -0.037958903163522142 -0.26614281525702832 0
433 0.03795890316357009 0.26614281525702987 0
434 -0.75801315019363369 -0.16547437866606851 0
435 0.75801315019367199 0.16547437866606859 0
436 -0.26447979237624608 0.0013109310083772819 0
437 0.26447979237629382 -0.0013109310083784199 0
438 -0.97177525889676897 0.45232195574653777 0
439 0.97177525889679639 -0.4523219557465295 0
440 -0.4864682439864384 0.86148026455533067 0
441 0.48646824398640121 -0.86148026455534088 0
442 -0.36807805753231898 -0.29820103684361721 0
443 0.36807805753236789 0.29820103684360921 0
444 -0.36927309450462709 0.30653033075223529 0
445 0.36927309450467188 -0.30653033075223218 0
446 -0.97017239694325519 -0.458791912406178 0
447 0.97017239694328161 0.4587919124061775 0
448 -0.028413169687736561 -0.76607347511481305 0
449 0.02841316968768581 0.76607347511481505 0
450 0.93094315459789545 -0.78155080388150022 0
451 -0.930943154597903 0.78155080388150888 0
452 0.93094315459890364 0.78155080388147025 0
453 -0.93094315459891785 -0.78155080388148113 0
454 -0.12621784169212921 -0.17107478037315629 0
455 0.1262178416921797 0.17107478037315879 0
456 0.05750204605179024 -0.25959810710243908 0
457 -0.057502046051742889 0.25959810710244069 0
458 1.3273905747823069 -0.14410332752788979 0
459 -1.3273905747822849 0.14410332752789509 0
460 -0.50502342945976519 -0.68827657964102529 0
461 0.50502342945971324 0.68827657964104183 0
462 -0.5042232742493713 0.68672714118296219 0
463 0.50422327424933899 -0.68672714118298028 0
464 -1.7554748981980239 -0.075646703774089122 0
465 1.7554748981980319 0.075646703774086166 0
466 1.7554978011418401 -0.07562032894527633 0
467 -1.7554978011418301 0.075620328945281437 0
468 -0.34596685143601041 0.76269068465379997 0
469 0.34596685143597089 -0.76269068465381917 0
470 1.6415755952071629 -0.19318065979832219 0
471 -1.64157559520715 0.19318065979832891 0
472 1.641343409875816 0.19387517551032049 0
473 -1.641343409875804 -0.19387517551032629 0
474 1.4670726919147361 0.20850152617495959 0
475 -1.467072691914717 -0.2085015261749649 0
476 -0.034019226615125853 -0.45011942520669779 0
477 0.034019226615169922 0.45011942520669729 0
478 1.5857838881494239 -0.00056855268577818278 0
479 -1.585783888149408 0.00056855268577726413 0
480 -0.59100572617998592 0.26391167905689339 0
481 0.59100572618002933 -0.26391167905690083 0
482 -1.0363864023630429 -0.27813223309231683 0
483 1.036386402363074 0.27813223309231311 0
484 0.1165777597833737 0.90326137901866244 0
485 -0.116577759783416 -0.90326137901865833 0
486 -0.1254308885997435 -0.0035199958169130729 0
487 0.12543088859979179 0.0035199958169165849 0
488 1.2988732279783239 -0.42878429620595332 0
489 -1.2988732279782951 0.42878429620596392 0
490 0.092395898665093151 -0.1826412914120718 0
491 -0.09239589866504648 0.1826412914120748 0
492 1.512210791367024 -0.00013238853926449649 0
493 -1.512210791367004 0.00013238853926207561 0
494 -0.46109248091753352 -0.4855696076599596 0
495 0.46109248091750998 0.48556960765997148 0
496 -0.46123518038468803 0.48557862591181011 0
497 0.46123518038467748 -0.48557862591182321 0
498 1.0445591555344449 0.17784664041076051 0
499 -1.044559155534412 -0.17784664041076531 0
500 0.49613015225136331 0.86375635570397558 0
501 -0.49613015225129831 -0.86375635570397458 0
502 -1.1430064266034621 -0.33163656570183908 0
503 1.1430064266034921 0.33163656570183692 0
504 1.3256332421910519 -0.61422981072752769 0
505 -1.325633242191032 0.61422981072753502 0
506 1.327947491553344 0.62063531953358131 0
507 -1.327947491553322 -0.62063531953358841 0
508 0.77536687926854819 -0.46739231679043819 0
509 -0.77536687926854864 0.46739231679041898 0
510 1.2179075415639451 0.0071079848879241486 0
511 -1.2179075415639169 -0.0071079848879209576 0
512 -0.33824477545254589 -0.74322492322947331 0
513 0.33824477545252979 0.74322492322950773 0
514 -0.62759764682158881 -0.068596291578313845 0
515 0.62759764682163255 0.068596291578312429 0
516 1.4595524497997669 -0.22028530542581079 0
517 -1.4595524497997461 0.2202853054258174 0
518 1.2973213395601551 0.26469840736801808 0
519 -1.2973213395601271 -0.26469840736802358 0
520 1.1607610008000671 -0.32938798448651158 0
521 -1.1607610008000391 0.3293879844865174 0
522 -0.87274545101632439 -0.27071136037197863 0
523 0.87274545101635914 0.27071136037197591 0
524 -0.1917786687921032 -0.3487995039704479 0
525 0.19177866879214919 0.34879950397045018 0
526 -1.0691188510951271 -0.46401147287738209 0
527 1.069118851095161 0.46401147287737787 0
528 -0.57963317217140298 0.1019674843804397 0
529 0.57963317217144883 -0.10196748438044551 0
530 -0.47537751409353413 -0.015514232593625211 0
531 0.47537751409358248 0.01551423259362166 0
532 0.51966516156142872 -0.58484167153143074 0
533 -0.51966516156146447 0.58484167153142741 0
534 -0.51946365242068193 -0.5844654333684528 0
535 0.51946365242062686 0.58446543336845491 0
536 -0.36631255344095531 0.60677849599364864 0
537 0.36631255344094249 -0.60677849599367106 0
538 -1.194994954695678 -0.54952706027891463 0
539 1.1949949546957099 0.54952706027890363 0
540 0.90874407842930316 -0.61030002797250071 0
541 -0.90874407842930494 0.61030002797250504 0
542 0.90951986010335528 0.61025448417424888 0
543 -0.90951986010337083 -0.61025448417425443 0
544 -0.60859983593858191 -0.73778183058381519 0
545 0.60859983593853884 0.73778183058383728 0
546 -0.60771308685025904 0.73956501979111144 0
547 0.60771308685022696 -0.73956501979112843 0
548 -0.77475433369330104 -0.4705440753289617 0
549 0.77475433369317981 0.47054407532897469 0
550 -1.1832909640456419 0.56006635488674272 0
551 1.183290964045673 -0.56006635488673151 0
552 -0.36321693747503592 -0.60313533418143306 0
553 0.36321693747501982 0.6031353341814627 0
554 -0.20205716227675011 0.91741174490826494 0
555 0.2020571622767233 -0.91741174490827349 0
556 -0.90593360269302148 0.22223338006363741 0
557 0.90593360269305756 -0.2222333800636381 0
558 -0.90569688712469754 -0.086863682688113605 0
559 0.90569688712473184 0.086863682688112093 0
560 -1.0044716248171539 0.30203289042741183 0
561 1.004471624817185 -0.30203289042740672 0
562 0.64958451564056274 -0.84967749645246649 0
563 -0.64958451564058151 0.8496774964524586 0
564 0.64967500024223179 0.84949553836983205 0
565 -0.64967500024224312 -0.84949553836982761 0
566 -0.28588030561545968 -0.2492812218846793 0
567 0.28588030561551142 0.24928122188467899 0
568 -0.73013487321097015 0.19577706947609749 0
569 0.73013487321101256 -0.19577706947610321 0
570 -0.3845784470503813 -0.13225928642542481 0
571 0.38457844705043198 0.13225928642542231 0
572 1.059408289291601 -0.47646834768636093 0
573 -1.059408289291575 0.47646834768636598 0
574 -1.885952615031443 -0.062160254912241877 0
575 1.8859526150314461 0.062160254912241988 0
576 -1.8859575735834411 0.061914760956142609 0
577 1.8859575735834451 -0.061914760956144933 0
578 -0.63948010570595004 -0.47459070903257827 0
579 0.63948010570591685 0.47459070903260142 0
580 -0.63708936761291446 0.47414091144950482 0
581 0.63708936761290702 -0.47414091144952691 0
582 -0.085531797013547434 -0.69865287687723865 0
583 0.085531797013515931 0.69865287687725719 0
584 -0.62679248251421327 -0.56633257021756023 0
585 0.62679248251412389 0.56633257021759731 0
586 -0.62679248251216801 0.56633257021819039 0
587 0.62679248251210462 -0.5663325702182227 0
588 1.381308560936374 0.080884001234502345 0
589 -1.381308560936352 -0.080884001234503788 0
590 0.99106356199323642 -0.1265368938764192 0
591 -0.99106356199320156 0.12653689387642031 0
592 -0.43637490824699399 0.18460791141539129 0
593 0.43637490824704123 -0.18460791141539409 0
594 0.93257084883510688 -0.056827039730087937 0
595 -0.93257084883506991 0.056827039730086931 0
596 -0.52914766562045212 -0.17144402347203661 0
597 -0.58752931920405849 -0.24750861371812921 0
598 0.52914766562049842 0.17144402347203519 0
599 0.58752931920410223 0.24750861371812799 0
600 0.074789079416088408 -0.67719894142014692 0
601 -0.074789079416120161 0.67719894142013015 0
602 0.2127292038874935 -0.38491021873670728 0
603 -0.21272920388744379 0.3849102187367025 0
604 1.0630277346992161 0.014740651941170579 0
605 -1.0630277346991841 -0.014740651941170651 0
606 -0.77532425313636077 0.019237874566291661 0
607 0.77532425313639963 -0.019237874566291991 0
608 0.01577239515615712 -0.085740395005746484 0
609 -0.01577239515610835 0.085740395005750536 0
610 -0.188835724902673 -0.56081589871915372 0
611 0.18883572490273301 0.56081589871921111 0
612 1.6249767516578231 -0.30878082823163228 0
613 -1.6249767516578091 0.30878082823164121 0
614 1.632428955151213 0.30854599683054218 0
615 -1.6324289551511979 -0.30854599683054851 0
616 0.15711018950685859 -0.5357730405118768 0
617 -0.15711018950680769 0.53577304051185082 0
618 1.0226649799124179 0.76024682283697453 0
619 -1.022664979912427 -0.76024682283697864 0
620 1.022664979911676 -0.76024682283706668 0
621 -1.02266497991168 0.76024682283707112 0
622 -0.53406800009689237 0.17593084590803459 0
623 0.534068000096936 -0.1759308459080407 0
624 1.2008082955543411 0.25571092539536971 0
625 -1.200808295554312 -0.2557109253953721 0
626 -1.01996608879603 -0.60568640165667464 0
627 1.0199660887960429 0.60568640165666843 0
628 1.019683509660156 -0.60709647358118501 0
629 -1.019683509660124 0.60709647358119001 0
630 0.049792054538957943 -0.92016123204933387 0
631 -0.049792054538984172 0.92016123204932809 0
632 1.5461943756758429 0.1667299839758288 0
633 -1.546194375675827 -0.1667299839758343 0
634 1.148301981386439 0.1605722333555053 0
635 -1.1483019813864099 -0.16057223335550661 0
636 -0.2553158299168754 -0.42041976735099068 0
637 0.25531582991692597 0.42041976735097802 0
638 -1.678979955815604 -0.40641409605265882 0
639 1.678979955815612 0.40641409605265261 0
640 1.677915257470491 -0.40644767412410948 0
641 -1.6779152574704821 0.4064476741241167 0
642 -0.2023431873257161 -0.67249438644485293 0
643 0.20234318732568121 0.67249438644489812 0
644 -0.34403058848007639 -0.39583449647027052 0
645 0.34403058848011209 0.39583449647024749 0
646 -0.14219657336988439 0.79919881918139779 0
647 0.14219657336984759 -0.7991988191814221 0
648 -0.2863583929076387 -0.90864746709922584 0
649 0.2863583929075898 0.9086474670992436 0
650 0.74326575658392091 -0.83220066572651774 0
651 -0.74326575658393768 0.83220066572651374 0
652 0.74327345085373642 0.83218519310028083 0
653 -0.74327345085376351 -0.8321851931002755 0
654 -0.34841946566399967 0.39415787352399989 0
655 0.34841946566405091 -0.39415787352397158 0
656 1.54637953358209 -0.16766203556646861 0
657 -1.5463795335820729 0.1676620355664741 0
658 -0.84488793209123958 -0.34276013366705088 0
659 0.84488793209127344 0.34276013366704799 0
660 0.25907218580048053 -0.7493927458651013 0
661 -0.2590721858005226 0.74939274586507443 0
662 -0.43806304443578747 -0.21132082587850309 0
663 0.43806304443583571 0.2113208258785004 0
664 -0.79195356702633124 -0.073800018463496486 0
665 0.79195356702636899 0.07380001846349564 0
666 -0.055718901943021489 -0.60074026189745311 0
667 0.055718901943020593 0.60074026189748064 0
668 0.03891707731318915 -0.60813173932059217 0
669 -0.038917077313185069 0.60813173932058362 0
670 -0.29452894109914962 0.26853001363577161 0
671 0.29452894109919509 -0.26853001363576989 0
672 0.21155185116846709 -0.62333414973380674 0
673 -0.2115518511684569 0.62333414973381185 0
674 1.376732568041654 -0.45104998071275482 0
675 -1.37673256804163 0.45104998071276242 0
676 1.8730979665114871 -0.18035384783588371 0
677 -1.8730979665114851 0.18035384783588759 0
678 1.8730975607100571 0.18035401451992281 0
679 -1.873097560710056 -0.18035401451991739 0
680 0.84767431536953497 -0.32462290427068619 0
681 -0.84767431536950077 0.32462290427068308 0
682 -0.41582296075733238 0.071320058448081258 0
683 0.41582296075738112 -0.071320058448083923 0
684 -0.81964813201579922 0.15996048064415691 0
685 0.81964813201583842 -0.15996048064415899 0
686 -1.785946492493427 -0.00023145868534693351 0
687 1.785946492493435 0.00023145868534692191 0
688 -0.83948629173877443 0.076680984666711444 0
689 0.83948629173881273 -0.076680984666712998 0
690 1.1893026903698181 0.71999456665177619 0
691 -1.189302690369809 -0.71999456665178396 0
692 1.1893026903694399 -0.71999456665172901 0
693 -1.1893026903694259 0.719994566651736 0
694 -0.29430433362376313 0.90211332487953544 0
695 0.29430433362373321 -0.90211332487954521 0
696 -0.58140875756925936 -0.41173293442997561 0
697 0.58140875756928623 0.41173293442998671 0
698 -0.57686030144050127 0.42140993490672718 0
699 0.57686030144052081 -0.42140993490674661 0
700 -1.9283349269708689 8.4362101414870912e-14 0
701 1.9283349269708701 -8.4100918438357625e-14 0
702 -0.17694367881220821 0.15005045185936369 0
703 0.1769436788122557 -0.15005045185936181 0
704 1.387512532388296 -0.073699982585079787 0
705 -1.3875125323882751 0.073699982585083618 0
706 -1.7864072093160619 -0.31215749187704428 0
707 1.7864072093160659 0.31215749187705061 0
708 1.78640720931598 -0.3121574918772258 0
709 -1.786407209315968 0.31215749187723268 0
710 -0.7640070981489796 -0.60112941246983742 0
711 0.76400709814890355 0.60112941246985019 0
712 -0.76426270532379792 0.60027676845313893 0
713 0.76426270532375418 -0.6002767684531517 0
714 -1.231907032425378 -0.45052013517469253 0
715 1.231907032425408 0.45052013517468442 0
716 -0.52403803546284589 -0.76937300893795402 0
717 0.52403803546280314 0.76937300893797289 0
718 -0.52242604122429004 0.7679770387756093 0
719 0.52242604122425318 -0.76797703877563095 0
720 -0.40155103688408822 0.89658663280753736 0
721 0.40155103688404331 -0.89658663280753959 0
722 0.228460568435078 -0.29889957447018822 0
723 -0.22846056843503121 0.29889957447018822 0
724 1.2260654212589079 0.1004338106435714 0
725 -1.226065421258882 -0.10043381064357119 0
726 1.304429769309418 0.14472185681097491 0
727 -1.304429769309394 -0.1447218568109771 0
728 -0.45927146126157481 -0.31634135968062438 0
729 0.45927146126162027 0.3163413596806276 0
730 -0.76163176481833572 0.72664865295286707 0
731 0.7616317648183043 -0.72664865295286885 0
732 -0.76163216539601808 -0.72664784742240507 0
733 0.76163216539596723 0.72664784742240707 0
734 -1.622488271084078 0.4799419246526706 0
735 1.6224882710840871 -0.47994192465266511 0
736 -1.6227819061034841 -0.48000945992419158 0
737 1.622781906103494 0.4800094599241862 0
738 1.512018745962854 -0.39018757464199688 0
739 -1.512018745962834 0.39018757464199583 0
740 -0.45961618483026889 0.321162646833969 0
741 0.45961618483031269 -0.32116264683397672 0
742 -0.27741558686818107 0.42437019112927549 0
743 0.27741558686823881 -0.42437019112923707 0
744 0.039362636860039407 0.93611113412837599 0
745 -0.039362636860037312 -0.93611113412838731 0
746 -0.54801251206241419 -0.077316697126378092 0
747 0.54801251206245971 0.077316697126372264 0
748 -0.1920352644012048 0.023484268212473319 0
749 0.1920352644012534 -0.023484268212472091 0
750 -0.96494067907653724 -0.0154113888947063 0
751 0.96494067907657199 0.015411388894705339 0
752 1.266041061180996 -0.67654570498457245 0
753 -1.26604106118098 0.67654570498457955 0
754 1.2729442399877999 0.68196639392485203 0
755 -1.272944239987774 -0.68196639392485259 0
756 0.054370395565969697 -0.8342210850759747 0
757 -0.054370395566021017 0.8342210850759626 0
758 1.1793135682473359 -0.1467534984020484 0
759 -1.1793135682473079 0.14675349840205171 0
760 -1.0769146824418929 0.2626557038745379 0
761 1.0769146824419229 -0.26265570387453308 0
762 1.3845630093704551 0.47174999816104152 0
763 -1.3845630093704291 -0.47174999816104868 0
764 -1.122978370704782 -0.63893826017583477 0
765 1.1229783707047969 0.63893826017582922 0
766 -1.121179868075675 0.64144592079236729 0
767 1.121179868075695 -0.64144592079236074 0
768 1.4085121679407511 0.25731293489456292 0
769 -1.4085121679407291 -0.2573129348945708 0
770 1.5162412259440721 0.39759751859654002 0
771 -1.516241225944049 -0.39759751859654258 0
772 -1.4852342709809929 -0.56834430030181771 0
773 1.4852342709810149 0.56834430030180527 0
774 -1.4844798590374439 0.56817404134846927 0
775 1.484479859037465 -0.56817404134845895 0
776 0.066615463118520249 -0.41251123580066629 0
777 -0.066615463118471704 0.41251123580066301 0
778 0.57310169179836656 0.88902699617763659 0
779 -0.57310169179829595 -0.88902699617763892 0
780 -0.57022711221604105 0.89230723090756192 0
781 0.5702271122160234 -0.89230723090756947 0
782 0.89088049903221944 -0.70597853861783155 0
783 -0.8908804990322351 0.70597853861783888 0
784 0.89103565536796092 0.70596942985818467 0
785 -0.89103565536799023 -0.70596942985819355 0
786 -0.065842931650119063 -0.2023779678474503 0
787 0.065842931650168343 0.2023779678474508 0
788 1.693189299994827 -0.25331497595637209 0
789 -1.693189299994817 0.25331497595638069 0
790 -1.6946336181328241 -0.25340627215466538 0
791 1.694633618132833 0.25340627215465722 0
792 1.464658467990126 -0.053970546246207743 0
793 -1.4646584679901069 0.053970546246211309 0
794 -0.62225343128729205 -0.33537659772340173 0
795 0.62225343128733024 0.33537659772340322 0
796 -0.12577377550061311 -0.45589172668774919 0
797 0.12577377550066199 0.45589172668776129 0
798 -0.95696034390272433 -0.15023836669227009 0
799 0.95696034390275753 0.15023836669226739 0
800 1.329253825208343 -0.28943104577455392 0
801 -1.329253825208319 0.28943104577456119 0
802 -0.70901990224182532 -0.43235491751548599 0
803 0.70901990224180056 0.43235491751549748 0
804 1.078905842041767 0.10291877378443 0
805 -1.078905842041737 -0.1029187737844325 0
806 -0.093300108302842771 -0.32000923092118783 0
807 0.093300108302889997 0.32000923092119421 0
808 -0.22004961270023241 -0.27901204261542639 0
809 0.22004961270028181 0.27901204261542711 0
810 -0.3908346038418482 -0.4549016325534877 0
811 0.39083460384184893 0.45490163255346527 0
812 -1.608470663245948 -0.12651692992544761 0
813 1.6084706632459591 0.1265169299254402 0
814 -0.39200692151199901 0.45463157449066222 0
815 0.39200692151201061 -0.45463157449064762 0
816 -0.69917751459342825 -0.34742487652223092 0
817 0.69917751459345223 0.34742487652223281 0
818 0.89422562691842278 -0.51037237172530214 0
819 -0.89422562691842178 0.51037237172528527 0
820 0.89800919350823971 0.51400385102991231 0
821 -0.89800919350824548 -0.51400385102989954 0
822 -0.82907882497394381 -0.2082664808995941 0
823 0.82907882497397889 0.2082664808995919 0
824 -0.50632396520490286 0.053165257151626427 0
825 0.5063239652049506 -0.053165257151630251 0
826 -0.65231012616048289 -0.0078978187996986363 0
827 0.65231012616052764 0.007897818799694218 0
828 -0.49942384291250341 -0.40939985347532742 0
829 0.49942384291255032 0.4093998534753614 0
830 0.50626008838209702 -0.40791545669481849 0
831 -0.50626008838207737 0.40791545669480689 0
832 1.2076143201448919 -0.28167705479296762 0
833 -1.207614320144865 0.28167705479297278 0
834 -0.23859343785805509 -0.1049327745119442 0
835 0.23859343785810541 0.1049327745119462 0
836 -1.5518933092539029 0.33213955715825128 0
837 1.5518933092539211 -0.33213955715824572 0
838 -0.37977240420968411 -0.79988910485168163 0
839 0.37977240420964248 0.79988910485173281 0
840 1.608956277785268 -0.12593130371467509 0
841 -1.6089562777852531 0.12593130371468089 0
842 1.789388756980854 -0.16943216896381291 0
843 -1.7893887569808471 0.16943216896381921 0
844 -1.7893786637460991 -0.1694378531748067 0
845 1.789378663746104 0.169437853174804 0
846 0.29284464993688158 -0.80352306109496008 0
847 -0.29284464993692949 0.8035230610949694 0
848 -0.92000519473125564 0.38356449079344862 0
849 0.92000519473128384 -0.38356449079344312 0
850 -1.8247018793484151 -0.050452079032032061 0
851 1.8247018793484211 0.050452079032031021 0
852 1.824708956054893 -0.050010092044435912 0
853 -1.8247089560548859 0.050010092044436877 0
854 -1.0225617421782061 -0.52620827782044088 0
855 1.022561742178234 0.52620827782043356 0
856 -0.26772283985319029 0.14159710387795821 0
857 0.26772283985323803 -0.14159710387795749 0
858 0.4510224431342596 -0.629643806819979 0
859 -0.45102244313428119 0.6296438068199679 0
860 -0.45096308066104041 -0.62947326415519134 0
861 0.45096308066099688 0.62947326415520011 0
862 0.70676302148672221 -0.4334023769405313 0
863 -0.70676302148671466 0.43340237694050698 0
864 -0.39366621536547802 -0.060172677331493299 0
865 0.39366621536552732 0.060172677331490843 0
866 -0.75724677011370389 0.29266204776348242 0
867 0.75724677011374308 -0.29266204776348942 0
868 -0.69352224390291128 -0.1148995818439326 0
869 0.69352224390295225 0.1148995818439326 0
870 -0.071564416166354825 -0.83456066350816127 0
871 0.071564416166298495 0.83456066350816538 0
872 0.26738767236109923 -0.49179042399292011 0
873 -0.26738767236105032 0.49179042399290662 0
874 1.752748703315216 -0.37459921511285599 0
875 -1.752748703315208 0.37459921511286087 0
876 1.752857415893659 0.37459576682995671 0
877 -1.752857415893659 -0.37459576682995749 0
878 -0.06282360508645958 0.024884517066925269 0
879 0.062823605086508263 -0.024884517066922539 0
880 -0.25752850440498298 -0.49652322275199701 0
881 0.25752850440504432 0.49652322275199762 0
882 -0.36998296063807101 -0.53303753136004317 0
883 0.36998296063798591 0.53303753136005749 0
884 -0.16075965801973541 -0.72569125649934629 0
885 0.16075965801968689 0.72569125649937172 0
886 -0.63824821189685488 0.31988757159112302 0
887 0.63824821189689662 -0.31988757159112929 0
888 0.37010930131747227 -0.53346795311681428 0
889 -0.3701093013175295 0.53346795311679762 0
890 1.5515758936708151 0.3379178879502801 0
891 -1.551575893670794 -0.33791788795027738 0
892 1.4648577871137149 0.050021029104447973 0
893 -1.464857787113693 -0.050021029104449763 0
894 -0.1988128227133048 -0.7976252280025824 0
895 0.19881282271325171 0.79762522800260605 0
896 -0.12853878377815001 0.94030183536140821 0
897 0.1285387837781338 -0.94030183536141176 0
898 1.3831452925826739 0.3911767620436527 0
899 -1.3831452925826471 -0.39117676204365892 0
900 -1.020244604521281 0.52904127280395208 0
901 1.020244604521312 -0.52904127280394275 0
902 -0.29683714072740353 -0.1620692427757929 0
903 0.29683714072745471 0.16206924277579249 0
904 -0.42397363650270531 0.25133514293950387 0
905 0.42397363650275138 -0.25133514293950671 0
906 1.4052372343400461 -0.29524989643870148 0
907 -1.4052372343400199 0.29524989643871052 0
908 -0.32901576620124862 -0.02026822740257998 0
909 0.32901576620129708 0.02026822740257736 0
910 0.034422894923354187 -0.48304257547758239 0
911 -0.03442289492330726 0.48304257547757917 0
912 -0.41012928713834179 0.83019347796772458 0
913 0.41012928713828822 -0.83019347796773069 0
914 -0.68201512612715387 -0.20344705049215109 0
915 0.68201512612719473 0.2034470504921502 0
916 -1.654277460563734 -0.042458010810106098 0
917 1.654277460563744 0.042458010810103197 0
918 0.1014951378476671 -0.33328245137591239 0
919 -0.1014951378476191 0.33328245137591128 0
920 1.654396098456282 -0.042496895873185392 0
921 -1.6543960984562669 0.042496895873189278 0
922 -1.260297236900453 -0.5976236069344566 0
923 1.2602972369004799 0.59762360693444072 0
924 -1.2523290368820781 0.60096459961369442 0
925 1.252329036882103 -0.60096459961368476 0
926 -0.17429334862465601 -0.41754494584295421 0
927 0.17429334862470439 0.41754494584295898 0
928 -0.39531343295571908 0.134731057954351 0
929 0.39531343295576687 -0.13473105795435339 0
930 1.9000033127686939 -0.12299882436626811 0
931 -1.9000033127686879 0.1229988243662633 0
932 -1.898150568956531 -0.12493297271035041 0
933 1.898150568956535 0.12493297271034901 0
934 1.2285088606437391 -0.41339046398019103 0
935 -1.22850886064371 0.41339046398019952 0
936 1.3156581884433289 0.3537204087833708 0
937 -1.315658188443301 -0.35372040878337718 0
938 -0.69757908421066928 0.34790101700595982 0
939 0.69757908421069992 -0.34790101700597198 0
940 0.1445245281947882 -0.44058988546129302 0
941 -0.1445245281947363 0.44058988546128752 0
942 1.3536035856049931 0.0076761907078929754 0
943 -1.353603585604972 -0.0076761907078926016 0
944 -0.98337521643143555 0.37073926534205498 0
945 0.9833752164314612 -0.37073926534204432 0
946 -0.89292365314162359 -0.18213680351580239 0
947 0.89292365314165634 0.18213680351579889 0
948 -0.15017448792344479 -0.1046060742986953 0
949 0.15017448792349489 0.104606074298698 0
950 -1.452216397168588 -0.50328344968738159 0
951 1.4522163971686119 0.50328344968737315 0
952 -1.453535340306543 0.50117236928680009 0
953 1.4535353403065649 -0.50117236928679054 0
954 -1.1781261562863861 -0.39939437562883062 0
955 1.1781261562864169 0.39939437562882402 0
956 -1.138275639325651 0.42909375204337308 0
957 1.1382756393256801 -0.42909375204336531 0
958 -0.67805853406178163 0.12833350636942581 0
959 0.6780585340618277 -0.12833350636943369 0
960 1.762779778568669 -0.2461439434773568 0
961 -1.762779778568661 0.24614394347736579 0
962 -1.7627848240958981 -0.24613621943221661 0
963 1.762784824095899 0.24613621943220401 0
964 0.17345241956257329 -0.33078401063559493 0
965 -0.1734524195625245 0.33078401063559182 0
966 -1.119115350146602 -0.40413711956569071 0
967 1.119115350146634 0.40413711956568438 0
968 0.027469855359482358 -0.71806280440557535 0
969 -0.02746985535951749 0.71806280440556725 0
970 -0.22270543434068449 -0.61502883976914557 0
971 0.22270543434074619 0.61502883976920153 0
972 -0.1625807552437144 0.071320705719981267 0
973 0.16258075524376259 -0.071320705719979033 0
974 1.0724578741131181 -0.072694496890581606 0
975 -1.0724578741130839 0.07269449689058452 0
976 -1.0498601417495479 -0.68056247608159093 0
977 1.0498601417495419 0.68056247608158882 0
978 -1.0490929504144699 0.68629522723399328 0
979 1.049092950414479 -0.68629522723398473 0
980 1.1287232917378081 -0.49970042851959767 0
981 -1.128723291737779 0.49970042851960728 0
982 1.214633685677148 -0.070139761747181298 0
983 -1.2146336856771209 0.07013976174718492 0
984 0.21128862321070879 0.93182026134168072 0
985 -0.2112886232107605 -0.93182026134167162 0
986 -0.96182040721932571 0.26454894238029808 0
987 0.96182040721935946 -0.26454894238029603 0
988 1.7200375324952299 -0.1384811856649682 0
989 -1.7200375324952191 0.13848118566497469 0
990 -1.719985852444206 -0.13856322404124011 0
991 1.7199858524442151 0.1385632240412363 0
992 1.4010483290773901 -0.1604126409693209 0
993 -1.401048329077369 0.16041264096932739 0
994 -0.70955453492296816 0.02499390299416801 0
995 0.70955453492300857 -0.024993902994176909 0
996 -1.3972909823170461 -0.62245327092228209 0
997 1.3972909823170649 0.62245327092227154 0
998 -1.3972909823167621 0.6224532709222903 0
999 1.3972909823167801 -0.62245327092227987 0
1000 0.052566298785132727 -0.1371604672983012 0
1001 -0.052566298785085688 0.13716046729830489 0
1002 1.423282287426185 -0.3669756600647725 0
1003 -1.423282287426161 0.36697566006477389 0
1004 0.080116531801604329 -0.54424636632712087 0
1005 -0.080116531801569066 0.54424636632710555 0
$EndNodes
$Elements
2008
1 2 2 1 1 222 324 656
2 2 2 1 1 224 325 657
3 2 2 1 1 148 348 510
4 2 2 1 1 149 349 511
5 2 2 1 1 200 326 476
6 2 2 1 1 201 327 477
7 2 2 1 1 442 662 728
8 2 2 1 1 443 663 729
9 2 2 1 1 135 410 544
10 2 2 1 1 134 411 545
11 2 2 1 1 412 136 546
12 2 2 1 1 413 137 547
13 2 2 1 1 354 190 588
14 2 2 1 1 355 191 589
15 2 2 1 1 350 158 482
16 2 2 1 1 351 159 483
17 2 2 1 1 334 130 454
18 2 2 1 1 335 131 455
19 2 2 1 1 91 92 360
20 2 2 1 1 49 50 361
21 2 2 1 1 33 34 363
22 2 2 1 1 75 76 362
23 2 2 1 1 198 350 482
24 2 2 1 1 199 351 483
25 2 2 1 1 410 252 544
26 2 2 1 1 411 253 545
27 2 2 1 1 250 412 546
28 2 2 1 1 251 413 547
29 2 2 1 1 324 222 792
30 2 2 1 1 325 224 793
31 2 2 1 1 350 198 446
32 2 2 1 1 351 199 447
33 2 2 1 1 320 152 526
34 2 2 1 1 321 153 527
35 2 2 1 1 164 394 458
36 2 2 1 1 165 395 459
37 2 2 1 1 226 331 555
38 2 2 1 1 227 330 554
39 2 2 1 1 116 350 446
40 2 2 1 1 117 351 447
41 2 2 1 1 326 200 806
42 2 2 1 1 327 201 807
43 2 2 1 1 333 205 935
44 2 2 1 1 332 204 934
45 2 2 1 1 556 150 591
46 2 2 1 1 557 151 590
47 2 2 1 1 4 31 366
48 2 2 1 1 14 73 367
49 2 2 1 1 94 18 364
50 2 2 1 1 52 8 365
51 2 2 1 1 360 92 450
52 2 2 1 1 361 50 451
53 2 2 1 1 33 363 452
54 2 2 1 1 75 362 453
55 2 2 1 1 370 674 1002
56 2 2 1 1 371 675 1003
57 2 2 1 1 394 214 458
58 2 2 1 1 395 215 459
59 2 2 1 1 338 142 480
60 2 2 1 1 339 143 481
61 2 2 1 1 174 436 834
62 2 2 1 1 175 437 835
63 2 2 1 1 218 386 436
64 2 2 1 1 219 387 437
65 2 2 1 1 436 346 834
66 2 2 1 1 437 347 835
67 2 2 1 1 152 320 538
68 2 2 1 1 153 321 539
69 2 2 1 1 206 432 456
70 2 2 1 1 207 433 457
71 2 2 1 1 404 13 772
72 2 2 1 1 405 3 773
73 2 2 1 1 9 406 774
74 2 2 1 1 19 407 775
75 2 2 1 1 10 401 709
76 2 2 1 1 20 400 708
77 2 2 1 1 402 2 707
78 2 2 1 1 403 12 706
79 2 2 1 1 184 376 485
80 2 2 1 1 185 377 484
81 2 2 1 1 389 128 672
82 2 2 1 1 388 129 673
83 2 2 1 1 370 488 674
84 2 2 1 1 371 489 675
85 2 2 1 1 40 484 984
86 2 2 1 1 82 485 985
87 2 2 1 1 146 426 474
88 2 2 1 1 147 427 475
89 2 2 1 1 206 340 786
90 2 2 1 1 207 341 787
91 2 2 1 1 196 381 468
92 2 2 1 1 197 380 469
93 2 2 1 1 292 556 591
94 2 2 1 1 293 557 590
95 2 2 1 1 331 226 647
96 2 2 1 1 330 227 646
97 2 2 1 1 13 69 772
98 2 2 1 1 3 27 773
99 2 2 1 1 56 9 774
100 2 2 1 1 98 19 775
101 2 2 1 1 340 105 878
102 2 2 1 1 341 105 879
103 2 2 1 1 128 389 660
104 2 2 1 1 129 388 661
105 2 2 1 1 543 392 821
106 2 2 1 1 542 393 820
107 2 2 1 1 391 541 819
108 2 2 1 1 390 540 818
109 2 2 1 1 376 184 894
110 2 2 1 1 377 185 895
111 2 2 1 1 278 394 758
112 2 2 1 1 279 395 759
113 2 2 1 1 238 430 512
114 2 2 1 1 239 431 513
115 2 2 1 1 530 682 824
116 2 2 1 1 531 683 825
117 2 2 1 1 394 164 758
118 2 2 1 1 395 165 759
119 2 2 1 1 430 126 512
120 2 2 1 1 431 127 513
121 2 2 1 1 200 776 918
122 2 2 1 1 201 777 919
123 2 2 1 1 442 180 662
124 2 2 1 1 443 181 663
125 2 2 1 1 378 194 512
126 2 2 1 1 379 195 513
127 2 2 1 1 206 456 490
128 2 2 1 1 207 457 491
129 2 2 1 1 203 342 506
130 2 2 1 1 202 343 507
131 2 2 1 1 344 204 504
132 2 2 1 1 345 205 505
133 2 2 1 1 372 256 597
134 2 2 1 1 373 257 599
135 2 2 1 1 136 462 546
136 2 2 1 1 137 463 547
137 2 2 1 1 460 135 544
138 2 2 1 1 461 134 545
139 2 2 1 1 220 520 761
140 2 2 1 1 221 521 760
141 2 2 1 1 664 434 868
142 2 2 1 1 665 435 869
143 2 2 1 1 190 518 726
144 2 2 1 1 191 519 727
145 2 2 1 1 352 118 681
146 2 2 1 1 353 119 680
147 2 2 1 1 483 248 503
148 2 2 1 1 482 249 502
149 2 2 1 1 484 377 984
150 2 2 1 1 485 376 985
151 2 2 1 1 208 494 534
152 2 2 1 1 211 495 535
153 2 2 1 1 496 210 533
154 2 2 1 1 497 209 532
155 2 2 1 1 205 333 550
156 2 2 1 1 204 332 551
157 2 2 1 1 20 102 400
158 2 2 1 1 10 60 401
159 2 2 1 1 23 2 402
160 2 2 1 1 65 12 403
161 2 2 1 1 79 80 418
162 2 2 1 1 37 38 419
163 2 2 1 1 390 160 540
164 2 2 1 1 391 161 541
165 2 2 1 1 163 393 542
166 2 2 1 1 162 392 543
167 2 2 1 1 130 334 808
168 2 2 1 1 131 335 809
169 2 2 1 1 140 596 746
170 2 2 1 1 141 598 747
171 2 2 1 1 348 148 604
172 2 2 1 1 349 149 605
173 2 2 1 1 282 543 821
174 2 2 1 1 283 542 820
175 2 2 1 1 541 284 819
176 2 2 1 1 540 285 818
177 2 2 1 1 546 288 563
178 2 2 1 1 547 289 562
179 2 2 1 1 286 545 564
180 2 2 1 1 287 544 565
181 2 2 1 1 198 482 502
182 2 2 1 1 199 483 503
183 2 2 1 1 834 334 948
184 2 2 1 1 835 335 949
185 2 2 1 1 494 272 534
186 2 2 1 1 495 273 535
187 2 2 1 1 271 496 533
188 2 2 1 1 270 497 532
189 2 2 1 1 547 463 719
190 2 2 1 1 546 462 718
191 2 2 1 1 460 544 716
192 2 2 1 1 461 545 717
193 2 2 1 1 518 328 726
194 2 2 1 1 519 329 727
195 2 2 1 1 398 166 616
196 2 2 1 1 399 167 617
197 2 2 1 1 190 354 474
198 2 2 1 1 191 355 475
199 2 2 1 1 368 164 458
200 2 2 1 1 369 165 459
201 2 2 1 1 416 114 476
202 2 2 1 1 417 115 477
203 2 2 1 1 530 120 682
204 2 2 1 1 531 121 683
205 2 2 1 1 376 238 648
206 2 2 1 1 377 239 649
207 2 2 1 1 156 389 600
208 2 2 1 1 157 388 601
209 2 2 1 1 194 378 460
210 2 2 1 1 195 379 461
211 2 2 1 1 381 196 462
212 2 2 1 1 380 197 463
213 2 2 1 1 354 223 632
214 2 2 1 1 355 225 633
215 2 2 1 1 343 202 763
216 2 2 1 1 342 203 762
217 2 2 1 1 389 240 600
218 2 2 1 1 388 241 601
219 2 2 1 1 418 194 501
220 2 2 1 1 419 195 500
221 2 2 1 1 334 454 948
222 2 2 1 1 335 455 949
223 2 2 1 1 258 374 480
224 2 2 1 1 259 375 481
225 2 2 1 1 410 135 584
226 2 2 1 1 411 134 585
227 2 2 1 1 136 412 586
228 2 2 1 1 137 413 587
229 2 2 1 1 514 140 746
230 2 2 1 1 515 141 747
231 2 2 1 1 242 410 584
232 2 2 1 1 243 411 585
233 2 2 1 1 412 244 586
234 2 2 1 1 413 245 587
235 2 2 1 1 204 344 674
236 2 2 1 1 205 345 675
237 2 2 1 1 370 124 488
238 2 2 1 1 371 125 489
239 2 2 1 1 662 256 728
240 2 2 1 1 663 257 729
241 2 2 1 1 79 418 501
242 2 2 1 1 37 419 500
243 2 2 1 1 380 128 469
244 2 2 1 1 381 129 468
245 2 2 1 1 588 190 726
246 2 2 1 1 589 191 727
247 2 2 1 1 561 220 761
248 2 2 1 1 560 221 760
249 2 2 1 1 142 338 568
250 2 2 1 1 143 339 569
251 2 2 1 1 250 546 563
252 2 2 1 1 251 547 562
253 2 2 1 1 544 252 565
254 2 2 1 1 545 253 564
255 2 2 1 1 340 206 608
256 2 2 1 1 341 207 609
257 2 2 1 1 382 216 658
258 2 2 1 1 383 217 659
259 2 2 1 1 205 489 935
260 2 2 1 1 204 488 934
261 2 2 1 1 776 336 918
262 2 2 1 1 777 337 919
263 2 2 1 1 399 617 673
264 2 2 1 1 398 616 672
265 2 2 1 1 294 434 664
266 2 2 1 1 295 435 665
267 2 2 1 1 674 178 1002
268 2 2 1 1 675 179 1003
269 2 2 1 1 105 340 608
270 2 2 1 1 105 341 609
271 2 2 1 1 304 466 842
272 2 2 1 1 305 467 843
273 2 2 1 1 464 306 844
274 2 2 1 1 465 307 845
275 2 2 1 1 40 41 484
276 2 2 1 1 82 83 485
277 2 2 1 1 348 422 758
278 2 2 1 1 349 423 759
279 2 2 1 1 440 288 718
280 2 2 1 1 441 289 719
281 2 2 1 1 158 350 522
282 2 2 1 1 159 351 523
283 2 2 1 1 582 316 666
284 2 2 1 1 583 317 667
285 2 2 1 1 260 664 868
286 2 2 1 1 261 665 869
287 2 2 1 1 500 195 717
288 2 2 1 1 501 194 716
289 2 2 1 1 366 31 618
290 2 2 1 1 367 73 619
291 2 2 1 1 94 364 620
292 2 2 1 1 52 365 621
293 2 2 1 1 408 144 516
294 2 2 1 1 409 145 517
295 2 2 1 1 196 440 718
296 2 2 1 1 197 441 719
297 2 2 1 1 386 120 908
298 2 2 1 1 387 121 909
299 2 2 1 1 278 422 761
300 2 2 1 1 279 423 760
301 2 2 1 1 119 353 508
302 2 2 1 1 118 352 509
303 2 2 1 1 249 499 635
304 2 2 1 1 248 498 634
305 2 2 1 1 192 568 866
306 2 2 1 1 193 569 867
307 2 2 1 1 842 466 988
308 2 2 1 1 843 467 989
309 2 2 1 1 422 151 761
310 2 2 1 1 423 150 760
311 2 2 1 1 464 844 990
312 2 2 1 1 465 845 991
313 2 2 1 1 456 200 918
314 2 2 1 1 457 201 919
315 2 2 1 1 232 582 666
316 2 2 1 1 233 583 667
317 2 2 1 1 315 491 702
318 2 2 1 1 314 490 703
319 2 2 1 1 694 45 720
320 2 2 1 1 695 87 721
321 2 2 1 1 432 200 456
322 2 2 1 1 433 201 457
323 2 2 1 1 635 499 805
324 2 2 1 1 634 498 804
325 2 2 1 1 244 391 509
326 2 2 1 1 245 390 508
327 2 2 1 1 480 142 622
328 2 2 1 1 481 143 623
329 2 2 1 1 315 702 972
330 2 2 1 1 314 703 973
331 2 2 1 1 418 80 648
332 2 2 1 1 419 38 649
333 2 2 1 1 391 118 509
334 2 2 1 1 390 119 508
335 2 2 1 1 368 262 510
336 2 2 1 1 369 263 511
337 2 2 1 1 864 346 908
338 2 2 1 1 865 347 909
339 2 2 1 1 148 510 724
340 2 2 1 1 149 511 725
341 2 2 1 1 350 116 658
342 2 2 1 1 351 117 659
343 2 2 1 1 240 389 672
344 2 2 1 1 241 388 673
345 2 2 1 1 223 354 892
346 2 2 1 1 225 355 893
347 2 2 1 1 395 279 833
348 2 2 1 1 394 278 832
349 2 2 1 1 348 758 982
350 2 2 1 1 349 759 983
351 2 2 1 1 238 376 894
352 2 2 1 1 239 377 895
353 2 2 1 1 59 10 709
354 2 2 1 1 101 20 708
355 2 2 1 1 2 24 707
356 2 2 1 1 12 66 706
357 2 2 1 1 340 454 786
358 2 2 1 1 341 455 787
359 2 2 1 1 436 386 908
360 2 2 1 1 437 387 909
361 2 2 1 1 386 218 856
362 2 2 1 1 387 219 857
363 2 2 1 1 666 316 668
364 2 2 1 1 667 317 669
365 2 2 1 1 126 378 512
366 2 2 1 1 127 379 513
367 2 2 1 1 570 346 864
368 2 2 1 1 571 347 865
369 2 2 1 1 128 380 537
370 2 2 1 1 129 381 536
371 2 2 1 1 179 406 739
372 2 2 1 1 178 407 738
373 2 2 1 1 378 126 552
374 2 2 1 1 379 127 553
375 2 2 1 1 470 612 788
376 2 2 1 1 471 613 789
377 2 2 1 1 614 472 791
378 2 2 1 1 615 473 790
379 2 2 1 1 486 340 878
380 2 2 1 1 487 341 879
381 2 2 1 1 422 348 974
382 2 2 1 1 423 349 975
383 2 2 1 1 474 426 768
384 2 2 1 1 475 427 769
385 2 2 1 1 406 265 739
386 2 2 1 1 407 264 738
387 2 2 1 1 318 426 898
388 2 2 1 1 319 427 899
389 2 2 1 1 470 144 612
390 2 2 1 1 471 145 613
391 2 2 1 1 146 472 614
392 2 2 1 1 147 473 615
393 2 2 1 1 124 370 800
394 2 2 1 1 125 371 801
395 2 2 1 1 568 192 684
396 2 2 1 1 569 193 685
397 2 2 1 1 518 190 768
398 2 2 1 1 519 191 769
399 2 2 1 1 302 399 889
400 2 2 1 1 303 398 888
401 2 2 1 1 200 432 806
402 2 2 1 1 201 433 807
403 2 2 1 1 256 372 728
404 2 2 1 1 257 373 729
405 2 2 1 1 286 500 717
406 2 2 1 1 287 501 716
407 2 2 1 1 568 338 866
408 2 2 1 1 569 339 867
409 2 2 1 1 398 128 537
410 2 2 1 1 399 129 536
411 2 2 1 1 160 360 782
412 2 2 1 1 161 361 783
413 2 2 1 1 362 162 785
414 2 2 1 1 363 163 784
415 2 2 1 1 166 398 872
416 2 2 1 1 167 399 873
417 2 2 1 1 360 160 731
418 2 2 1 1 361 161 730
419 2 2 1 1 162 362 732
420 2 2 1 1 163 363 733
421 2 2 1 1 456 138 490
422 2 2 1 1 457 139 491
423 2 2 1 1 426 176 898
424 2 2 1 1 427 177 899
425 2 2 1 1 681 118 848
426 2 2 1 1 680 119 849
427 2 2 1 1 122 421 714
428 2 2 1 1 123 420 715
429 2 2 1 1 398 303 872
430 2 2 1 1 399 302 873
431 2 2 1 1 46 47 440
432 2 2 1 1 88 89 441
433 2 2 1 1 323 694 720
434 2 2 1 1 322 695 721
435 2 2 1 1 164 368 982
436 2 2 1 1 165 369 983
437 2 2 1 1 258 480 622
438 2 2 1 1 259 481 623
439 2 2 1 1 383 117 549
440 2 2 1 1 382 116 548
441 2 2 1 1 374 258 740
442 2 2 1 1 375 259 741
443 2 2 1 1 117 393 549
444 2 2 1 1 116 392 548
445 2 2 1 1 216 396 914
446 2 2 1 1 217 397 915
447 2 2 1 1 512 194 838
448 2 2 1 1 513 195 839
449 2 2 1 1 374 170 886
450 2 2 1 1 375 171 887
451 2 2 1 1 328 624 634
452 2 2 1 1 329 625 635
453 2 2 1 1 216 382 816
454 2 2 1 1 217 383 817
455 2 2 1 1 184 485 870
456 2 2 1 1 185 484 871
457 2 2 1 1 151 422 590
458 2 2 1 1 150 423 591
459 2 2 1 1 126 414 552
460 2 2 1 1 127 415 553
461 2 2 1 1 114 666 668
462 2 2 1 1 115 667 669
463 2 2 1 1 209 497 888
464 2 2 1 1 210 496 889
465 2 2 1 1 392 242 548
466 2 2 1 1 393 243 549
467 2 2 1 1 497 815 888
468 2 2 1 1 496 814 889
469 2 2 1 1 494 208 882
470 2 2 1 1 495 211 883
471 2 2 1 1 420 123 936
472 2 2 1 1 421 122 937
473 2 2 1 1 810 494 882
474 2 2 1 1 811 495 883
475 2 2 1 1 414 296 882
476 2 2 1 1 415 297 883
477 2 2 1 1 196 468 912
478 2 2 1 1 197 469 913
479 2 2 1 1 238 418 648
480 2 2 1 1 239 419 649
481 2 2 1 1 91 360 650
482 2 2 1 1 49 361 651
483 2 2 1 1 362 76 653
484 2 2 1 1 363 34 652
485 2 2 1 1 812 225 916
486 2 2 1 1 813 223 917
487 2 2 1 1 624 248 634
488 2 2 1 1 625 249 635
489 2 2 1 1 262 368 942
490 2 2 1 1 263 369 943
491 2 2 1 1 364 18 692
492 2 2 1 1 365 8 693
493 2 2 1 1 4 366 690
494 2 2 1 1 14 367 691
495 2 2 1 1 356 812 916
496 2 2 1 1 357 813 917
497 2 2 1 1 558 106 750
498 2 2 1 1 559 107 751
499 2 2 1 1 36 37 500
500 2 2 1 1 78 79 501
501 2 2 1 1 394 124 800
502 2 2 1 1 395 125 801
503 2 2 1 1 226 695 846
504 2 2 1 1 227 694 847
505 2 2 1 1 132 464 916
506 2 2 1 1 133 465 917
507 2 2 1 1 424 212 528
508 2 2 1 1 425 213 529
509 2 2 1 1 442 246 566
510 2 2 1 1 443 247 567
511 2 2 1 1 466 133 920
512 2 2 1 1 467 132 921
513 2 2 1 1 180 442 566
514 2 2 1 1 181 443 567
515 2 2 1 1 396 216 816
516 2 2 1 1 397 217 817
517 2 2 1 1 182 386 856
518 2 2 1 1 183 387 857
519 2 2 1 1 124 394 832
520 2 2 1 1 125 395 833
521 2 2 1 1 430 238 894
522 2 2 1 1 431 239 895
523 2 2 1 1 3 405 737
524 2 2 1 1 13 404 736
525 2 2 1 1 407 19 735
526 2 2 1 1 406 9 734
527 2 2 1 1 92 93 450
528 2 2 1 1 50 51 451
529 2 2 1 1 32 33 452
530 2 2 1 1 74 75 453
531 2 2 1 1 156 448 756
532 2 2 1 1 157 449 757
533 2 2 1 1 472 146 632
534 2 2 1 1 473 147 633
535 2 2 1 1 272 494 828
536 2 2 1 1 273 495 829
537 2 2 1 1 393 117 820
538 2 2 1 1 392 116 821
539 2 2 1 1 119 390 818
540 2 2 1 1 118 391 819
541 2 2 1 1 496 271 831
542 2 2 1 1 497 270 830
543 2 2 1 1 404 177 771
544 2 2 1 1 405 176 770
545 2 2 1 1 682 276 824
546 2 2 1 1 683 277 825
547 2 2 1 1 448 280 756
548 2 2 1 1 449 281 757
549 2 2 1 1 386 182 928
550 2 2 1 1 387 183 929
551 2 2 1 1 222 840 920
552 2 2 1 1 224 841 921
553 2 2 1 1 124 520 934
554 2 2 1 1 125 521 935
555 2 2 1 1 267 404 771
556 2 2 1 1 266 405 770
557 2 2 1 1 216 522 658
558 2 2 1 1 217 523 659
559 2 2 1 1 473 633 812
560 2 2 1 1 472 632 813
561 2 2 1 1 170 374 698
562 2 2 1 1 171 375 699
563 2 2 1 1 130 432 786
564 2 2 1 1 131 433 787
565 2 2 1 1 144 408 837
566 2 2 1 1 145 409 836
567 2 2 1 1 464 356 916
568 2 2 1 1 465 357 917
569 2 2 1 1 296 414 880
570 2 2 1 1 297 415 881
571 2 2 1 1 202 421 763
572 2 2 1 1 203 420 762
573 2 2 1 1 358 466 920
574 2 2 1 1 359 467 921
575 2 2 1 1 251 650 731
576 2 2 1 1 250 651 730
577 2 2 1 1 653 252 732
578 2 2 1 1 652 253 733
579 2 2 1 1 416 172 610
580 2 2 1 1 417 173 611
581 2 2 1 1 934 520 957
582 2 2 1 1 935 521 956
583 2 2 1 1 650 360 731
584 2 2 1 1 651 361 730
585 2 2 1 1 362 653 732
586 2 2 1 1 363 652 733
587 2 2 1 1 536 381 859
588 2 2 1 1 537 380 858
589 2 2 1 1 318 518 768
590 2 2 1 1 319 519 769
591 2 2 1 1 483 159 498
592 2 2 1 1 482 158 499
593 2 2 1 1 610 172 880
594 2 2 1 1 611 173 881
595 2 2 1 1 478 223 492
596 2 2 1 1 479 225 493
597 2 2 1 1 222 478 492
598 2 2 1 1 224 479 493
599 2 2 1 1 372 597 794
600 2 2 1 1 373 599 795
601 2 2 1 1 227 388 646
602 2 2 1 1 226 389 647
603 2 2 1 1 474 354 632
604 2 2 1 1 475 355 633
605 2 2 1 1 210 536 859
606 2 2 1 1 209 537 858
607 2 2 1 1 434 216 914
608 2 2 1 1 435 217 915
609 2 2 1 1 696 272 828
610 2 2 1 1 697 273 829
611 2 2 1 1 271 698 831
612 2 2 1 1 270 699 830
613 2 2 1 1 388 157 646
614 2 2 1 1 389 156 647
615 2 2 1 1 214 394 800
616 2 2 1 1 215 395 801
617 2 2 1 1 388 227 661
618 2 2 1 1 389 226 660
619 2 2 1 1 177 404 950
620 2 2 1 1 176 405 951
621 2 2 1 1 406 179 952
622 2 2 1 1 407 178 953
623 2 2 1 1 414 610 880
624 2 2 1 1 415 611 881
625 2 2 1 1 463 137 532
626 2 2 1 1 462 136 533
627 2 2 1 1 135 460 534
628 2 2 1 1 134 461 535
629 2 2 1 1 248 483 498
630 2 2 1 1 249 482 499
631 2 2 1 1 274 596 662
632 2 2 1 1 275 598 663
633 2 2 1 1 226 555 695
634 2 2 1 1 227 554 694
635 2 2 1 1 376 648 985
636 2 2 1 1 377 649 984
637 2 2 1 1 97 775 999
638 2 2 1 1 55 774 998
639 2 2 1 1 773 28 997
640 2 2 1 1 772 70 996
641 2 2 1 1 116 382 658
642 2 2 1 1 117 383 659
643 2 2 1 1 35 5 564
644 2 2 1 1 77 15 565
645 2 2 1 1 7 48 563
646 2 2 1 1 17 90 562
647 2 2 1 1 160 413 731
648 2 2 1 1 161 412 730
649 2 2 1 1 411 163 733
650 2 2 1 1 410 162 732
651 2 2 1 1 144 470 656
652 2 2 1 1 145 471 657
653 2 2 1 1 840 358 920
654 2 2 1 1 841 359 921
655 2 2 1 1 106 558 664
656 2 2 1 1 107 559 665
657 2 2 1 1 120 386 682
658 2 2 1 1 121 387 683
659 2 2 1 1 470 186 988
660 2 2 1 1 471 187 989
661 2 2 1 1 189 472 991
662 2 2 1 1 188 473 990
663 2 2 1 1 324 516 656
664 2 2 1 1 325 517 657
665 2 2 1 1 390 245 713
666 2 2 1 1 391 244 712
667 2 2 1 1 242 392 710
668 2 2 1 1 243 393 711
669 2 2 1 1 413 160 713
670 2 2 1 1 412 161 712
671 2 2 1 1 163 411 711
672 2 2 1 1 162 410 710
673 2 2 1 1 358 470 988
674 2 2 1 1 359 471 989
675 2 2 1 1 216 434 822
676 2 2 1 1 217 435 823
677 2 2 1 1 472 357 991
678 2 2 1 1 473 356 990
679 2 2 1 1 97 98 775
680 2 2 1 1 55 56 774
681 2 2 1 1 27 28 773
682 2 2 1 1 69 70 772
683 2 2 1 1 444 255 654
684 2 2 1 1 445 254 655
685 2 2 1 1 285 540 628
686 2 2 1 1 284 541 629
687 2 2 1 1 542 283 627
688 2 2 1 1 543 282 626
689 2 2 1 1 378 552 860
690 2 2 1 1 379 553 861
691 2 2 1 1 557 193 680
692 2 2 1 1 556 192 681
693 2 2 1 1 106 595 750
694 2 2 1 1 107 594 751
695 2 2 1 1 564 5 778
696 2 2 1 1 565 15 779
697 2 2 1 1 7 563 780
698 2 2 1 1 17 562 781
699 2 2 1 1 112 444 654
700 2 2 1 1 113 445 655
701 2 2 1 1 540 234 628
702 2 2 1 1 541 235 629
703 2 2 1 1 236 542 627
704 2 2 1 1 237 543 626
705 2 2 1 1 434 294 822
706 2 2 1 1 435 295 823
707 2 2 1 1 400 102 676
708 2 2 1 1 401 60 677
709 2 2 1 1 23 402 678
710 2 2 1 1 65 403 679
711 2 2 1 1 552 208 860
712 2 2 1 1 553 211 861
713 2 2 1 1 128 398 672
714 2 2 1 1 129 399 673
715 2 2 1 1 309 557 680
716 2 2 1 1 308 556 681
717 2 2 1 1 160 390 713
718 2 2 1 1 161 391 712
719 2 2 1 1 393 163 711
720 2 2 1 1 392 162 710
721 2 2 1 1 454 130 786
722 2 2 1 1 455 131 787
723 2 2 1 1 524 246 636
724 2 2 1 1 525 247 637
725 2 2 1 1 558 294 664
726 2 2 1 1 559 295 665
727 2 2 1 1 246 442 644
728 2 2 1 1 247 443 645
729 2 2 1 1 426 318 768
730 2 2 1 1 427 319 769
731 2 2 1 1 528 142 958
732 2 2 1 1 529 143 959
733 2 2 1 1 448 316 582
734 2 2 1 1 449 317 583
735 2 2 1 1 442 110 644
736 2 2 1 1 443 111 645
737 2 2 1 1 590 422 974
738 2 2 1 1 591 423 975
739 2 2 1 1 424 528 958
740 2 2 1 1 425 529 959
741 2 2 1 1 174 834 948
742 2 2 1 1 175 835 949
743 2 2 1 1 416 232 666
744 2 2 1 1 417 233 667
745 2 2 1 1 534 272 584
746 2 2 1 1 535 273 585
747 2 2 1 1 271 533 586
748 2 2 1 1 270 532 587
749 2 2 1 1 428 182 856
750 2 2 1 1 429 183 857
751 2 2 1 1 728 372 828
752 2 2 1 1 729 373 829
753 2 2 1 1 114 416 666
754 2 2 1 1 115 417 667
755 2 2 1 1 138 429 703
756 2 2 1 1 139 428 702
757 2 2 1 1 200 476 776
758 2 2 1 1 201 477 777
759 2 2 1 1 468 323 912
760 2 2 1 1 469 322 913
761 2 2 1 1 446 198 526
762 2 2 1 1 447 199 527
763 2 2 1 1 232 416 610
764 2 2 1 1 233 417 611
765 2 2 1 1 617 241 673
766 2 2 1 1 616 240 672
767 2 2 1 1 414 126 970
768 2 2 1 1 415 127 971
769 2 2 1 1 408 516 906
770 2 2 1 1 409 517 907
771 2 2 1 1 135 534 584
772 2 2 1 1 134 535 585
773 2 2 1 1 533 136 586
774 2 2 1 1 532 137 587
775 2 2 1 1 416 476 796
776 2 2 1 1 417 477 797
777 2 2 1 1 348 604 974
778 2 2 1 1 349 605 975
779 2 2 1 1 399 536 889
780 2 2 1 1 398 537 888
781 2 2 1 1 252 410 732
782 2 2 1 1 412 250 730
783 2 2 1 1 253 411 733
784 2 2 1 1 413 251 731
785 2 2 1 1 439 119 818
786 2 2 1 1 438 118 819
787 2 2 1 1 265 406 734
788 2 2 1 1 264 407 735
789 2 2 1 1 404 267 736
790 2 2 1 1 405 266 737
791 2 2 1 1 285 439 818
792 2 2 1 1 284 438 819
793 2 2 1 1 410 242 710
794 2 2 1 1 411 243 711
795 2 2 1 1 244 412 712
796 2 2 1 1 245 413 713
797 2 2 1 1 436 174 748
798 2 2 1 1 437 175 749
799 2 2 1 1 538 312 764
800 2 2 1 1 539 313 765
801 2 2 1 1 429 138 722
802 2 2 1 1 428 139 723
803 2 2 1 1 221 438 573
804 2 2 1 1 220 439 572
805 2 2 1 1 656 470 840
806 2 2 1 1 657 471 841
807 2 2 1 1 150 556 986
808 2 2 1 1 151 557 987
809 2 2 1 1 194 418 838
810 2 2 1 1 195 419 839
811 2 2 1 1 172 416 796
812 2 2 1 1 173 417 797
813 2 2 1 1 615 298 638
814 2 2 1 1 614 299 639
815 2 2 1 1 300 612 640
816 2 2 1 1 301 613 641
817 2 2 1 1 439 285 901
818 2 2 1 1 438 284 900
819 2 2 1 1 478 222 920
820 2 2 1 1 479 224 921
821 2 2 1 1 110 728 828
822 2 2 1 1 111 729 829
823 2 2 1 1 340 486 948
824 2 2 1 1 341 487 949
825 2 2 1 1 223 478 917
826 2 2 1 1 225 479 916
827 2 2 1 1 418 238 838
828 2 2 1 1 419 239 839
829 2 2 1 1 552 414 882
830 2 2 1 1 553 415 883
831 2 2 1 1 486 174 948
832 2 2 1 1 487 175 949
833 2 2 1 1 375 741 830
834 2 2 1 1 374 740 831
835 2 2 1 1 596 256 662
836 2 2 1 1 598 257 663
837 2 2 1 1 524 636 926
838 2 2 1 1 525 637 927
839 2 2 1 1 289 441 781
840 2 2 1 1 288 440 780
841 2 2 1 1 346 570 902
842 2 2 1 1 347 571 903
843 2 2 1 1 152 538 764
844 2 2 1 1 153 539 765
845 2 2 1 1 228 590 974
846 2 2 1 1 229 591 975
847 2 2 1 1 267 615 638
848 2 2 1 1 266 614 639
849 2 2 1 1 612 264 640
850 2 2 1 1 613 265 641
851 2 2 1 1 368 510 982
852 2 2 1 1 369 511 983
853 2 2 1 1 422 278 758
854 2 2 1 1 423 279 759
855 2 2 1 1 440 47 780
856 2 2 1 1 441 89 781
857 2 2 1 1 212 424 826
858 2 2 1 1 213 425 827
859 2 2 1 1 126 430 642
860 2 2 1 1 127 431 643
861 2 2 1 1 99 100 640
862 2 2 1 1 57 58 641
863 2 2 1 1 25 26 639
864 2 2 1 1 67 68 638
865 2 2 1 1 218 436 748
866 2 2 1 1 219 437 749
867 2 2 1 1 182 428 670
868 2 2 1 1 183 429 671
869 2 2 1 1 283 447 855
870 2 2 1 1 282 446 854
871 2 2 1 1 184 448 582
872 2 2 1 1 185 449 583
873 2 2 1 1 426 146 890
874 2 2 1 1 427 147 891
875 2 2 1 1 268 568 684
876 2 2 1 1 269 569 685
877 2 2 1 1 480 374 886
878 2 2 1 1 481 375 887
879 2 2 1 1 346 436 908
880 2 2 1 1 347 437 909
881 2 2 1 1 117 447 820
882 2 2 1 1 116 446 821
883 2 2 1 1 424 268 994
884 2 2 1 1 425 269 995
885 2 2 1 1 447 283 820
886 2 2 1 1 446 282 821
887 2 2 1 1 236 452 784
888 2 2 1 1 237 453 785
889 2 2 1 1 450 234 782
890 2 2 1 1 451 235 783
891 2 2 1 1 234 450 620
892 2 2 1 1 235 451 621
893 2 2 1 1 452 236 618
894 2 2 1 1 453 237 619
895 2 2 1 1 328 724 726
896 2 2 1 1 329 725 727
897 2 2 1 1 421 202 714
898 2 2 1 1 420 203 715
899 2 2 1 1 268 424 958
900 2 2 1 1 269 425 959
901 2 2 1 1 367 619 976
902 2 2 1 1 366 618 977
903 2 2 1 1 621 365 978
904 2 2 1 1 620 364 979
905 2 2 1 1 32 452 618
906 2 2 1 1 74 453 619
907 2 2 1 1 450 93 620
908 2 2 1 1 451 51 621
909 2 2 1 1 488 204 674
910 2 2 1 1 489 205 675
911 2 2 1 1 122 714 954
912 2 2 1 1 123 715 955
913 2 2 1 1 255 444 670
914 2 2 1 1 254 445 671
915 2 2 1 1 360 450 782
916 2 2 1 1 361 451 783
917 2 2 1 1 452 363 784
918 2 2 1 1 453 362 785
919 2 2 1 1 444 182 670
920 2 2 1 1 445 183 671
921 2 2 1 1 555 331 897
922 2 2 1 1 554 330 896
923 2 2 1 1 492 223 892
924 2 2 1 1 493 225 893
925 2 2 1 1 570 180 902
926 2 2 1 1 571 181 903
927 2 2 1 1 222 492 792
928 2 2 1 1 224 493 793
929 2 2 1 1 741 113 830
930 2 2 1 1 740 112 831
931 2 2 1 1 776 476 910
932 2 2 1 1 777 477 911
933 2 2 1 1 99 640 735
934 2 2 1 1 57 641 734
935 2 2 1 1 639 26 737
936 2 2 1 1 638 68 736
937 2 2 1 1 176 426 770
938 2 2 1 1 177 427 771
939 2 2 1 1 510 262 724
940 2 2 1 1 511 263 725
941 2 2 1 1 174 486 748
942 2 2 1 1 175 487 749
943 2 2 1 1 130 524 806
944 2 2 1 1 131 525 807
945 2 2 1 1 524 326 806
946 2 2 1 1 525 327 807
947 2 2 1 1 192 556 684
948 2 2 1 1 193 557 685
949 2 2 1 1 957 572 980
950 2 2 1 1 956 573 981
951 2 2 1 1 556 292 684
952 2 2 1 1 557 293 685
953 2 2 1 1 432 206 786
954 2 2 1 1 433 207 787
955 2 2 1 1 432 130 806
956 2 2 1 1 433 131 807
957 2 2 1 1 499 158 798
958 2 2 1 1 498 159 799
959 2 2 1 1 448 156 968
960 2 2 1 1 449 157 969
961 2 2 1 1 120 864 908
962 2 2 1 1 121 865 909
963 2 2 1 1 62 11 700
964 2 2 1 1 104 1 701
965 2 2 1 1 11 63 700
966 2 2 1 1 1 21 701
967 2 2 1 1 118 438 848
968 2 2 1 1 119 439 849
969 2 2 1 1 490 138 703
970 2 2 1 1 491 139 702
971 2 2 1 1 476 326 796
972 2 2 1 1 477 327 797
973 2 2 1 1 26 3 737
974 2 2 1 1 68 13 736
975 2 2 1 1 19 99 735
976 2 2 1 1 9 57 734
977 2 2 1 1 516 214 906
978 2 2 1 1 517 215 907
979 2 2 1 1 438 221 944
980 2 2 1 1 439 220 945
981 2 2 1 1 245 508 862
982 2 2 1 1 244 509 863
983 2 2 1 1 291 499 798
984 2 2 1 1 290 498 799
985 2 2 1 1 627 153 765
986 2 2 1 1 626 152 764
987 2 2 1 1 154 628 767
988 2 2 1 1 155 629 766
989 2 2 1 1 597 140 914
990 2 2 1 1 599 141 915
991 2 2 1 1 182 444 904
992 2 2 1 1 183 445 905
993 2 2 1 1 132 467 686
994 2 2 1 1 133 466 687
995 2 2 1 1 316 448 968
996 2 2 1 1 317 449 969
997 2 2 1 1 63 574 700
998 2 2 1 1 21 575 701
999 2 2 1 1 576 62 700
1000 2 2 1 1 577 104 701
1001 2 2 1 1 396 597 914
1002 2 2 1 1 397 599 915
1003 2 2 1 1 691 367 764
1004 2 2 1 1 690 366 765
1005 2 2 1 1 365 693 766
1006 2 2 1 1 364 692 767
1007 2 2 1 1 724 262 726
1008 2 2 1 1 725 263 727
1009 2 2 1 1 550 155 766
1010 2 2 1 1 551 154 767
1011 2 2 1 1 548 242 802
1012 2 2 1 1 549 243 803
1013 2 2 1 1 46 440 720
1014 2 2 1 1 88 441 721
1015 2 2 1 1 503 248 624
1016 2 2 1 1 502 249 625
1017 2 2 1 1 312 691 764
1018 2 2 1 1 313 690 765
1019 2 2 1 1 693 310 766
1020 2 2 1 1 692 311 767
1021 2 2 1 1 538 320 714
1022 2 2 1 1 539 321 715
1023 2 2 1 1 368 458 704
1024 2 2 1 1 369 459 705
1025 2 2 1 1 220 572 957
1026 2 2 1 1 221 573 956
1027 2 2 1 1 123 503 624
1028 2 2 1 1 122 502 625
1029 2 2 1 1 276 592 622
1030 2 2 1 1 277 593 623
1031 2 2 1 1 592 258 622
1032 2 2 1 1 593 259 623
1033 2 2 1 1 6 42 631
1034 2 2 1 1 16 84 630
1035 2 2 1 1 604 228 974
1036 2 2 1 1 605 229 975
1037 2 2 1 1 695 322 846
1038 2 2 1 1 694 323 847
1039 2 2 1 1 469 128 660
1040 2 2 1 1 468 129 661
1041 2 2 1 1 242 578 802
1042 2 2 1 1 243 579 803
1043 2 2 1 1 310 550 766
1044 2 2 1 1 311 551 767
1045 2 2 1 1 110 442 728
1046 2 2 1 1 111 443 729
1047 2 2 1 1 626 764 976
1048 2 2 1 1 627 765 977
1049 2 2 1 1 767 628 979
1050 2 2 1 1 766 629 978
1051 2 2 1 1 520 278 761
1052 2 2 1 1 521 279 760
1053 2 2 1 1 580 244 863
1054 2 2 1 1 581 245 862
1055 2 2 1 1 202 538 714
1056 2 2 1 1 203 539 715
1057 2 2 1 1 43 44 554
1058 2 2 1 1 85 86 555
1059 2 2 1 1 758 164 982
1060 2 2 1 1 759 165 983
1061 2 2 1 1 218 702 856
1062 2 2 1 1 219 703 857
1063 2 2 1 1 280 448 870
1064 2 2 1 1 281 449 871
1065 2 2 1 1 308 681 848
1066 2 2 1 1 309 680 849
1067 2 2 1 1 702 428 856
1068 2 2 1 1 703 429 857
1069 2 2 1 1 287 565 779
1070 2 2 1 1 286 564 778
1071 2 2 1 1 563 288 780
1072 2 2 1 1 562 289 781
1073 2 2 1 1 448 184 870
1074 2 2 1 1 449 185 871
1075 2 2 1 1 696 372 794
1076 2 2 1 1 697 373 795
1077 2 2 1 1 619 237 976
1078 2 2 1 1 618 236 977
1079 2 2 1 1 235 621 978
1080 2 2 1 1 234 620 979
1081 2 2 1 1 444 112 740
1082 2 2 1 1 445 113 741
1083 2 2 1 1 294 558 946
1084 2 2 1 1 295 559 947
1085 2 2 1 1 64 65 679
1086 2 2 1 1 22 23 678
1087 2 2 1 1 102 103 676
1088 2 2 1 1 60 61 677
1089 2 2 1 1 504 96 999
1090 2 2 1 1 505 54 998
1091 2 2 1 1 29 506 997
1092 2 2 1 1 71 507 996
1093 2 2 1 1 447 527 855
1094 2 2 1 1 446 526 854
1095 2 2 1 1 63 64 932
1096 2 2 1 1 21 22 933
1097 2 2 1 1 103 104 930
1098 2 2 1 1 61 62 931
1099 2 2 1 1 299 614 791
1100 2 2 1 1 298 615 790
1101 2 2 1 1 612 300 788
1102 2 2 1 1 613 301 789
1103 2 2 1 1 570 274 662
1104 2 2 1 1 571 275 663
1105 2 2 1 1 316 600 668
1106 2 2 1 1 317 601 669
1107 2 2 1 1 168 696 794
1108 2 2 1 1 169 697 795
1109 2 2 1 1 234 540 782
1110 2 2 1 1 542 236 784
1111 2 2 1 1 235 541 783
1112 2 2 1 1 543 237 785
1113 2 2 1 1 440 196 912
1114 2 2 1 1 441 197 913
1115 2 2 1 1 146 474 632
1116 2 2 1 1 147 475 633
1117 2 2 1 1 572 439 901
1118 2 2 1 1 573 438 900
1119 2 2 1 1 292 595 688
1120 2 2 1 1 293 594 689
1121 2 2 1 1 331 647 756
1122 2 2 1 1 330 646 757
1123 2 2 1 1 463 532 858
1124 2 2 1 1 462 533 859
1125 2 2 1 1 534 460 860
1126 2 2 1 1 535 461 861
1127 2 2 1 1 647 156 756
1128 2 2 1 1 646 157 757
1129 2 2 1 1 595 106 688
1130 2 2 1 1 594 107 689
1131 2 2 1 1 454 340 948
1132 2 2 1 1 455 341 949
1133 2 2 1 1 464 132 686
1134 2 2 1 1 465 133 687
1135 2 2 1 1 148 634 804
1136 2 2 1 1 149 635 805
1137 2 2 1 1 574 63 932
1138 2 2 1 1 575 21 933
1139 2 2 1 1 62 576 931
1140 2 2 1 1 104 577 930
1141 2 2 1 1 142 528 622
1142 2 2 1 1 143 529 623
1143 2 2 1 1 591 229 595
1144 2 2 1 1 590 228 594
1145 2 2 1 1 45 46 720
1146 2 2 1 1 87 88 721
1147 2 2 1 1 596 274 746
1148 2 2 1 1 598 275 747
1149 2 2 1 1 334 566 808
1150 2 2 1 1 335 567 809
1151 2 2 1 1 292 591 595
1152 2 2 1 1 293 590 594
1153 2 2 1 1 194 460 716
1154 2 2 1 1 195 461 717
1155 2 2 1 1 462 196 718
1156 2 2 1 1 463 197 719
1157 2 2 1 1 6 631 744
1158 2 2 1 1 16 630 745
1159 2 2 1 1 458 214 992
1160 2 2 1 1 459 215 993
1161 2 2 1 1 262 588 726
1162 2 2 1 1 263 589 727
1163 2 2 1 1 581 270 587
1164 2 2 1 1 580 271 586
1165 2 2 1 1 272 578 584
1166 2 2 1 1 273 579 585
1167 2 2 1 1 558 798 946
1168 2 2 1 1 559 799 947
1169 2 2 1 1 138 456 918
1170 2 2 1 1 139 457 919
1171 2 2 1 1 48 49 651
1172 2 2 1 1 90 91 650
1173 2 2 1 1 76 77 653
1174 2 2 1 1 34 35 652
1175 2 2 1 1 96 97 999
1176 2 2 1 1 54 55 998
1177 2 2 1 1 28 29 997
1178 2 2 1 1 70 71 996
1179 2 2 1 1 328 518 624
1180 2 2 1 1 329 519 625
1181 2 2 1 1 522 350 658
1182 2 2 1 1 523 351 659
1183 2 2 1 1 602 254 722
1184 2 2 1 1 603 255 723
1185 2 2 1 1 582 232 884
1186 2 2 1 1 583 233 885
1187 2 2 1 1 44 45 694
1188 2 2 1 1 86 87 695
1189 2 2 1 1 245 581 587
1190 2 2 1 1 244 580 586
1191 2 2 1 1 578 242 584
1192 2 2 1 1 579 243 585
1193 2 2 1 1 592 276 928
1194 2 2 1 1 593 277 929
1195 2 2 1 1 233 611 971
1196 2 2 1 1 232 610 970
1197 2 2 1 1 588 108 892
1198 2 2 1 1 589 109 893
1199 2 2 1 1 518 123 624
1200 2 2 1 1 519 122 625
1201 2 2 1 1 563 48 651
1202 2 2 1 1 562 90 650
1203 2 2 1 1 35 564 652
1204 2 2 1 1 77 565 653
1205 2 2 1 1 643 233 971
1206 2 2 1 1 642 232 970
1207 2 2 1 1 321 527 967
1208 2 2 1 1 320 526 966
1209 2 2 1 1 616 166 940
1210 2 2 1 1 617 167 941
1211 2 2 1 1 528 276 622
1212 2 2 1 1 529 277 623
1213 2 2 1 1 384 616 940
1214 2 2 1 1 385 617 941
1215 2 2 1 1 460 378 860
1216 2 2 1 1 461 379 861
1217 2 2 1 1 381 462 859
1218 2 2 1 1 380 463 858
1219 2 2 1 1 232 642 884
1220 2 2 1 1 233 643 885
1221 2 2 1 1 844 188 990
1222 2 2 1 1 845 189 991
1223 2 2 1 1 306 464 850
1224 2 2 1 1 307 465 851
1225 2 2 1 1 466 304 852
1226 2 2 1 1 467 305 853
1227 2 2 1 1 186 842 988
1228 2 2 1 1 187 843 989
1229 2 2 1 1 596 140 597
1230 2 2 1 1 598 141 599
1231 2 2 1 1 354 588 892
1232 2 2 1 1 355 589 893
1233 2 2 1 1 256 596 597
1234 2 2 1 1 257 598 599
1235 2 2 1 1 470 358 840
1236 2 2 1 1 471 359 841
1237 2 2 1 1 93 94 620
1238 2 2 1 1 51 52 621
1239 2 2 1 1 31 32 618
1240 2 2 1 1 73 74 619
1241 2 2 1 1 357 472 813
1242 2 2 1 1 356 473 812
1243 2 2 1 1 486 315 972
1244 2 2 1 1 487 314 973
1245 2 2 1 1 508 353 862
1246 2 2 1 1 509 352 863
1247 2 2 1 1 484 41 744
1248 2 2 1 1 485 83 745
1249 2 2 1 1 36 500 778
1250 2 2 1 1 78 501 779
1251 2 2 1 1 280 485 745
1252 2 2 1 1 281 484 744
1253 2 2 1 1 276 682 928
1254 2 2 1 1 277 683 929
1255 2 2 1 1 312 538 922
1256 2 2 1 1 313 539 923
1257 2 2 1 1 186 470 788
1258 2 2 1 1 187 471 789
1259 2 2 1 1 274 530 746
1260 2 2 1 1 275 531 747
1261 2 2 1 1 472 189 791
1262 2 2 1 1 473 188 790
1263 2 2 1 1 545 286 717
1264 2 2 1 1 544 287 716
1265 2 2 1 1 288 546 718
1266 2 2 1 1 289 547 719
1267 2 2 1 1 246 524 808
1268 2 2 1 1 247 525 809
1269 2 2 1 1 190 474 768
1270 2 2 1 1 191 475 769
1271 2 2 1 1 530 212 746
1272 2 2 1 1 531 213 747
1273 2 2 1 1 323 468 847
1274 2 2 1 1 322 469 846
1275 2 2 1 1 80 81 648
1276 2 2 1 1 38 39 649
1277 2 2 1 1 516 144 656
1278 2 2 1 1 517 145 657
1279 2 2 1 1 356 464 990
1280 2 2 1 1 357 465 991
1281 2 2 1 1 466 358 988
1282 2 2 1 1 467 359 989
1283 2 2 1 1 476 114 910
1284 2 2 1 1 477 115 911
1285 2 2 1 1 290 559 751
1286 2 2 1 1 291 558 750
1287 2 2 1 1 43 554 896
1288 2 2 1 1 85 555 897
1289 2 2 1 1 500 286 778
1290 2 2 1 1 501 287 779
1291 2 2 1 1 490 314 1000
1292 2 2 1 1 491 315 1001
1293 2 2 1 1 206 490 1000
1294 2 2 1 1 207 491 1001
1295 2 2 1 1 140 868 914
1296 2 2 1 1 141 869 915
1297 2 2 1 1 342 773 997
1298 2 2 1 1 775 344 999
1299 2 2 1 1 343 772 996
1300 2 2 1 1 774 345 998
1301 2 2 1 1 238 512 838
1302 2 2 1 1 239 513 839
1303 2 2 1 1 328 634 724
1304 2 2 1 1 329 635 725
1305 2 2 1 1 488 124 934
1306 2 2 1 1 489 125 935
1307 2 2 1 1 315 486 878
1308 2 2 1 1 314 487 879
1309 2 2 1 1 704 458 992
1310 2 2 1 1 705 459 993
1311 2 2 1 1 636 246 644
1312 2 2 1 1 637 247 645
1313 2 2 1 1 910 114 1004
1314 2 2 1 1 911 115 1005
1315 2 2 1 1 566 246 808
1316 2 2 1 1 567 247 809
1317 2 2 1 1 492 108 792
1318 2 2 1 1 493 109 793
1319 2 2 1 1 566 334 902
1320 2 2 1 1 567 335 903
1321 2 2 1 1 296 636 644
1322 2 2 1 1 297 637 645
1323 2 2 1 1 251 562 650
1324 2 2 1 1 250 563 651
1325 2 2 1 1 564 253 652
1326 2 2 1 1 565 252 653
1327 2 2 1 1 54 505 753
1328 2 2 1 1 96 504 752
1329 2 2 1 1 507 71 755
1330 2 2 1 1 506 29 754
1331 2 2 1 1 485 280 870
1332 2 2 1 1 484 281 871
1333 2 2 1 1 180 566 902
1334 2 2 1 1 181 567 903
1335 2 2 1 1 670 428 723
1336 2 2 1 1 671 429 722
1337 2 2 1 1 574 230 700
1338 2 2 1 1 575 231 701
1339 2 2 1 1 230 576 700
1340 2 2 1 1 231 577 701
1341 2 2 1 1 338 480 886
1342 2 2 1 1 339 481 887
1343 2 2 1 1 110 494 810
1344 2 2 1 1 111 495 811
1345 2 2 1 1 516 324 992
1346 2 2 1 1 517 325 993
1347 2 2 1 1 30 4 690
1348 2 2 1 1 72 14 691
1349 2 2 1 1 18 95 692
1350 2 2 1 1 8 53 693
1351 2 2 1 1 180 570 662
1352 2 2 1 1 181 571 663
1353 2 2 1 1 496 112 814
1354 2 2 1 1 497 113 815
1355 2 2 1 1 606 106 664
1356 2 2 1 1 607 107 665
1357 2 2 1 1 108 492 892
1358 2 2 1 1 109 493 893
1359 2 2 1 1 631 281 744
1360 2 2 1 1 630 280 745
1361 2 2 1 1 498 290 804
1362 2 2 1 1 499 291 805
1363 2 2 1 1 324 704 992
1364 2 2 1 1 325 705 993
1365 2 2 1 1 494 110 828
1366 2 2 1 1 495 111 829
1367 2 2 1 1 112 496 831
1368 2 2 1 1 113 497 830
1369 2 2 1 1 602 166 743
1370 2 2 1 1 603 167 742
1371 2 2 1 1 578 272 696
1372 2 2 1 1 579 273 697
1373 2 2 1 1 271 580 698
1374 2 2 1 1 270 581 699
1375 2 2 1 1 123 518 936
1376 2 2 1 1 122 519 937
1377 2 2 1 1 168 578 696
1378 2 2 1 1 169 579 697
1379 2 2 1 1 580 170 698
1380 2 2 1 1 581 171 699
1381 2 2 1 1 518 318 936
1382 2 2 1 1 519 319 937
1383 2 2 1 1 514 212 826
1384 2 2 1 1 515 213 827
1385 2 2 1 1 158 522 946
1386 2 2 1 1 159 523 947
1387 2 2 1 1 602 722 964
1388 2 2 1 1 603 723 965
1389 2 2 1 1 641 265 734
1390 2 2 1 1 640 264 735
1391 2 2 1 1 267 638 736
1392 2 2 1 1 266 639 737
1393 2 2 1 1 527 199 967
1394 2 2 1 1 526 198 966
1395 2 2 1 1 592 182 904
1396 2 2 1 1 593 183 905
1397 2 2 1 1 214 516 992
1398 2 2 1 1 215 517 993
1399 2 2 1 1 140 514 868
1400 2 2 1 1 141 515 869
1401 2 2 1 1 504 204 925
1402 2 2 1 1 505 205 924
1403 2 2 1 1 203 506 923
1404 2 2 1 1 202 507 922
1405 2 2 1 1 868 434 914
1406 2 2 1 1 869 435 915
1407 2 2 1 1 229 605 750
1408 2 2 1 1 228 604 751
1409 2 2 1 1 605 291 750
1410 2 2 1 1 604 290 751
1411 2 2 1 1 212 514 746
1412 2 2 1 1 213 515 747
1413 2 2 1 1 260 606 664
1414 2 2 1 1 261 607 665
1415 2 2 1 1 554 44 694
1416 2 2 1 1 555 86 695
1417 2 2 1 1 383 803 817
1418 2 2 1 1 382 802 816
1419 2 2 1 1 630 331 756
1420 2 2 1 1 631 330 757
1421 2 2 1 1 280 630 756
1422 2 2 1 1 281 631 757
1423 2 2 1 1 862 353 939
1424 2 2 1 1 863 352 938
1425 2 2 1 1 344 504 999
1426 2 2 1 1 345 505 998
1427 2 2 1 1 506 342 997
1428 2 2 1 1 507 343 996
1429 2 2 1 1 528 212 824
1430 2 2 1 1 529 213 825
1431 2 2 1 1 503 123 955
1432 2 2 1 1 502 122 954
1433 2 2 1 1 333 956 981
1434 2 2 1 1 332 957 980
1435 2 2 1 1 600 240 668
1436 2 2 1 1 601 241 669
1437 2 2 1 1 648 81 985
1438 2 2 1 1 649 39 984
1439 2 2 1 1 606 268 688
1440 2 2 1 1 607 269 689
1441 2 2 1 1 538 202 922
1442 2 2 1 1 539 203 923
1443 2 2 1 1 311 692 752
1444 2 2 1 1 310 693 753
1445 2 2 1 1 690 313 754
1446 2 2 1 1 691 312 755
1447 2 2 1 1 198 502 966
1448 2 2 1 1 199 503 967
1449 2 2 1 1 230 574 850
1450 2 2 1 1 231 575 851
1451 2 2 1 1 268 606 994
1452 2 2 1 1 269 607 995
1453 2 2 1 1 576 230 853
1454 2 2 1 1 577 231 852
1455 2 2 1 1 802 168 816
1456 2 2 1 1 803 169 817
1457 2 2 1 1 71 72 755
1458 2 2 1 1 29 30 754
1459 2 2 1 1 53 54 753
1460 2 2 1 1 95 96 752
1461 2 2 1 1 636 172 926
1462 2 2 1 1 637 173 927
1463 2 2 1 1 106 606 688
1464 2 2 1 1 107 607 689
1465 2 2 1 1 278 520 832
1466 2 2 1 1 279 521 833
1467 2 2 1 1 692 95 752
1468 2 2 1 1 693 53 753
1469 2 2 1 1 30 690 754
1470 2 2 1 1 72 691 755
1471 2 2 1 1 520 124 832
1472 2 2 1 1 521 125 833
1473 2 2 1 1 707 299 963
1474 2 2 1 1 706 298 962
1475 2 2 1 1 300 708 960
1476 2 2 1 1 301 709 961
1477 2 2 1 1 574 306 850
1478 2 2 1 1 575 307 851
1479 2 2 1 1 304 577 852
1480 2 2 1 1 305 576 853
1481 2 2 1 1 255 603 742
1482 2 2 1 1 254 602 743
1483 2 2 1 1 41 6 744
1484 2 2 1 1 83 16 745
1485 2 2 1 1 64 679 932
1486 2 2 1 1 22 678 933
1487 2 2 1 1 676 103 930
1488 2 2 1 1 677 61 931
1489 2 2 1 1 588 262 942
1490 2 2 1 1 589 263 943
1491 2 2 1 1 702 218 972
1492 2 2 1 1 703 219 973
1493 2 2 1 1 794 396 816
1494 2 2 1 1 795 397 817
1495 2 2 1 1 168 794 816
1496 2 2 1 1 169 795 817
1497 2 2 1 1 532 209 858
1498 2 2 1 1 533 210 859
1499 2 2 1 1 208 534 860
1500 2 2 1 1 211 535 861
1501 2 2 1 1 166 602 940
1502 2 2 1 1 167 603 941
1503 2 2 1 1 602 336 940
1504 2 2 1 1 603 337 941
1505 2 2 1 1 146 614 890
1506 2 2 1 1 147 615 891
1507 2 2 1 1 382 548 802
1508 2 2 1 1 383 549 803
1509 2 2 1 1 560 308 944
1510 2 2 1 1 561 309 945
1511 2 2 1 1 264 612 837
1512 2 2 1 1 265 613 836
1513 2 2 1 1 276 528 824
1514 2 2 1 1 277 529 825
1515 2 2 1 1 654 255 742
1516 2 2 1 1 655 254 743
1517 2 2 1 1 114 668 1004
1518 2 2 1 1 115 669 1005
1519 2 2 1 1 608 206 1000
1520 2 2 1 1 609 207 1001
1521 2 2 1 1 5 36 778
1522 2 2 1 1 15 78 779
1523 2 2 1 1 47 7 780
1524 2 2 1 1 89 17 781
1525 2 2 1 1 240 616 1004
1526 2 2 1 1 241 617 1005
1527 2 2 1 1 260 514 826
1528 2 2 1 1 261 515 827
1529 2 2 1 1 522 216 822
1530 2 2 1 1 523 217 823
1531 2 2 1 1 150 560 760
1532 2 2 1 1 151 561 761
1533 2 2 1 1 687 466 852
1534 2 2 1 1 686 467 853
1535 2 2 1 1 205 550 924
1536 2 2 1 1 204 551 925
1537 2 2 1 1 524 130 808
1538 2 2 1 1 525 131 809
1539 2 2 1 1 540 160 782
1540 2 2 1 1 541 161 783
1541 2 2 1 1 163 542 784
1542 2 2 1 1 162 543 785
1543 2 2 1 1 551 311 925
1544 2 2 1 1 550 310 924
1545 2 2 1 1 597 396 794
1546 2 2 1 1 599 397 795
1547 2 2 1 1 298 790 962
1548 2 2 1 1 299 791 963
1549 2 2 1 1 788 300 960
1550 2 2 1 1 789 301 961
1551 2 2 1 1 268 684 688
1552 2 2 1 1 269 685 689
1553 2 2 1 1 514 260 868
1554 2 2 1 1 515 261 869
1555 2 2 1 1 684 292 688
1556 2 2 1 1 685 293 689
1557 2 2 1 1 184 884 894
1558 2 2 1 1 185 885 895
1559 2 2 1 1 526 152 854
1560 2 2 1 1 527 153 855
1561 2 2 1 1 332 934 957
1562 2 2 1 1 333 935 956
1563 2 2 1 1 594 228 751
1564 2 2 1 1 595 229 750
1565 2 2 1 1 530 274 864
1566 2 2 1 1 531 275 865
1567 2 2 1 1 668 240 1004
1568 2 2 1 1 669 241 1005
1569 2 2 1 1 738 264 837
1570 2 2 1 1 739 265 836
1571 2 2 1 1 105 609 878
1572 2 2 1 1 105 608 879
1573 2 2 1 1 100 101 874
1574 2 2 1 1 58 59 875
1575 2 2 1 1 24 25 876
1576 2 2 1 1 66 67 877
1577 2 2 1 1 609 315 878
1578 2 2 1 1 608 314 879
1579 2 2 1 1 212 530 824
1580 2 2 1 1 213 531 825
1581 2 2 1 1 604 148 804
1582 2 2 1 1 605 149 805
1583 2 2 1 1 510 348 982
1584 2 2 1 1 511 349 983
1585 2 2 1 1 155 550 981
1586 2 2 1 1 154 551 980
1587 2 2 1 1 568 268 958
1588 2 2 1 1 569 269 959
1589 2 2 1 1 120 530 864
1590 2 2 1 1 121 531 865
1591 2 2 1 1 558 291 798
1592 2 2 1 1 559 290 799
1593 2 2 1 1 550 333 981
1594 2 2 1 1 551 332 980
1595 2 2 1 1 630 84 897
1596 2 2 1 1 631 42 896
1597 2 2 1 1 634 148 724
1598 2 2 1 1 635 149 725
1599 2 2 1 1 326 524 926
1600 2 2 1 1 327 525 927
1601 2 2 1 1 331 630 897
1602 2 2 1 1 330 631 896
1603 2 2 1 1 291 605 805
1604 2 2 1 1 290 604 804
1605 2 2 1 1 714 320 954
1606 2 2 1 1 715 321 955
1607 2 2 1 1 520 220 957
1608 2 2 1 1 521 221 956
1609 2 2 1 1 108 704 792
1610 2 2 1 1 109 705 793
1611 2 2 1 1 384 910 1004
1612 2 2 1 1 385 911 1005
1613 2 2 1 1 884 430 894
1614 2 2 1 1 885 431 895
1615 2 2 1 1 704 108 942
1616 2 2 1 1 705 109 943
1617 2 2 1 1 220 561 945
1618 2 2 1 1 221 560 944
1619 2 2 1 1 255 670 723
1620 2 2 1 1 254 671 722
1621 2 2 1 1 302 654 742
1622 2 2 1 1 303 655 743
1623 2 2 1 1 84 85 897
1624 2 2 1 1 42 43 896
1625 2 2 1 1 536 210 889
1626 2 2 1 1 537 209 888
1627 2 2 1 1 578 168 802
1628 2 2 1 1 579 169 803
1629 2 2 1 1 296 644 810
1630 2 2 1 1 297 645 811
1631 2 2 1 1 644 110 810
1632 2 2 1 1 645 111 811
1633 2 2 1 1 704 324 792
1634 2 2 1 1 705 325 793
1635 2 2 1 1 368 704 942
1636 2 2 1 1 369 705 943
1637 2 2 1 1 184 582 884
1638 2 2 1 1 185 583 885
1639 2 2 1 1 39 40 984
1640 2 2 1 1 81 82 985
1641 2 2 1 1 654 302 814
1642 2 2 1 1 655 303 815
1643 2 2 1 1 112 654 814
1644 2 2 1 1 113 655 815
1645 2 2 1 1 132 916 921
1646 2 2 1 1 133 917 920
1647 2 2 1 1 400 842 960
1648 2 2 1 1 401 843 961
1649 2 2 1 1 845 402 963
1650 2 2 1 1 844 403 962
1651 2 2 1 1 274 570 864
1652 2 2 1 1 275 571 865
1653 2 2 1 1 208 552 882
1654 2 2 1 1 211 553 883
1655 2 2 1 1 743 166 872
1656 2 2 1 1 742 167 873
1657 2 2 1 1 738 408 1002
1658 2 2 1 1 739 409 1003
1659 2 2 1 1 155 573 900
1660 2 2 1 1 154 572 901
1661 2 2 1 1 178 738 1002
1662 2 2 1 1 179 739 1003
1663 2 2 1 1 560 150 986
1664 2 2 1 1 561 151 987
1665 2 2 1 1 308 560 986
1666 2 2 1 1 309 561 987
1667 2 2 1 1 815 303 888
1668 2 2 1 1 814 302 889
1669 2 2 1 1 748 486 972
1670 2 2 1 1 749 487 973
1671 2 2 1 1 372 696 828
1672 2 2 1 1 373 697 829
1673 2 2 1 1 698 374 831
1674 2 2 1 1 699 375 830
1675 2 2 1 1 126 642 970
1676 2 2 1 1 127 643 971
1677 2 2 1 1 230 686 853
1678 2 2 1 1 231 687 852
1679 2 2 1 1 522 822 946
1680 2 2 1 1 523 823 947
1681 2 2 1 1 681 192 866
1682 2 2 1 1 680 193 867
1683 2 2 1 1 352 681 866
1684 2 2 1 1 353 680 867
1685 2 2 1 1 916 479 921
1686 2 2 1 1 917 478 920
1687 2 2 1 1 296 810 882
1688 2 2 1 1 297 811 883
1689 2 2 1 1 170 580 863
1690 2 2 1 1 171 581 862
1691 2 2 1 1 179 675 952
1692 2 2 1 1 178 674 953
1693 2 2 1 1 632 223 813
1694 2 2 1 1 633 225 812
1695 2 2 1 1 556 308 986
1696 2 2 1 1 557 309 987
1697 2 2 1 1 142 568 958
1698 2 2 1 1 143 569 959
1699 2 2 1 1 674 344 953
1700 2 2 1 1 675 345 952
1701 2 2 1 1 171 862 939
1702 2 2 1 1 170 863 938
1703 2 2 1 1 469 660 846
1704 2 2 1 1 468 661 847
1705 2 2 1 1 612 144 837
1706 2 2 1 1 613 145 836
1707 2 2 1 1 336 776 940
1708 2 2 1 1 337 777 941
1709 2 2 1 1 776 384 940
1710 2 2 1 1 777 385 941
1711 2 2 1 1 842 186 960
1712 2 2 1 1 843 187 961
1713 2 2 1 1 188 844 962
1714 2 2 1 1 189 845 963
1715 2 2 1 1 152 626 854
1716 2 2 1 1 153 627 855
1717 2 2 1 1 156 600 968
1718 2 2 1 1 157 601 969
1719 2 2 1 1 306 574 932
1720 2 2 1 1 307 575 933
1721 2 2 1 1 577 304 930
1722 2 2 1 1 576 305 931
1723 2 2 1 1 222 656 840
1724 2 2 1 1 224 657 841
1725 2 2 1 1 600 316 968
1726 2 2 1 1 601 317 969
1727 2 2 1 1 638 298 877
1728 2 2 1 1 639 299 876
1729 2 2 1 1 300 640 874
1730 2 2 1 1 301 641 875
1731 2 2 1 1 258 592 904
1732 2 2 1 1 259 593 905
1733 2 2 1 1 762 420 898
1734 2 2 1 1 763 421 899
1735 2 2 1 1 108 588 942
1736 2 2 1 1 109 589 943
1737 2 2 1 1 572 154 980
1738 2 2 1 1 573 155 981
1739 2 2 1 1 182 592 928
1740 2 2 1 1 183 593 929
1741 2 2 1 1 629 155 900
1742 2 2 1 1 628 154 901
1743 2 2 1 1 626 282 854
1744 2 2 1 1 627 283 855
1745 2 2 1 1 682 386 928
1746 2 2 1 1 683 387 929
1747 2 2 1 1 176 762 898
1748 2 2 1 1 177 763 899
1749 2 2 1 1 661 227 847
1750 2 2 1 1 660 226 846
1751 2 2 1 1 314 608 1000
1752 2 2 1 1 315 609 1001
1753 2 2 1 1 400 676 842
1754 2 2 1 1 401 677 843
1755 2 2 1 1 678 402 845
1756 2 2 1 1 679 403 844
1757 2 2 1 1 721 441 913
1758 2 2 1 1 720 440 912
1759 2 2 1 1 311 752 925
1760 2 2 1 1 310 753 924
1761 2 2 1 1 754 313 923
1762 2 2 1 1 755 312 922
1763 2 2 1 1 308 848 944
1764 2 2 1 1 309 849 945
1765 2 2 1 1 752 504 925
1766 2 2 1 1 753 505 924
1767 2 2 1 1 506 754 923
1768 2 2 1 1 507 755 922
1769 2 2 1 1 606 260 994
1770 2 2 1 1 607 261 995
1771 2 2 1 1 636 296 880
1772 2 2 1 1 637 297 881
1773 2 2 1 1 686 230 850
1774 2 2 1 1 687 231 851
1775 2 2 1 1 172 636 880
1776 2 2 1 1 173 637 881
1777 2 2 1 1 336 602 964
1778 2 2 1 1 337 603 965
1779 2 2 1 1 615 267 891
1780 2 2 1 1 614 266 890
1781 2 2 1 1 67 638 877
1782 2 2 1 1 25 639 876
1783 2 2 1 1 641 58 875
1784 2 2 1 1 640 100 874
1785 2 2 1 1 642 430 884
1786 2 2 1 1 643 431 885
1787 2 2 1 1 284 629 900
1788 2 2 1 1 285 628 901
1789 2 2 1 1 402 707 963
1790 2 2 1 1 403 706 962
1791 2 2 1 1 708 400 960
1792 2 2 1 1 709 401 961
1793 2 2 1 1 610 414 970
1794 2 2 1 1 611 415 971
1795 2 2 1 1 464 686 850
1796 2 2 1 1 465 687 851
1797 2 2 1 1 408 738 837
1798 2 2 1 1 409 739 836
1799 2 2 1 1 384 776 910
1800 2 2 1 1 385 777 911
1801 2 2 1 1 676 304 842
1802 2 2 1 1 677 305 843
1803 2 2 1 1 306 679 844
1804 2 2 1 1 307 678 845
1805 2 2 1 1 214 800 906
1806 2 2 1 1 215 801 907
1807 2 2 1 1 800 370 906
1808 2 2 1 1 801 371 907
1809 2 2 1 1 616 384 1004
1810 2 2 1 1 617 385 1005
1811 2 2 1 1 237 626 976
1812 2 2 1 1 236 627 977
1813 2 2 1 1 628 234 979
1814 2 2 1 1 629 235 978
1815 2 2 1 1 722 138 964
1816 2 2 1 1 723 139 965
1817 2 2 1 1 405 773 951
1818 2 2 1 1 404 772 950
1819 2 2 1 1 775 407 953
1820 2 2 1 1 774 406 952
1821 2 2 1 1 304 676 930
1822 2 2 1 1 305 677 931
1823 2 2 1 1 678 307 933
1824 2 2 1 1 679 306 932
1825 2 2 1 1 364 767 979
1826 2 2 1 1 365 766 978
1827 2 2 1 1 765 366 977
1828 2 2 1 1 764 367 976
1829 2 2 1 1 706 66 877
1830 2 2 1 1 707 24 876
1831 2 2 1 1 101 708 874
1832 2 2 1 1 59 709 875
1833 2 2 1 1 708 300 874
1834 2 2 1 1 709 301 875
1835 2 2 1 1 298 706 877
1836 2 2 1 1 299 707 876
1837 2 2 1 1 834 346 902
1838 2 2 1 1 835 347 903
1839 2 2 1 1 318 898 936
1840 2 2 1 1 319 899 937
1841 2 2 1 1 763 177 950
1842 2 2 1 1 762 176 951
1843 2 2 1 1 898 420 936
1844 2 2 1 1 899 421 937
1845 2 2 1 1 866 338 938
1846 2 2 1 1 867 339 939
1847 2 2 1 1 303 743 872
1848 2 2 1 1 302 742 873
1849 2 2 1 1 343 763 950
1850 2 2 1 1 342 762 951
1851 2 2 1 1 323 720 912
1852 2 2 1 1 322 721 913
1853 2 2 1 1 444 740 904
1854 2 2 1 1 445 741 905
1855 2 2 1 1 740 258 904
1856 2 2 1 1 741 259 905
1857 2 2 1 1 770 426 890
1858 2 2 1 1 771 427 891
1859 2 2 1 1 267 771 891
1860 2 2 1 1 266 770 890
1861 2 2 1 1 796 326 926
1862 2 2 1 1 797 327 927
1863 2 2 1 1 352 866 938
1864 2 2 1 1 353 867 939
1865 2 2 1 1 138 918 964
1866 2 2 1 1 139 919 965
1867 2 2 1 1 218 748 972
1868 2 2 1 1 219 749 973
1869 2 2 1 1 772 343 950
1870 2 2 1 1 773 342 951
1871 2 2 1 1 344 775 953
1872 2 2 1 1 345 774 952
1873 2 2 1 1 172 796 926
1874 2 2 1 1 173 797 927
1875 2 2 1 1 338 886 938
1876 2 2 1 1 339 887 939
1877 2 2 1 1 186 788 960
1878 2 2 1 1 187 789 961
1879 2 2 1 1 790 188 962
1880 2 2 1 1 791 189 963
1881 2 2 1 1 822 294 946
1882 2 2 1 1 823 295 947
1883 2 2 1 1 798 158 946
1884 2 2 1 1 799 159 947
1885 2 2 1 1 334 834 902
1886 2 2 1 1 335 835 903
1887 2 2 1 1 260 826 994
1888 2 2 1 1 261 827 995
1889 2 2 1 1 848 438 944
1890 2 2 1 1 849 439 945
1891 2 2 1 1 906 370 1002
1892 2 2 1 1 907 371 1003
1893 2 2 1 1 408 906 1002
1894 2 2 1 1 409 907 1003
1895 2 2 1 1 886 170 938
1896 2 2 1 1 887 171 939
1897 2 2 1 1 826 424 994
1898 2 2 1 1 827 425 995
1899 2 2 1 1 502 954 966
1900 2 2 1 1 503 955 967
1901 2 2 1 1 918 336 964
1902 2 2 1 1 919 337 965
1903 2 2 1 1 954 320 966
1904 2 2 1 1 955 321 967
1905 1 2 2 2 1 21
1906 1 2 2 2 21 22
1907 1 2 2 2 22 23
1908 1 2 2 2 23 2
1909 1 2 2 2 2 24
1910 1 2 2 2 24 25
1911 1 2 2 2 25 26
1912 1 2 2 2 26 3
1913 1 2 2 2 3 27
1914 1 2 2 2 27 28
1915 1 2 2 2 28 29
1916 1 2 2 2 29 30
1917 1 2 2 2 30 4
1918 1 2 2 2 4 31
1919 1 2 2 2 31 32
1920 1 2 2 2 32 33
1921 1 2 2 2 33 34
1922 1 2 2 2 34 35
1923 1 2 2 2 35 5
1924 1 2 2 2 5 36
1925 1 2 2 2 36 37
1926 1 2 2 2 37 38
1927 1 2 2 2 38 39
1928 1 2 2 2 39 40
1929 1 2 2 2 40 41
1930 1 2 2 2 41 6
1931 1 2 2 2 6 42
1932 1 2 2 2 42 43
1933 1 2 2 2 43 44
1934 1 2 2 2 44 45
1935 1 2 2 2 45 46
1936 1 2 2 2 46 47
1937 1 2 2 2 47 7
1938 1 2 2 2 7 48
1939 1 2 2 2 48 49
1940 1 2 2 2 49 50
1941 1 2 2 2 50 51
1942 1 2 2 2 51 52
1943 1 2 2 2 52 8
1944 1 2 2 2 8 53
1945 1 2 2 2 53 54
1946 1 2 2 2 54 55
1947 1 2 2 2 55 56
1948 1 2 2 2 56 9
1949 1 2 2 2 9 57
1950 1 2 2 2 57 58
1951 1 2 2 2 58 59
1952 1 2 2 2 59 10
1953 1 2 2 2 10 60
1954 1 2 2 2 60 61
1955 1 2 2 2 61 62
1956 1 2 2 2 62 11
1957 1 2 2 2 11 63
1958 1 2 2 2 63 64
1959 1 2 2 2 64 65
1960 1 2 2 2 65 12
1961 1 2 2 2 12 66
1962 1 2 2 2 66 67
1963 1 2 2 2 67 68
1964 1 2 2 2 68 13
1965 1 2 2 2 13 69
1966 1 2 2 2 69 70
1967 1 2 2 2 70 71
1968 1 2 2 2 71 72
1969 1 2 2 2 72 14
1970 1 2 2 2 14 73
1971 1 2 2 2 73 74
1972 1 2 2 2 74 75
1973 1 2 2 2 75 76
1974 1 2 2 2 76 77
1975 1 2 2 2 77 15
1976 1 2 2 2 15 78
1977 1 2 2 2 78 79
1978 1 2 2 2 79 80
1979 1 2 2 2 80 81
1980 1 2 2 2 81 82
1981 1 2 2 2 82 83
1982 1 2 2 2 83 16
1983 1 2 2 2 16 84
1984 1 2 2 2 84 85
1985 1 2 2 2 85 86
1986 1 2 2 2 86 87
1987 1 2 2 2 87 88
1988 1 2 2 2 88 89
1989 1 2 2 2 89 17
1990 1 2 2 2 17 90
1991 1 2 2 2 90 91
1992 1 2 2 2 91 92
1993 1 2 2 2 92 93
1994 1 2 2 2 93 94
1995 1 2 2 2 94 18
1996 1 2 2 2 18 95
1997 1 2 2 2 95 96
1998 1 2 2 2 96 97
1999 1 2 2 2 97 98
2000 1 2 2 2 98 19
2001 1 2 2 2 19 99
2002 1 2 2 2 99 100
2003 1 2 2 2 100 101
2004 1 2 2 2 101 20
2005 1 2 2 2 20 102
2006 1 2 2 2 102 103
2007 1 2 2 2 103 104
2008 1 2 2 2 104 1
$EndElements
