h=0.1;

// sommets du tétraèdre
P1={0,0,0};
P2={0,1.2,0.2};
P3={-1.4,1.2,0.7};
P4={0.4,0.7,1};

Point(1)={P1[0],P1[1],P1[2],h};
Point(2)={P2[0],P2[1],P2[2],h};
//Point(3)={P3[0],P3[1],P3[2],h};
Point(4)={P4[0],P4[1],P4[2],h};

// face de devant
P5[0]=0.4*P1[0]+0.6*P4[0];
P5[1]=0.4*P1[1]+0.6*P4[1];
P5[2]=0.4*P1[2]+0.6*P4[2];

P6[0]=0.1*P1[0]+0.9*P4[0];
P6[1]=0.1*P1[1]+0.9*P4[1];
P6[2]=0.1*P1[2]+0.9*P4[2];

P7[0]=P5[0]+0.12*(P2[0]-P1[0]);
P7[1]=P5[1]+0.12*(P2[1]-P1[1]);
P7[2]=P5[2]+0.12*(P2[2]-P1[2]);

P8[0]=P1[0]+(P7[0]-P5[0])+0.15*(P5[0]-P1[0]);
P8[1]=P1[1]+(P7[1]-P5[1])+0.15*(P5[1]-P1[1]);
P8[2]=P1[2]+(P7[2]-P5[2])+0.15*(P5[2]-P1[2]);

P9[0]=P8[0]+0.69*(P2[0]-P1[0]);
P9[1]=P8[1]+0.69*(P2[1]-P1[1]);
P9[2]=P8[2]+0.69*(P2[2]-P1[2]);

Point(5)={P5[0],P5[1],P5[2],h};
Point(6)={P6[0],P6[1],P6[2],h};
Point(7)={P7[0],P7[1],P7[2],h};
Point(8)={P8[0],P8[1],P8[2],h};
Point(9)={P9[0],P9[1],P9[2],h};

Line(1)={1,2};
Line(2)={2,4};
Line(3)={4,6};
Line(4)={6,9};
Line(5)={9,8};
Line(6)={8,7};
Line(7)={7,5};
Line(8)={5,1};

Line Loop(1)={1,2,3,4,5,6,7,8};
Plane Surface(1)={1};

// face de derrière
P10[0]=P5[0]+0.08*(P3[0]-P1[0]);
P10[1]=P5[1]+0.08*(P3[1]-P1[1]);
P10[2]=P5[2]+0.08*(P3[2]-P1[2]);

P11[0]=0.1*(P4[0]-P1[0])+(P10[0]-P5[0]);
P11[1]=0.1*(P4[1]-P1[1])+(P10[1]-P5[1]);
P11[2]=0.1*(P4[2]-P1[2])+(P10[2]-P5[2]);

P12[0]=P11[0]+0.35*(P3[0]-P1[0]);
P12[1]=P11[1]+0.35*(P3[1]-P1[1]);
P12[2]=P11[2]+0.35*(P3[2]-P1[2]);

P13[0]=P1[0]+0.35*(P3[0]-P1[0]);
P13[1]=P1[1]+0.35*(P3[1]-P1[1]);
P13[2]=P1[2]+0.35*(P3[2]-P1[2]);

Point(10)={P10[0],P10[1],P10[2],h};
Point(11)={P11[0],P11[1],P11[2],h};
Point(12)={P12[0],P12[1],P12[2],h};
Point(13)={P13[0],P13[1],P13[2],h};

Line(9)={5,10};
Line(10)={10,11};
Line(11)={11,12};
Line(12)={12,13};
Line(13)={13,1};

Line Loop(2)={-8,9,10,11,12,13};
Plane Surface(2)={2};

// face de dessous

P14[0]=(P7[0]-P5[0])+0.43*(P3[0]-P1[0]);
P14[1]=(P7[1]-P5[1])+0.43*(P3[1]-P1[1]);
P14[2]=(P7[2]-P5[2])+0.43*(P3[2]-P1[2]);

P15[0]=(P7[0]-P5[0])+0.08*(P3[0]-P1[0]);
P15[1]=(P7[1]-P5[1])+0.08*(P3[1]-P1[1]);
P15[2]=(P7[2]-P5[2])+0.08*(P3[2]-P1[2]);

P16[0]=P15[0]+0.67*(P2[0]-P1[0]);
P16[1]=P15[1]+0.67*(P2[1]-P1[1]);
P16[2]=P15[2]+0.67*(P2[2]-P1[2]);

P17[0]=P16[0]+0.5*(P3[0]-P2[0]);
P17[1]=P16[1]+0.5*(P3[1]-P2[1]);
P17[2]=P16[2]+0.5*(P3[2]-P2[2]);

P18[0]=P2[0]+0.5*(P3[0]-P2[0]);
P18[1]=P2[1]+0.5*(P3[1]-P2[1]);
P18[2]=P2[2]+0.5*(P3[2]-P2[2]);

Point(14)={P14[0],P14[1],P14[2],h};
Point(15)={P15[0],P15[1],P15[2],h};
Point(16)={P16[0],P16[1],P16[2],h};
Point(17)={P17[0],P17[1],P17[2],h};
Point(18)={P18[0],P18[1],P18[2],h};

Line(14)={13,14};
Line(15)={14,15};
Line(16)={15,16};
Line(17)={16,17};
Line(18)={17,18};
Line(19)={18,2};

Line Loop(3)={-13,14,15,16,17,18,19,-1};
Plane Surface(3)={3};

// face de droite

P19[0]=P18[0]+0.11*(P4[0]-P2[0]);
P19[1]=P18[1]+0.11*(P4[1]-P2[1]);
P19[2]=P18[2]+0.11*(P4[2]-P2[2]);

P20[0]=P2[0]+(P19[0]-P18[0])+0.15*(P3[0]-P2[0]);
P20[1]=P2[1]+(P19[1]-P18[1])+0.15*(P3[1]-P2[1]);
P20[2]=P2[2]+(P19[2]-P18[2])+0.15*(P3[2]-P2[2]);

P21[0]=P20[0]+0.65*(P4[0]-P2[0]);
P21[1]=P20[1]+0.65*(P4[1]-P2[1]);
P21[2]=P20[2]+0.65*(P4[2]-P2[2]);

P22[0]=P21[0]+0.34*(P3[0]-P4[0]);
P22[1]=P21[1]+0.34*(P3[1]-P4[1]);
P22[2]=P21[2]+0.34*(P3[2]-P4[2]);

P23[0]=P4[0]+0.47*(P3[0]-P4[0]);
P23[1]=P4[1]+0.47*(P3[1]-P4[1]);
P23[2]=P4[2]+0.47*(P3[2]-P4[2]);

Point(19)={P19[0],P19[1],P19[2],h};
Point(20)={P20[0],P20[1],P20[2],h};
Point(21)={P21[0],P21[1],P21[2],h};
Point(22)={P22[0],P22[1],P22[2],h};
Point(23)={P23[0],P23[1],P23[2],h};

Line(20)={18,19};
Line(21)={19,20};
Line(22)={20,21};
Line(23)={21,22};
Line(24)={22,23};
Line(25)={23,4};

Line Loop(4)={-2,-19,20,21,22,23,24,25};
Plane Surface(4)={4};

// face de derrière en haut

P24[0]=P6[0]+0.47*(P3[0]-P4[0]);
P24[1]=P6[1]+0.47*(P3[1]-P4[1]);
P24[2]=P6[2]+0.47*(P3[2]-P4[2]);

Point(24)={P24[0],P24[1],P24[2],h};

Line(26)={23,24};
Line(27)={24,6};

Line Loop(5)={-25,26,27,-3};
Plane Surface(5)={5};

// l'intérieur

Line(28)={12,14};
Line(29)={11,15};

Line Loop(6)={11,28,15,-29};
Plane Surface(6)={6};

Line Loop(7)={12,14,-28};
Plane Surface(7)={7};

Line(30)={7,10};
Line(31)={8,11};

Line Loop(8)={30,10,-31,6};
Plane Surface(8)={8};

Line Loop(9)={7,9,-30};
Plane Surface(9)={9};

Line(32)={8,15};

Line Loop(10)={31,29,-32};
Plane Surface(10)={10};

Line(33)={9,16};

Line Loop(11)={5,32,16,-33};
Plane Surface(11)={11};

Line(34)={19,17};
Line(35)={20,16};

Line Loop(12)={-34,21,35,17};
Plane Surface(12)={12};

Line Loop(13)={34,18,20};
Plane Surface(13)={13};

Line(36)={20,9};

Line Loop(14)={36,33,-35};
Plane Surface(14)={14};

Line(37)={21,6};

Line Loop(15)={37,4,-36,22};
Plane Surface(15)={15};

Line(38)={22,24};

Line Loop(16)={38,27,-37,23};
Plane Surface(16)={16};

Line Loop(17)={38,-26,-24};
Plane Surface(17)={17};

// volume
Surface Loop(18)={1,2,3,4,5,6,7,8,9,10,11,12,13,14,15,16,17};
Volume(18)={18};

// ellipse
a=0.7;
b=0.2;
P25={-0.35,0.6,0};
P26={-0.35,0.6+a,0};
P27={-0.35-b,0.6,0.1};
P28={-0.35,0.6-a,0};
P29={-0.35+b,0.6,-0.1};

Point(25)={P25[0],P25[1],P25[2],h};
Point(26)={P26[0],P26[1],P26[2],h};
Point(27)={P27[0],P27[1],P27[2],h};
Point(28)={P28[0],P28[1],P28[2],h};
Point(29)={P29[0],P29[1],P29[2],h};

Ellipse(39)={26,25,26,27};
Ellipse(40)={27,25,28,28};
Ellipse(41)={28,25,28,29};
Ellipse(42)={29,25,26,26};

Line Loop(19)={39,40,41,42};
Plane Surface(19)={19};

// domaines
Physical Volume("Omega")={18};
Physical Surface("dOmega")={1,2,3,4,5,6,7,8,9,10,11,12,13,14,15,16,17};
Physical Surface("Gamma")={19};
Physical Line("dGamma")={39,40,41,42};
