h=0.1;

a=1;
b=1.25;
ex=0.2;

// X
x=0;
y=0;
z=0;

P1={x,y,z};
P2={x+a,y,z};
P3={x+a,y+b,z};
P4={x,y+b,z};
P5={x+ex*a,y,z};
P6={x+(1-ex)*a,y,z};
P7={x+(1-ex)*a,y+b,z};
P8={x+ex*a,y+b,z};

Point(1)={P1[0],P1[1],P1[2],h};
Point(2)={P2[0],P2[1],P2[2],h};
Point(3)={P3[0],P3[1],P3[2],h};
Point(4)={P4[0],P4[1],P4[2],h};
Point(5)={P5[0],P5[1],P5[2],h};
Point(6)={P6[0],P6[1],P6[2],h};
Point(7)={P7[0],P7[1],P7[2],h};
Point(8)={P8[0],P8[1],P8[2],h};

P9[0]=P5[0]+(0.5-ex)/(1-ex)*(P3[0]-P5[0]);
P9[1]=P5[1]+(0.5-ex)/(1-ex)*(P3[1]-P5[1]); 
P9[2]=P5[2]+(0.5-ex)/(1-ex)*(P3[2]-P5[2]);

P10[0]=P2[0]+0.5*(P8[0]-P2[0]);
P10[1]=P2[1]+0.5*(P8[1]-P2[1]);
P10[2]=P2[2]+0.5*(P8[2]-P2[2]);

P11[0]=P7[0]+(0.5-ex)/(1-ex)*(P1[0]-P7[0]);
P11[1]=P7[1]+(0.5-ex)/(1-ex)*(P1[1]-P7[1]);
P11[2]=P7[2]+(0.5-ex)/(1-ex)*(P1[2]-P7[2]);

P12[0]=P4[0]+0.5*(P6[0]-P4[0]);
P12[1]=P4[1]+0.5*(P6[1]-P4[1]);
P12[2]=P4[2]+0.5*(P6[2]-P4[2]);

Point(9)={P9[0],P9[1],P9[2],h};
Point(10)={P10[0],P10[1],P10[2],h};
Point(11)={P11[0],P11[1],P11[2],h};
Point(12)={P12[0],P12[1],P12[2],h};

Line(1)={1,5};
Line(2)={5,9};
Line(3)={9,6};
Line(4)={6,2};
Line(5)={2,10};
Line(6)={10,3};
Line(7)={3,7};
Line(8)={7,11};
Line(9)={11,8};
Line(10)={8,4};
Line(11)={4,12};
Line(12)={12,1};

Line Loop(1)={1,2,3,4,5,6,7,8,9,10,11,12};
Plane Surface(1)={1};

// L
x=P2[0]+0.5;
P13={x,y,z};
P14={x+0.75*a,y,z};
P15={x+0.75*a,y+ex,z};
P16={x+ex,y+ex,z};
P17={x+ex,y+b,z};
P18={x,y+b,z};

Point(13)={P13[0],P13[1],P13[2],h};
Point(14)={P14[0],P14[1],P14[2],h};
Point(15)={P15[0],P15[1],P15[2],h};
Point(16)={P16[0],P16[1],P16[2],h};
Point(17)={P17[0],P17[1],P17[2],h};
Point(18)={P18[0],P18[1],P18[2],h};

Line(13)={13,14};
Line(14)={14,15};
Line(15)={15,16};
Line(16)={16,17};
Line(17)={17,18};
Line(18)={18,13};

Line Loop(2)={13,14,15,16,17,18};
Plane Surface(2)={2};

// I
x=P14[0]+0.5;
P19={x,y,z};
P20={x+ex,y,z};
P21={x+ex,y+b,z};
P22={x,y+b,z};

Point(19)={P19[0],P19[1],P19[2],h};
Point(20)={P20[0],P20[1],P20[2],h};
Point(21)={P21[0],P21[1],P21[2],h};
Point(22)={P22[0],P22[1],P22[2],h};

Line(19)={19,20};
Line(20)={20,21};
Line(21)={21,22};
Line(22)={22,19};

Line Loop(3)={19,20,21,22};
Plane Surface(3)={3};

// F
x=P20[0]+0.5;
P23={x,y,z};
P24={x+ex,y,z};
P25={x+ex,y+0.5*(b-ex),z};
P26={x+0.5*a,y+0.5*(b-ex),z};
P27={x+0.5*a,y+0.5*(b+ex),z};
P28={x+ex,y+0.5*(b+ex),z};
P29={x+ex,y+b-ex,z};
P30={x+a,y+b-ex,z};
P31={x+a,y+b,z};
P32={x,y+b,z};

Point(23)={P23[0],P23[1],P23[2],h};
Point(24)={P24[0],P24[1],P24[2],h};
Point(25)={P25[0],P25[1],P25[2],h};
Point(26)={P26[0],P26[1],P26[2],h};
Point(27)={P27[0],P27[1],P27[2],h};
Point(28)={P28[0],P28[1],P28[2],h};
Point(29)={P29[0],P29[1],P29[2],h};
Point(30)={P30[0],P30[1],P30[2],h};
Point(31)={P31[0],P31[1],P31[2],h};
Point(32)={P32[0],P32[1],P32[2],h};

Line(23)={23,24};
Line(24)={24,25};
Line(25)={25,26};
Line(26)={26,27};
Line(27)={27,28};
Line(28)={28,29};
Line(29)={29,30};
Line(30)={30,31};
Line(31)={31,32};
Line(32)={32,23};

Line Loop(4)={23,24,25,26,27,28,29,30,31,32};
Plane Surface(4)={4};

// E
x=P30[0]+0.5;
P33={x,y,z};
P34={x+a,y,z};
P35={x+a,y+ex,z};
P36={x+ex,y+ex,z};
P37={x+ex,y+0.5*(b-ex),z};
P38={x+0.5*a,y+0.5*(b-ex),z};
P39={x+0.5*a,y+0.5*(b+ex),z};
P40={x+ex,y+0.5*(b+ex),z};
P41={x+ex,y+b-ex,z};
P42={x+a,y+b-ex,z};
P43={x+a,y+b,z};
P44={x,y+b,z};

Point(33)={P33[0],P33[1],P33[2],h};
Point(34)={P34[0],P34[1],P34[2],h};
Point(35)={P35[0],P35[1],P35[2],h};
Point(36)={P36[0],P36[1],P36[2],h};
Point(37)={P37[0],P37[1],P37[2],h};
Point(38)={P38[0],P38[1],P38[2],h};
Point(39)={P39[0],P39[1],P39[2],h};
Point(40)={P40[0],P40[1],P40[2],h};
Point(41)={P41[0],P41[1],P41[2],h};
Point(42)={P42[0],P42[1],P42[2],h};
Point(43)={P43[0],P43[1],P43[2],h};
Point(44)={P44[0],P44[1],P44[2],h};

Line(33)={33,34};
Line(34)={34,35};
Line(35)={35,36};
Line(36)={36,37};
Line(37)={37,38};
Line(38)={38,39};
Line(39)={39,40};
Line(40)={40,41};
Line(41)={41,42};
Line(42)={42,43};
Line(43)={43,44};
Line(44)={44,33};

Line Loop(5)={33,34,35,36,37,38,39,40,41,42,43,44};
Plane Surface(5)={5};

Physical Surface("Omega")={1,2,3,4,5};
Physical Line("Gamma")={1,2,3,4,5,6,7,8,9,10,11,12,13,14,15,16,17,18,19,20,21,22,23,24,25,26,27,28,29,30,31,32,33,34,35,36,37,38,39,40,41,42,43,44};
