$MeshFormat
2.2 0 8
$EndMeshFormat
$PhysicalNames
1
3 1 "Omega"
$EndPhysicalNames
$Nodes
131
1 0 0 0
2 1 0 0
3 1 1 0
4 0 1 0
5 0 0 1
6 1 0 1
7 1 1 1
8 0 1 1
9 0.24999999999941089 0 0
10 0.4999999999986921 0 0
11 0.74999999999934064 0 0
12 1 0.24999999999941089 0
13 1 0.4999999999986921 0
14 1 0.74999999999934064 0
15 0.75000000000034706 1 0
16 0.50000000000205946 1 0
17 0.2500000000010405 1 0
18 0 0.75000000000034706 0
19 0 0.50000000000205946 0
20 0 0.2500000000010405 0
21 0.24999999999941089 0 1
22 0.4999999999986921 0 1
23 0.74999999999934064 0 1
24 1 0.24999999999941089 1
25 1 0.4999999999986921 1
26 1 0.74999999999934064 1
27 0.75000000000034706 1 1
28 0.50000000000205946 1 1
29 0.2500000000010405 1 1
30 0 0.75000000000034706 1
31 0 0.50000000000205946 1
32 0 0.2500000000010405 1
33 0 0 0.24999999999941089
34 0 0 0.4999999999986921
35 0 0 0.74999999999934064
36 1 0 0.24999999999941089
37 1 0 0.4999999999986921
38 1 0 0.74999999999934064
39 1 1 0.24999999999941089
40 1 1 0.4999999999986921
41 1 1 0.74999999999934064
42 0 1 0.24999999999941089
43 0 1 0.4999999999986921
44 0 1 0.74999999999934064
45 0.50000000000001377 0.49999999999998113 0
46 0.70833333333324078 0.70833333333340842 0
47 0.29166666666657032 0.70833333333319837 0
48 0.70833333333343551 0.2916666666667726 0
49 0.29166666666681501 0.29166666666654339 0
50 0.49999999999986972 0.77976190476189611 0
51 0.2202380952380974 0.49999999999982891 0
52 0.77976190476191698 0.50000000000012412 0
53 0.50000000000016454 0.22023809523807661 0
54 0.83854166666687946 0.83854166666652297 0
55 0.1614583333335019 0.83854166666698937 0
56 0.83854166666645369 0.16145833333310419 0
57 0.16145833333299461 0.16145833333357179 0
58 0.50000000000001377 0.49999999999998102 1
59 0.70833333333324089 0.70833333333340842 1
60 0.29166666666657032 0.70833333333319837 1
61 0.70833333333343551 0.2916666666667726 1
62 0.29166666666681501 0.29166666666654351 1
63 0.49999999999986983 0.77976190476189611 1
64 0.2202380952380974 0.49999999999982903 1
65 0.77976190476191709 0.50000000000012401 1
66 0.50000000000016454 0.22023809523807661 1
67 0.83854166666687957 0.83854166666652297 1
68 0.1614583333335019 0.83854166666698937 1
69 0.83854166666645369 0.16145833333310419 1
70 0.16145833333299461 0.16145833333357171 1
71 0.50000000000004641 0 0.50000000000004641
72 0.29166666666663399 0 0.29166666666663399
73 0.29166666666677249 0 0.70833333333343529
74 0.70833333333343551 0 0.2916666666667726
75 0.70833333333329662 0 0.70833333333329662
76 0.50000000000005851 0 0.2202380952381523
77 0.2202380952381523 0 0.5000000000000584
78 0.50000000000005829 0 0.77976190476196372
79 0.77976190476196394 0 0.50000000000005851
80 0.1546794738304049 0 0.1546794738304049
81 0.83854166666645369 0 0.16145833333310419
82 0.16145833333310439 0 0.83854166666645336
83 0.84532052616971454 0 0.84532052616971454
84 0.49999999999994832 1 0.50000000000004641
85 0.70833333333337944 1 0.2916666666666608
86 0.70833333333324078 1 0.70833333333340842
87 0.29166666666654351 1 0.29166666666681501
88 0.29166666666668212 1 0.70833333333325443
89 0.49999999999993489 1 0.22023809523817309
90 0.77976190476187002 1 0.5000000000000584
91 0.49999999999993511 1 0.77976190476194274
92 0.22023809523800089 1 0.50000000000005851
93 0.83854166666651975 1 0.16145833333339449
94 0.83854166666687946 1 0.83854166666652297
95 0.16145833333357179 1 0.16145833333299461
96 0.16145833333321191 1 0.83854166666692309
97 0 0.49999999999994832 0.50000000000004641
98 0 0.70833333333337944 0.2916666666666608
99 0 0.70833333333324078 0.70833333333340842
100 0 0.29166666666654351 0.29166666666681501
101 0 0.29166666666668212 0.70833333333325443
102 0 0.49999999999993489 0.22023809523817309
103 0 0.77976190476187002 0.5000000000000584
104 0 0.49999999999993511 0.77976190476194274
105 0 0.22023809523800089 0.50000000000005851
106 0 0.83854166666651975 0.16145833333339449
107 0 0.83854166666687946 0.83854166666652297
108 0 0.16145833333357179 0.16145833333299461
109 0 0.16145833333321191 0.83854166666692309
110 1 0.50000000000004652 0.50000000000004641
111 1 0.29166666666663399 0.29166666666663399
112 1 0.29166666666677249 0.70833333333343529
113 1 0.70833333333343551 0.2916666666667726
114 1 0.70833333333329662 0.70833333333329662
115 1 0.50000000000005851 0.2202380952381523
116 1 0.2202380952381523 0.5000000000000584
117 1 0.50000000000005829 0.77976190476196372
118 1 0.77976190476196394 0.50000000000005851
119 1 0.1546794738304049 0.1546794738304049
120 1 0.83854166666645369 0.16145833333310419
121 1 0.16145833333310439 0.83854166666645336
122 1 0.84532052616971454 0.84532052616971454
123 0.49999999999999989 0.5 0.5
124 0.31628787878788439 0.31628787878787668 0.68371212121212155
125 0.31628787878787729 0.68371212121211622 0.68371212121212088
126 0.68887653825892736 0.68885929698113069 0.68885929698113069
127 0.68908645917127553 0.31194782562032591 0.68908599687668171
128 0.31114070301891311 0.3111234617410335 0.31114070301890911
129 0.31628787878787412 0.68371212121211933 0.31628787878788178
130 0.68371212121212022 0.68371212121212499 0.31628787878788089
131 0.68829077932801019 0.31070576406671863 0.3117728660129061
$EndNodes
$Elements
356
1 4 2 1 1 125 124 58 123
2 4 2 1 1 126 125 58 123
3 4 2 1 1 127 124 123 58
4 4 2 1 1 127 126 58 123
5 4 2 1 1 129 128 123 45
6 4 2 1 1 130 129 123 45
7 4 2 1 1 131 128 45 123
8 4 2 1 1 131 130 123 45
9 4 2 1 1 125 124 123 97
10 4 2 1 1 126 125 123 84
11 4 2 1 1 127 124 71 123
12 4 2 1 1 127 126 123 110
13 4 2 1 1 129 125 123 97
14 4 2 1 1 130 126 123 84
15 4 2 1 1 128 124 123 71
16 4 2 1 1 131 127 123 110
17 4 2 1 1 128 124 97 123
18 4 2 1 1 129 125 84 123
19 4 2 1 1 130 126 110 123
20 4 2 1 1 129 128 97 123
21 4 2 1 1 131 123 127 71
22 4 2 1 1 130 123 129 84
23 4 2 1 1 131 128 123 71
24 4 2 1 1 131 130 110 123
25 4 2 1 1 126 94 122 67
26 4 2 1 1 127 69 121 83
27 4 2 1 1 128 57 108 80
28 4 2 1 1 131 56 81 119
29 4 2 1 1 126 94 67 59
30 4 2 1 1 127 121 69 61
31 4 2 1 1 128 108 72 80
32 4 2 1 1 128 72 57 80
33 4 2 1 1 131 56 119 111
34 4 2 1 1 131 119 81 111
35 4 2 1 1 126 114 122 94
36 4 2 1 1 126 122 114 67
37 4 2 1 1 127 75 69 83
38 4 2 1 1 127 121 75 83
39 4 2 1 1 55 47 95 17
40 4 2 1 1 14 120 46 54
41 4 2 1 1 29 88 96 68
42 4 2 1 1 109 70 32 101
43 4 2 1 1 67 59 94 27
44 4 2 1 1 107 88 96 44
45 4 2 1 1 121 61 24 69
46 4 2 1 1 35 82 109 101
47 4 2 1 1 60 68 30 107
48 4 2 1 1 62 70 21 82
49 4 2 1 1 46 93 15 54
50 4 2 1 1 120 113 93 39
51 4 2 1 1 42 95 106 87
52 4 2 1 1 55 47 18 106
53 4 2 1 1 126 58 125 63
54 4 2 1 1 125 124 64 58
55 4 2 1 1 130 129 45 50
56 4 2 1 1 125 124 97 104
57 4 2 1 1 126 125 84 91
58 4 2 1 1 129 128 45 51
59 4 2 1 1 129 97 128 102
60 4 2 1 1 130 129 89 84
61 4 2 1 1 127 126 65 58
62 4 2 1 1 128 124 105 97
63 4 2 1 1 127 66 124 58
64 4 2 1 1 129 84 125 92
65 4 2 1 1 127 71 124 78
66 4 2 1 1 127 126 110 117
67 4 2 1 1 131 130 45 52
68 4 2 1 1 130 110 126 118
69 4 2 1 1 131 127 79 71
70 4 2 1 1 131 128 53 45
71 4 2 1 1 129 125 97 103
72 4 2 1 1 130 90 126 84
73 4 2 1 1 128 124 71 77
74 4 2 1 1 131 127 110 116
75 4 2 1 1 131 76 128 71
76 4 2 1 1 131 130 115 110
77 4 2 1 1 72 108 33 80
78 4 2 1 1 72 9 57 80
79 4 2 1 1 36 111 81 119
80 4 2 1 1 12 119 56 111
81 4 2 1 1 114 67 122 26
82 4 2 1 1 114 94 41 122
83 4 2 1 1 69 23 83 75
84 4 2 1 1 121 75 83 38
85 4 2 1 1 126 86 114 94
86 4 2 1 1 126 67 114 59
87 4 2 1 1 125 88 107 99
88 4 2 1 1 127 61 69 75
89 4 2 1 1 127 121 112 75
90 4 2 1 1 124 82 73 101
91 4 2 1 1 126 59 86 94
92 4 2 1 1 125 107 60 99
93 4 2 1 1 128 100 72 108
94 4 2 1 1 128 72 49 57
95 4 2 1 1 127 112 121 61
96 4 2 1 1 124 62 73 82
97 4 2 1 1 131 56 111 48
98 4 2 1 1 131 111 81 74
99 4 2 1 1 130 46 93 85
100 4 2 1 1 129 106 98 47
101 4 2 1 1 130 85 93 113
102 4 2 1 1 129 98 106 87
103 4 2 1 1 129 47 89 87
104 4 2 1 1 128 49 51 100
105 4 2 1 1 125 88 63 60
106 4 2 1 1 124 64 62 101
107 4 2 1 1 131 76 74 48
108 4 2 1 1 130 46 115 113
109 4 2 1 1 126 86 59 91
110 4 2 1 1 126 114 86 90
111 4 2 1 1 127 112 116 75
112 4 2 1 1 124 101 73 77
113 4 2 1 1 125 99 103 88
114 4 2 1 1 125 60 104 99
115 4 2 1 1 130 46 85 89
116 4 2 1 1 126 59 114 65
117 4 2 1 1 129 47 98 102
118 4 2 1 1 127 75 66 61
119 4 2 1 1 127 112 61 117
120 4 2 1 1 124 62 78 73
121 4 2 1 1 130 85 113 90
122 4 2 1 1 131 115 48 111
123 4 2 1 1 131 111 74 116
124 4 2 1 1 128 76 49 72
125 4 2 1 1 128 100 77 72
126 4 2 1 1 129 87 103 98
127 4 2 1 1 95 87 17 47
128 4 2 1 1 62 101 32 70
129 4 2 1 1 60 88 29 68
130 4 2 1 1 14 113 46 120
131 4 2 1 1 69 23 75 61
132 4 2 1 1 114 59 67 26
133 4 2 1 1 121 75 38 112
134 4 2 1 1 73 82 35 101
135 4 2 1 1 114 94 86 41
136 4 2 1 1 107 88 44 99
137 4 2 1 1 46 85 15 93
138 4 2 1 1 98 106 18 47
139 4 2 1 1 86 27 94 59
140 4 2 1 1 60 107 30 99
141 4 2 1 1 93 85 39 113
142 4 2 1 1 98 87 42 106
143 4 2 1 1 36 74 81 111
144 4 2 1 1 12 111 56 48
145 4 2 1 1 121 112 24 61
146 4 2 1 1 100 33 72 108
147 4 2 1 1 49 57 72 9
148 4 2 1 1 62 21 73 82
149 4 2 1 1 126 125 91 63
150 4 2 1 1 125 124 104 64
151 4 2 1 1 130 129 50 89
152 4 2 1 1 129 102 128 51
153 4 2 1 1 129 125 103 92
154 4 2 1 1 128 105 124 77
155 4 2 1 1 127 126 117 65
156 4 2 1 1 130 118 126 90
157 4 2 1 1 127 124 66 78
158 4 2 1 1 131 79 127 116
159 4 2 1 1 131 115 130 52
160 4 2 1 1 131 128 76 53
161 4 2 1 1 129 50 89 47
162 4 2 1 1 125 63 88 91
163 4 2 1 1 128 102 100 51
164 4 2 1 1 124 101 104 64
165 4 2 1 1 131 53 76 48
166 4 2 1 1 130 46 52 115
167 4 2 1 1 126 63 91 59
168 4 2 1 1 130 50 46 89
169 4 2 1 1 126 118 114 90
170 4 2 1 1 127 116 79 75
171 4 2 1 1 124 77 105 101
172 4 2 1 1 125 88 103 92
173 4 2 1 1 125 64 104 60
174 4 2 1 1 129 47 102 51
175 4 2 1 1 126 65 114 117
176 4 2 1 1 130 113 118 90
177 4 2 1 1 131 74 79 116
178 4 2 1 1 128 100 105 77
179 4 2 1 1 127 66 75 78
180 4 2 1 1 129 103 87 92
181 4 2 1 1 127 65 117 61
182 4 2 1 1 131 48 115 52
183 4 2 1 1 124 66 78 62
184 4 2 1 1 128 76 53 49
185 4 2 1 1 125 58 64 60
186 4 2 1 1 129 45 47 51
187 4 2 1 1 126 59 58 63
188 4 2 1 1 130 45 46 50
189 4 2 1 1 126 84 86 91
190 4 2 1 1 125 104 97 99
191 4 2 1 1 124 97 104 101
192 4 2 1 1 125 91 88 84
193 4 2 1 1 125 63 58 60
194 4 2 1 1 129 45 50 47
195 4 2 1 1 124 58 66 62
196 4 2 1 1 128 97 105 100
197 4 2 1 1 129 87 84 92
198 4 2 1 1 128 49 53 45
199 4 2 1 1 124 58 62 64
200 4 2 1 1 124 105 97 101
201 4 2 1 1 125 84 88 92
202 4 2 1 1 127 58 65 61
203 4 2 1 1 128 49 45 51
204 4 2 1 1 124 78 71 73
205 4 2 1 1 131 45 48 52
206 4 2 1 1 127 110 112 117
207 4 2 1 1 130 113 110 118
208 4 2 1 1 131 79 74 71
209 4 2 1 1 127 79 71 75
210 4 2 1 1 126 110 114 118
211 4 2 1 1 126 114 110 117
212 4 2 1 1 127 75 71 78
213 4 2 1 1 128 102 97 100
214 4 2 1 1 129 89 84 87
215 4 2 1 1 130 89 85 84
216 4 2 1 1 129 98 97 102
217 4 2 1 1 126 58 59 65
218 4 2 1 1 130 45 52 46
219 4 2 1 1 126 90 86 84
220 4 2 1 1 125 97 103 99
221 4 2 1 1 127 61 66 58
222 4 2 1 1 130 85 90 84
223 4 2 1 1 129 103 97 98
224 4 2 1 1 131 45 53 48
225 4 2 1 1 124 73 71 77
226 4 2 1 1 127 110 116 112
227 4 2 1 1 130 115 110 113
228 4 2 1 1 131 74 76 71
229 4 2 1 1 128 71 76 72
230 4 2 1 1 128 77 71 72
231 4 2 1 1 131 110 111 116
232 4 2 1 1 131 110 115 111
233 4 2 1 1 87 89 17 47
234 4 2 1 1 20 100 51 49
235 4 2 1 1 60 63 29 88
236 4 2 1 1 62 64 32 101
237 4 2 1 1 74 76 11 48
238 4 2 1 1 113 115 14 46
239 4 2 1 1 38 75 116 112
240 4 2 1 1 114 41 86 90
241 4 2 1 1 73 35 77 101
242 4 2 1 1 44 88 103 99
243 4 2 1 1 114 65 59 26
244 4 2 1 1 75 61 23 66
245 4 2 1 1 46 89 15 85
246 4 2 1 1 86 91 27 59
247 4 2 1 1 98 47 18 102
248 4 2 1 1 104 99 60 30
249 4 2 1 1 36 116 74 111
250 4 2 1 1 12 111 48 115
251 4 2 1 1 39 113 85 90
252 4 2 1 1 117 61 24 112
253 4 2 1 1 77 72 100 33
254 4 2 1 1 103 42 98 87
255 4 2 1 1 76 9 49 72
256 4 2 1 1 78 73 62 21
257 4 2 1 1 50 47 17 89
258 4 2 1 1 29 88 63 91
259 4 2 1 1 20 100 102 51
260 4 2 1 1 32 64 104 101
261 4 2 1 1 53 48 11 76
262 4 2 1 1 52 46 14 115
263 4 2 1 1 38 75 79 116
264 4 2 1 1 114 90 118 41
265 4 2 1 1 105 101 77 35
266 4 2 1 1 44 92 103 88
267 4 2 1 1 114 117 65 26
268 4 2 1 1 75 23 78 66
269 4 2 1 1 46 50 15 89
270 4 2 1 1 27 63 59 91
271 4 2 1 1 18 51 102 47
272 4 2 1 1 104 60 64 30
273 4 2 1 1 36 79 74 116
274 4 2 1 1 39 118 113 90
275 4 2 1 1 105 33 77 100
276 4 2 1 1 103 92 42 87
277 4 2 1 1 12 115 48 52
278 4 2 1 1 65 24 117 61
279 4 2 1 1 76 9 53 49
280 4 2 1 1 78 62 66 21
281 4 2 1 1 18 51 19 102
282 4 2 1 1 16 89 15 50
283 4 2 1 1 104 30 64 31
284 4 2 1 1 27 91 28 63
285 4 2 1 1 76 10 53 9
286 4 2 1 1 12 52 13 115
287 4 2 1 1 78 21 66 22
288 4 2 1 1 65 25 117 24
289 4 2 1 1 36 37 79 116
290 4 2 1 1 39 40 118 90
291 4 2 1 1 105 34 77 33
292 4 2 1 1 103 43 42 92
293 4 2 1 1 38 116 79 37
294 4 2 1 1 118 41 90 40
295 4 2 1 1 105 35 77 34
296 4 2 1 1 44 43 103 92
297 4 2 1 1 13 52 14 115
298 4 2 1 1 65 26 117 25
299 4 2 1 1 76 11 53 10
300 4 2 1 1 78 66 23 22
301 4 2 1 1 16 50 17 89
302 4 2 1 1 28 91 29 63
303 4 2 1 1 19 51 20 102
304 4 2 1 1 32 31 104 64
305 4 2 1 1 120 54 3 93
306 4 2 1 1 55 95 106 4
307 4 2 1 1 109 82 5 70
308 4 2 1 1 8 96 107 68
309 4 2 1 1 121 69 6 83
310 4 2 1 1 2 81 56 119
311 4 2 1 1 122 94 7 67
312 4 2 1 1 108 57 1 80
313 4 2 1 1 29 96 8 68
314 4 2 1 1 109 70 5 32
315 4 2 1 1 55 95 4 17
316 4 2 1 1 20 1 108 57
317 4 2 1 1 14 3 120 54
318 4 2 1 1 2 11 56 81
319 4 2 1 1 8 44 107 96
320 4 2 1 1 35 5 109 82
321 4 2 1 1 7 27 67 94
322 4 2 1 1 15 93 3 54
323 4 2 1 1 8 107 30 68
324 4 2 1 1 121 69 24 6
325 4 2 1 1 120 93 3 39
326 4 2 1 1 55 106 18 4
327 4 2 1 1 21 70 5 82
328 4 2 1 1 42 4 106 95
329 4 2 1 1 122 67 7 26
330 4 2 1 1 6 83 69 23
331 4 2 1 1 41 7 122 94
332 4 2 1 1 121 83 6 38
333 4 2 1 1 2 119 36 81
334 4 2 1 1 2 56 12 119
335 4 2 1 1 33 80 108 1
336 4 2 1 1 1 80 57 9
337 4 2 1 1 49 57 100 128
338 4 2 1 1 108 100 57 128
339 4 2 1 1 49 100 57 20
340 4 2 1 1 108 57 100 20
341 4 2 1 1 55 47 106 95
342 4 2 1 1 74 131 48 81
343 4 2 1 1 56 131 81 48
344 4 2 1 1 74 11 81 48
345 4 2 1 1 56 11 48 81
346 4 2 1 1 96 88 107 68
347 4 2 1 1 54 46 93 120
348 4 2 1 1 109 101 82 70
349 4 2 1 1 68 60 88 107
350 4 2 1 1 125 88 60 107
351 4 2 1 1 70 62 101 82
352 4 2 1 1 124 62 82 101
353 4 2 1 1 120 113 46 93
354 4 2 1 1 130 46 113 93
355 4 2 1 1 95 87 47 106
356 4 2 1 1 129 47 87 106
$EndElements
