Point(1) = {-310.654266,-59.296917,0.000000,1};
Point(2) = {-335.460052,-93.832779,0.000000,1};
Point(3) = {-328.058411,-89.434982,0.000000,1};
Point(4) = {-268.427032,-93.832779,0.000000,1};
Point(5) = {-345.750031,-93.832779,0.000000,1};
Point(6) = {-345.750031,-87.582779,0.000000,1};
Point(7) = {-335.560059,-87.582779,0.000000,1};
Point(8) = {-333.365021,-86.133095,0.000000,1};
Point(9) = {-316.066925,-56.171917,0.000000,1};
Point(10) = {-258.137329,-93.832779,0.000000,1};
Point(11) = {-258.137329,-87.582779,0.000000,1};
Point(12) = {-268.427307,-87.582779,0.000000,1};
Point(13) = {-275.856659,-89.659996,0.000000,1};
Point(14) = {-270.444000,-86.534996,0.000000,1};
Point(15) = {-292.808411,-60.298714,0.000000,1};
Point(16) = {-287.395752,-57.173714,0.000000,1};
Point(17) = {-301.995850,-47.984169,0.000000,1};
Point(18) = {-301.995850,-54.234169,0.000000,1};
Point(19) = {-355.008830,-100.082779,0.000000,1};
Point(20) = {-355.008830,-93.832779,0.000000,1};
Point(21) = {-249.075490,-93.832779,0.000000,1};
Point(22) = {-249.075490,-100.082779,0.000000,1};
Line (1) = {15 , 13};
Line (2) = {13 , 14};
Line (3) = {14 , 16};
Line (4) = {16 , 15};
Line (5) = {2 , 5};
Line (6) = {5 , 20};
Line (7) = {20 , 19};
Line (8) = {19 , 22};
Line (9) = {22 , 21};
Line (10) = {21 , 10};
Line (11) = {10 , 4};
Line (12) = {4 , 2};
Line (13) = {12 , 4};
Line (14) = {10 , 11};
Line (15) = {11 , 12};
Line (16) = {7 , 2};
Point(23) = {-336.224568,-84.118568,0.000000,1};
Circle (17) = {2 , 23 , 3};
Line (18) = {3 , 8};
Point(24) = {-335.667888,-85.032860,0.000000,1};
Circle (19) = {8 , 24 , 7};
Line (20) = {9 , 8};
Line (21) = {3 , 1};
Line (22) = {1 , 9};
Line (23) = {7 , 6};
Line (24) = {6 , 5};
Line (25) = {17 , 18};
Point(25) = {-301.949648,-64.155672,0.000000,1};
Circle (26) = {18 , 25 , 15};
Point(26) = {-302.292967,-64.649112,0.000000,1};
Circle (27) = {16 , 26 , 17};
Point(27) = {-268.424225,-85.127175,0.000000,1};
Circle (28) = {13 , 27 , 4};
Point(28) = {-268.789981,-85.816147,0.000000,1};
Circle (29) = {12 , 28 , 14};
Point(29) = {-301.655839,-64.753311,0.000000,1};
Circle (30) = {17 , 29 , 9};
Point(30) = {-302.349094,-63.565319,0.000000,1};
Circle (31) = {1 , 30 , 18};
Periodic Line 9 = 7;
Line Loop(32) = {1,2,3,4};
Plane Surface(33) = {32};
Line Loop(34) = {5,6,7,8,9,10,11,12};
Plane Surface(35) = {34};
Line Loop(36) = {13,-11,14,15};
Plane Surface(37) = {36};
Line Loop(38) = {16,17,18,19};
Plane Surface(39) = {38};
Line Loop(40) = {20,-18,21,22};
Plane Surface(41) = {40};
Line Loop(42) = {23,24,-5,-16};
Plane Surface(43) = {42};
Line Loop(44) = {25,26,-4,27};
Plane Surface(45) = {44};
Line Loop(46) = {28,-13,29,-2};
Plane Surface(47) = {46};
Line Loop(48) = {30,-22,31,-25};
Plane Surface(49) = {48};
Physical Line("IT1") = {7};
Physical Line("IT2") = {9};
Physical Surface("Omega") = {33,35,37,39,41,43,45,47,49};
Mesh.ElementOrder=1;
//Mesh.SecondOrderLinear = 1;
Delete {
  Surface{41};
}
Delete {
  Surface{49};
}
Delete {
  Surface{45};
}
Delete {
  Surface{33};
}
Delete {
  Surface{47};
}
Delete {
  Surface{37};
}
Delete {
  Surface{39};
}
Delete {
  Surface{43};
}
Delete {
  Line{19, 20, 18, 16, 23, 24, 17, 21, 30, 31, 22, 25, 26, 27, 4, 1, 3, 2, 28, 13, 29, 15, 14};
}
Delete {
  Point{9, 1, 30, 25, 29, 26, 18, 17, 15, 16, 27, 28, 14, 13, 12, 11, 3, 8, 23, 24, 7, 6};
}