$MeshFormat
2.2 0 8
$EndMeshFormat
$PhysicalNames
7
2 1 "Omega1"
2 2 "Omega2"
1 3 "x=0"
1 4 "x=1"
1 5 "y=0"
1 6 "y=1"
1 7 "x=2"
$EndPhysicalNames
$Nodes
85
1 0 0 0
2 1 0 0
3 1 1 0
4 0 1 0
5 2 0 0
6 2 1 0
7 0.19999999999955689 0 0
8 0.39999999999897312 0 0
9 0.59999999999894504 0 0
10 0.79999999999947247 0 0
11 1 0.19999999999955689 0
12 1 0.39999999999897312 0
13 1 0.59999999999894504 0
14 1 0.79999999999947247 0
15 0.80000000000000004 1 0
16 0.60000000000138742 1 0
17 0.40000000000166502 1 0
18 0.20000000000083251 1 0
19 0 0.80000000000000004 0
20 0 0.60000000000138742 0
21 0 0.40000000000166502 0
22 0 0.20000000000083251 0
23 1.2 0 0
24 1.3999999999999999 0 0
25 1.6000000000000001 0 0
26 1.8 0 0
27 2 0.19999999999955689 0
28 2 0.39999999999897312 0
29 2 0.59999999999894504 0
30 2 0.79999999999947247 0
31 1.8 1 0
32 1.6000000000000001 1 0
33 1.3999999999999999 1 0
34 1.2 1 0
35 0.50000000000053924 0.49999999999935307 0
36 0.28750000000053899 0.71249999999909652 0
37 0.71249999999999081 0.71250000000022184 0
38 0.28750000000043541 0.28749999999987741 0
39 0.71250000000088354 0.28749999999954129 0
40 0.79606445312531993 0.51032608695587256 0
41 0.48967391304430802 0.79606445312468177 0
42 0.51032608695649195 0.20393554687471899 0
43 0.203935546875357 0.48967391304368862 0
44 0.1670833333338283 0.83291666666630848 0
45 0.83291666666680142 0.83291666666671482 0
46 0.16708333333331171 0.1670833333335216 0
47 0.83291666666702158 0.1670833333328188 0
48 0.3683433487455503 0.56965568849151449 0
49 0.57552916830489986 0.61679537583948973 0
50 0.4310340283172317 0.36854769226098422 0
51 0.61695295749897183 0.42457633889466118 0
52 0.31206279115001528 0.86749953496989796 0
53 0.13250046502989421 0.31206279114967989 0
54 0.86749953497035193 0.68793720885058773 0
55 0.13170377604194489 0.68701811594209616 0
56 0.68793720885092313 0.1325004650294403 0
57 0.68701811594249751 0.86829622395832373 0
58 0.31298188405775379 0.13170377604162359 0
59 0.86829622395864503 0.31298188405735261 0
60 1.5000000000000011 0.50000000000025613 0
61 1.294902184476326 0.29795038438500382 0
62 1.712500000000053 0.28750000000014059 0
63 1.2978630582668349 0.69315020687601414 0
64 1.712499999999924 0.71250000000015468 0
65 1.511251360016042 0.20524184492318989 0
66 1.7951086956517379 0.50000000000017297 0
67 1.1824378491931069 0.49673226957463901 0
68 1.5063854040046489 0.7959793649134802 0
69 1.167083333333417 0.16708333333334449 0
70 1.832916666666583 0.16708333333334399 0
71 1.167083333333242 0.83291666666667152 0
72 1.832916666666758 0.83291666666667163 0
73 1.453751748592081 0.37428764743645759 0
74 1.599785153836522 0.4089050622668603 0
75 1.4504145612652899 0.62107354275082938 0
76 1.132664439926538 0.68160381570310602 0
77 1.865507812500125 0.67990885416638458 0
78 1.3146473755651571 0.13405511252830771 0
79 1.691333605336536 0.13196503565133491 0
80 1.12888467340057 0.31235319745830348 0
81 1.865507812499859 0.3200911458330773 0
82 1.685241282721649 0.86692178893684391 0
83 1.3142663591209449 0.86440924769123328 0
84 1.603194249973839 0.58878810534643122 0
85 1.3563751643673361 0.48428212212188232 0
$EndNodes
$Elements
173
1 2 2 1 1 41 36 48
2 2 2 1 1 41 48 49
3 2 2 1 1 40 37 49
4 2 2 1 1 40 49 51
5 2 2 1 1 48 43 50
6 2 2 1 1 43 38 50
7 2 2 1 1 50 42 51
8 2 2 1 1 42 39 51
9 2 2 1 1 20 21 43
10 2 2 1 1 16 17 41
11 2 2 1 1 8 9 42
12 2 2 1 1 12 13 40
13 2 2 1 1 4 19 44
14 2 2 1 1 3 15 45
15 2 2 1 1 18 4 44
16 2 2 1 1 1 7 46
17 2 2 1 1 22 1 46
18 2 2 1 1 14 3 45
19 2 2 1 1 2 11 47
20 2 2 1 1 10 2 47
21 2 2 1 1 20 43 55
22 2 2 1 1 16 41 57
23 2 2 1 1 8 42 58
24 2 2 1 1 12 40 59
25 2 2 1 1 40 39 59
26 2 2 1 1 41 37 57
27 2 2 1 1 37 40 54
28 2 2 1 1 42 38 58
29 2 2 1 1 43 36 55
30 2 2 1 1 40 13 54
31 2 2 1 1 39 42 56
32 2 2 1 1 42 9 56
33 2 2 1 1 41 17 52
34 2 2 1 1 36 41 52
35 2 2 1 1 43 21 53
36 2 2 1 1 38 43 53
37 2 2 1 1 49 35 51
38 2 2 1 1 35 50 51
39 2 2 1 1 39 40 51
40 2 2 1 1 37 41 49
41 2 2 1 1 38 42 50
42 2 2 1 1 36 43 48
43 2 2 1 1 48 35 49
44 2 2 1 1 35 48 50
45 2 2 1 1 17 18 52
46 2 2 1 1 19 20 55
47 2 2 1 1 21 22 53
48 2 2 1 1 15 16 57
49 2 2 1 1 13 14 54
50 2 2 1 1 7 8 58
51 2 2 1 1 9 10 56
52 2 2 1 1 11 12 59
53 2 2 1 1 44 19 55
54 2 2 1 1 45 15 57
55 2 2 1 1 18 44 52
56 2 2 1 1 46 7 58
57 2 2 1 1 22 46 53
58 2 2 1 1 14 45 54
59 2 2 1 1 47 11 59
60 2 2 1 1 10 47 56
61 2 2 1 1 44 36 52
62 2 2 1 1 45 37 54
63 2 2 1 1 46 38 53
64 2 2 1 1 36 44 55
65 2 2 1 1 37 45 57
66 2 2 1 1 47 39 56
67 2 2 1 1 38 46 58
68 2 2 1 1 39 47 59
69 2 2 2 2 65 62 74
70 2 2 2 2 73 65 74
71 2 2 2 2 13 12 67
72 2 2 2 2 28 29 66
73 2 2 2 2 24 25 65
74 2 2 2 2 32 33 68
75 2 2 2 2 64 68 84
76 2 2 2 2 63 67 85
77 2 2 2 2 68 75 84
78 2 2 2 2 75 63 85
79 2 2 2 2 11 2 69
80 2 2 2 2 5 27 70
81 2 2 2 2 2 23 69
82 2 2 2 2 26 5 70
83 2 2 2 2 6 31 72
84 2 2 2 2 34 3 71
85 2 2 2 2 3 14 71
86 2 2 2 2 30 6 72
87 2 2 2 2 67 61 85
88 2 2 2 2 28 66 81
89 2 2 2 2 67 12 80
90 2 2 2 2 66 62 81
91 2 2 2 2 61 67 80
92 2 2 2 2 62 65 79
93 2 2 2 2 65 61 78
94 2 2 2 2 65 25 79
95 2 2 2 2 24 65 78
96 2 2 2 2 68 33 83
97 2 2 2 2 32 68 82
98 2 2 2 2 13 67 76
99 2 2 2 2 66 29 77
100 2 2 2 2 63 68 83
101 2 2 2 2 68 64 82
102 2 2 2 2 67 63 76
103 2 2 2 2 64 66 77
104 2 2 2 2 66 64 84
105 2 2 2 2 61 65 73
106 2 2 2 2 62 66 74
107 2 2 2 2 68 63 75
108 2 2 2 2 60 73 74
109 2 2 2 2 12 11 80
110 2 2 2 2 27 28 81
111 2 2 2 2 23 24 78
112 2 2 2 2 25 26 79
113 2 2 2 2 14 13 76
114 2 2 2 2 29 30 77
115 2 2 2 2 33 34 83
116 2 2 2 2 31 32 82
117 2 2 2 2 75 60 84
118 2 2 2 2 61 73 85
119 2 2 2 2 74 66 84
120 2 2 2 2 60 75 85
121 2 2 2 2 11 69 80
122 2 2 2 2 70 27 81
123 2 2 2 2 69 23 78
124 2 2 2 2 26 70 79
125 2 2 2 2 72 31 82
126 2 2 2 2 34 71 83
127 2 2 2 2 71 14 76
128 2 2 2 2 30 72 77
129 2 2 2 2 70 62 79
130 2 2 2 2 61 69 78
131 2 2 2 2 63 71 76
132 2 2 2 2 72 64 77
133 2 2 2 2 62 70 81
134 2 2 2 2 69 61 80
135 2 2 2 2 64 72 82
136 2 2 2 2 71 63 83
137 2 2 2 2 60 74 84
138 2 2 2 2 73 60 85
139 1 2 3 3 4 19
140 1 2 3 3 19 20
141 1 2 3 3 20 21
142 1 2 3 3 21 22
143 1 2 3 3 22 1
144 1 2 4 4 2 11
145 1 2 4 4 11 12
146 1 2 4 4 12 13
147 1 2 4 4 13 14
148 1 2 4 4 14 3
149 1 2 5 5 1 7
150 1 2 5 5 7 8
151 1 2 5 5 8 9
152 1 2 5 5 9 10
153 1 2 5 5 10 2
154 1 2 5 5 2 23
155 1 2 5 5 23 24
156 1 2 5 5 24 25
157 1 2 5 5 25 26
158 1 2 5 5 26 5
159 1 2 6 6 3 15
160 1 2 6 6 15 16
161 1 2 6 6 16 17
162 1 2 6 6 17 18
163 1 2 6 6 18 4
164 1 2 6 6 6 31
165 1 2 6 6 31 32
166 1 2 6 6 32 33
167 1 2 6 6 33 34
168 1 2 6 6 34 3
169 1 2 7 7 5 27
170 1 2 7 7 27 28
171 1 2 7 7 28 29
172 1 2 7 7 29 30
173 1 2 7 7 30 6
$EndElements
