$MeshFormat
2.2 0 8
$EndMeshFormat
$PhysicalNames
3
1 1 "Bord"
2 2 "Vide"
2 3 "Metamateriau"
$EndPhysicalNames
$Nodes
286
1 0 0 0
2 0 0.7928932200000003 0
3 -2 -1.20710678 0
4 2 -1.20710678 0
5 0 -3.207106779 0
6 -0.323443287 -1.20710678 0
7 0.323443287 -1.20710678 0
8 0 -1.530550067 0
9 -0.006963973394779319 -0.02598990252216219 0
10 -0.01527740085757818 -0.05701603618677187 0
11 -0.0252017773220427 -0.09405431337175343 0
12 -0.03704926738858801 -0.1382697482257453 0
13 -0.0511925217203818 -0.1910530919566438 0
14 -0.0680764079463852 -0.2540646131577541 0
15 -0.08823199841799501 -0.3292863008262435 0
16 -0.1122932709578038 -0.4190841924060155 0
17 -0.141017057789631 -0.5262828242081133 0
18 -0.1753068396300863 -0.6542540321693237 0
19 -0.2162411857509245 -0.8070230916098139 0
20 -0.2651076553263466 -0.9893952387836575 0
21 0.2651076553267149 -0.989395238785032 0
22 0.2162411857515911 -0.8070230916123016 0
23 0.1753068396309386 -0.6542540321725048 0
24 0.1410170577903764 -0.5262828242108953 0
25 0.1122932709583469 -0.4190841924080422 0
26 0.08823199841838061 -0.3292863008276826 0
27 0.06807640794665054 -0.2540646131587444 0
28 0.05119252172055477 -0.1910530919572893 0
29 0.03704926738869696 -0.1382697482261519 0
30 0.02520177732211404 -0.09405431337201975 0
31 0.01527740085761853 -0.05701603618692253 0
32 0.006963973394795486 -0.02598990252222255 0
33 -0.4450418679114513 0.742749044363916 0
34 -0.8677674782329768 0.5948309558058686 0
35 -1.246979603714757 0.3565561849382206 0
36 -1.563662964934045 0.03987282371999279 0
37 -1.801937735803954 -0.3393393017630483 0
38 -1.949855824363476 -0.7620649120866216 0
39 -1.949855824363962 -1.65214864791125 0
40 -1.801937735805916 -2.074874258232878 0
41 -1.563662964937972 -2.454086383715069 0
42 -1.246979603719959 -2.770769744934072 0
43 -0.867767478236796 -3.009044515804029 0
44 -0.4450418679133403 -3.156962604363485 0
45 0.445041867688945 -3.156962603388985 0
46 0.8677674777991102 -3.009044514904891 0
47 1.246979603091257 -2.770769744156397 0
48 1.563662964152215 -2.454086383096502 0
49 1.801937734902958 -2.074874257803125 0
50 1.949855823388516 -1.652148647691 0
51 1.949855824363929 -0.7620649120886043 0
52 1.801937735805874 -0.3393393017670351 0
53 1.563662964938213 0.03987282371476697 0
54 1.246979603719962 0.3565561849340697 0
55 0.8677674782368936 0.5948309558039824 0
56 0.4450418679133598 0.7427490443634805 0
57 -0.2801101032258577 -1.368828423499452 0
58 -0.1617216435005585 -1.487216883225219 0
59 0.1617216434995788 -1.487216883225784 0
60 0.2801101032254164 -1.368828423500216 0
61 -0.7022566121948749 -0.05036876706898805 0
62 0.7195676332759445 -0.02836896552970763 0
63 0.9107039804995173 -0.7186752856352172 0
64 1.069283629742826 -1.478608419453698 0
65 -0.9107039804977469 -0.7186752856336216 0
66 -1.059340297704771 -1.506534666465268 0
67 0.3578816456054714 0.08421675886204094 0
68 -0.3570055131904633 0.08307106695279502 0
69 -0.3261228877782767 -2.292923745781494 0
70 0.6029697802473128 -2.200248902799319 0
71 0.3782883402472872 -0.2134621429035123 0
72 -0.3782883402462113 -0.2134621429027112 0
73 -0.6075781083862518 -1.814684888383851 0
74 0.4264914734982564 -0.5187138927743735 0
75 -0.4264914734959689 -0.5187138927719719 0
76 -0.1901389847061093 0.03049132948469982 0
77 -0.1904937317483916 -0.1296344687638452 0
78 0.1922444846083896 0.03442724267137875 0
79 0.195696110179916 -0.1240469634571736 0
80 0.201569657197535 -1.959374981927707 0
81 -0.02774346424163492 0.3777463045059339 0
82 0.6231532522798878 -1.714947927005968 0
83 -0.1794082890380065 -1.876667629986172 0
84 -0.6811523974353652 -1.396161602305503 0
85 -0.5325466189823457 -0.8390651571834795 0
86 0.5326085211779333 -0.8058947461189081 0
87 0.7372685232550389 -1.188692587809791 0
88 -0.1180154077187502 -0.05637018537823562 0
89 0.1190134095408306 -0.04906880934640833 0
90 1.370087524149517 -1.01352484256195 0
91 -1.394921407814613 -1.023398088239962 0
92 -1.131441891821335 -2.065869837925282 0
93 0.2185139618236999 -2.464584740838207 0
94 0.05534510126374999 0.2011542476835056 0
95 0.3247204743191521 0.4055532920248291 0
96 1.017171463717628 -2.011776672320668 0
97 0.08329911164520049 0.01207181279779717 0
98 -0.08039389376566348 0.01023415734813886 0
99 0.2024919315915825 -0.2583592630648338 0
100 -0.2024919315906599 -0.2583592630637792 0
101 1.161105354650544 -0.2739131095087506 0
102 -1.161105354650141 -0.2739131095081019 0
103 -0.0243674724052585 0.1247241110737625 0
104 -0.1930862686466655 0.2994883500970419 0
105 -0.9463832035801317 -1.118309618700097 0
106 -0.8045900458710038 -2.464299092320935 0
107 -0.5978348041395661 -1.105225009926443 0
108 0.7801085745515178 -0.3927474676033162 0
109 -0.7801085745490424 -0.3927474676025177 0
110 0.2969955125114892 -0.4221207302654429 0
111 -0.2960918243847364 -0.4209671473231328 0
112 -0.3962382191605327 -1.648518519600437 0
113 0.5576023418051537 -1.360007285603097 0
114 0.6125055916776588 0.3232092953700086 0
115 1.453181032311259 -1.751098310215459 0
116 -1.536312435582664 -1.732218533206506 0
117 -0.1619557735059859 -2.834240036218646 0
118 0.4058712133799587 -1.601001405140418 0
119 -0.556622368425549 0.4186882091932802 0
120 0.5560741776072149 -2.697506634668269 0
121 0.1392707206558753 -1.726872185496025 0
122 0.3654118100122546 -0.6851842510774636 0
123 -0.3607093636059038 -0.694048093057309 0
124 1.063337223580107 -2.394328822520597 0
125 0.4946355488366152 -1.033521680424777 0
126 1.296540568514386 -0.6262241490198813 0
127 -1.263839131394244 -0.6449023549149021 0
128 1.033390945443526 -1.026236985424957 0
129 -0.1168999182853779 -0.1348343302757503 0
130 0.1170460203253387 -0.1337275342579036 0
131 0.2279664912858209 0.2011142659938359 0
132 -0.03996079226026751 -2.15313555363109 0
133 -0.6236454546863323 -2.17223735651737 0
134 0.2721754910196237 -0.547920581152558 0
135 -0.2719319115926524 -0.5472223295053407 0
136 -0.04947218760582615 -0.03122671576858357 0
137 0.0511668498027061 -0.03109282396043482 0
138 0.03255842058111165 0.06739089210566628 0
139 -0.4878446542398363 -1.320516429330336 0
140 0.5639403789206942 -0.2769169232281047 0
141 -0.56394037891913 -0.2769169232270315 0
142 1.40680147559204 -1.388228246268717 0
143 -0.9375043559925489 -1.798470377532445 0
144 0.6818319809794349 -0.6468322143712925 0
145 -0.681694015187469 -0.6469025454971207 0
146 0.7810859022891629 -1.490668158281347 0
147 -1.387096262685358 -1.407011443816704 0
148 0.07401415379243277 -0.1052791515473943 0
149 -0.0738870311409501 -0.1062133928859979 0
150 0.1817013943307042 -0.3523637967309506 0
151 -0.181701394329796 -0.3523637967293366 0
152 0.179853872586017 -2.820872385513446 0
153 -0.1575700024014822 -1.67965487783952 0
154 -0.452497333533097 -2.629013612970887 0
155 0.4758386211788184 -1.968902754401143 0
156 0.7432864799064965 -0.9128154010375825 0
157 1.041585236329604 0.06344933023020963 0
158 -1.041585236329458 0.06344933023088722 0
159 -0.7839036824381703 -0.9288036362749876 0
160 1.35670374594058 -2.087978444503618 0
161 -0.2948503254794212 -0.03482202409394758 0
162 -0.482630392037769 -0.05982823394146446 0
163 -0.5648380437857429 0.1555124260982882 0
164 0.294850325479584 -0.0348220240938974 0
165 0.4789495682043909 -0.06303709178266309 0
166 0.1124326679722939 -0.2084116166599036 0
167 -0.1175372829275039 -0.2038237054572368 0
168 -0.4161841507514482 -2.002422808052591 0
169 0.9016022897400071 -1.731974462756308 0
170 0.3191714209343222 -2.199014276416011 0
171 0.0331194094885541 0.001250059958208949 0
172 -0.03200538555969388 -0.00108338686357303 0
173 -0.03155750171061798 0.04909311180299571 0
174 -0.1030655499798332 0.08194343776907606 0
175 0.1160016052516231 0.09403438096922727 0
176 0.05441178047954288 -0.06740239303836558 0
177 -0.05426176388299212 -0.06850047535429415 0
178 -1.100183463673853 -0.9293325089336631 0
179 0.7494868402421992 -1.973410386727259 0
180 -1.166435187538363 -2.350465900455015 0
181 0.3340121311768148 -1.799289254897842 0
182 -0.2279572096480066 0.5106565856546613 0
183 -0.4249857059679032 -1.044041092028174 0
184 -0.7784030353881849 -1.576620619269703 0
185 0.3744040303665288 -0.8636655776429757 0
186 -0.3655503872379489 -0.8693890935656776 0
187 1.1672925095472 -1.737905407204007 0
188 1.602371219563258 -0.7253441232035905 0
189 -1.601082122068011 -0.735020564346204 0
190 -1.41391807686517 -2.073085598966133 0
191 0.9779202012538988 -1.27517611777047 0
192 1.483638004491763 -0.3829674480688522 0
193 -1.477306936982912 -0.3830601852869318 0
194 0.2041614115694552 -0.4519157719574157 0
195 -0.2041614115683364 -0.4519157719551387 0
196 0.9228598077435893 -0.1802473476182622 0
197 -0.9228598077427925 -0.1802473476185727 0
198 -0.8940892639083378 -1.329595173798281 0
199 -1.668368153401846 -1.143974286311604 0
200 0.1421849061638311 0.3515283706504736 0
201 -1.228703626272192 -1.747903227378399 0
202 1.671690244979195 -1.144966732034631 0
203 -0.8354048615090608 0.2688485953861087 0
204 -1.142091730081252 -1.229516941475325 0
205 1.028370807900565 -0.4953161120138855 0
206 -1.018354121456391 -0.4864132294920475 0
207 -0.1346346267496585 -0.2765415731032725 0
208 0.134634626750242 -0.2765415731044181 0
209 0.01850344826240893 -1.88382955168951 0
210 -0.4236244631729663 -0.3631883119439668 0
211 0.4237248729664294 -0.3633164878276694 0
212 -0.09242762309799352 -2.526538436869826 0
213 -0.5397443987912127 -1.49971358808176 0
214 0.2000438582835238 -0.04349551298230095 0
215 -0.1992294099458191 -0.04373126183367852 0
216 -0.8737740012294937 -2.092544126389126 0
217 0.4960735962875518 -1.215629213522654 0
218 -0.3268153493718475 -1.504875353844471 0
219 -0.07827162338756134 0.2174990303355317 0
220 0.5680471933829493 -1.537287224237237 0
221 0.1168488655989576 0.5495445051377276 0
222 0.4814552801272545 -2.408595418209067 0
223 0.5240639886868894 0.1100553646465566 0
224 0.4169611873016698 -1.445931572410403 0
225 0.2855796474943903 -0.307407326835009 0
226 -0.2854680810578984 -0.307264909186775 0
227 -0.3663851086207675 -1.810403870871489 0
228 1.18935847138864 -1.231680701837265 0
229 1.669139217965821 -1.539097029704957 0
230 0.8914895610197305 -2.674669462273264 0
231 0.4098800838661437 0.2360006734054223 0
232 -0.3940110341771357 0.2698437432809808 0
233 0.258112824751248 -1.620006654324354 0
234 -1.690012906633561 -1.454105742574705 0
235 -0.7465710333848051 -1.216605979704419 0
236 0.7393394054605907 -2.432126625599985 0
237 -0.2106816574030153 0.1589114427978268 0
238 0.5215717011538004 -0.6350434884436266 0
239 -0.5204385661345132 -0.6536925015342141 0
240 0.842220645677734 -2.203375422913381 0
241 0.2696191571464447 -0.1876347413958719 0
242 -0.269619157145469 -0.1876347413953217 0
243 0.9017720044169347 0.2772823219083907 0
244 -0.4597870187837197 -1.17859617665834 0
245 0.4001913544786175 -1.314337730250628 0
246 1.128956620770113 -0.8067979602581279 0
247 -0.2264840578679794 -2.073814033028883 0
248 -0.07825114187014638 -0.155254370979876 0
249 0.07612701702552747 -0.1560854054195861 0
250 -0.7330069182014444 -2.757722725355041 0
251 0.2894754841780742 -1.496582264178733 0
252 0.01145716923766009 -1.669982678641953 0
253 0.5789679616662748 -0.4721644321855649 0
254 -0.5788155715971453 -0.4742301175547002 0
255 -0.5267315087212084 -2.388597353060967 0
256 0.01125843757339377 -1.215220308120641 0
257 -4.812196167684896e-13 -0.9486268492599315 0
258 -0.004511449028363515 -0.6469939647599237 0
259 -3.924615949870702e-13 -0.401050538621703 0
260 -6.712271842920781e-14 -0.3181210425802715 0
261 -7.141645600716972e-14 -0.2326805973848337 0
262 0.04069843261532896 -0.7996966530715339 0
263 -4.226228834465133e-14 -0.1716976779571057 0
264 0.027246057173156 -0.534985767669902 0
265 -0.149577052270493 -1.145444621094641 0
266 0.1617216434999997 -1.133768700481839 0
267 -7.205406668766817e-14 -0.0444827484903 0
268 0.04333318377432806 -1.3688284235 0
269 -0.1183311334449203 -1.321728823434804 0
270 -0.08637021025803174 -0.752767463570385 0
271 -3.022865727562585e-14 -0.1215248770229307 0
272 0.1617216434999087 -1.290687963823944 0
273 -0.04642191549217117 -0.4706219613565997 0
274 -3.443368275698096e-14 -0.0838718239107923 0
275 0.1214524554710124 -0.9400210889461764 0
276 -0.1043194941852098 -0.877331472754044 0
277 -0.1066765895896193 -1.005025829218022 0
278 0.01460224433122897 -1.066879821364084 0
279 -0.06408466082930502 -0.5647853831180323 0
280 0.08829511807357061 -0.6115529438565124 0
281 0.04920854422805023 -0.4545504481154538 0
282 0.06018449088859523 -0.3849241528871619 0
283 -0.06018449088843898 -0.3849241528853464 0
284 0.09309512340325074 -0.7041553295260881 0
285 -0.2168353131339134 -1.253621268888661 0
286 -0.05918467548286225 -1.427394917314267 0
$EndNodes
$Elements
570
1 1 2 1 12 2 33
2 1 2 1 12 33 34
3 1 2 1 12 34 35
4 1 2 1 12 35 36
5 1 2 1 12 36 37
6 1 2 1 12 37 38
7 1 2 1 12 38 3
8 1 2 1 13 3 39
9 1 2 1 13 39 40
10 1 2 1 13 40 41
11 1 2 1 13 41 42
12 1 2 1 13 42 43
13 1 2 1 13 43 44
14 1 2 1 13 44 5
15 1 2 1 14 5 45
16 1 2 1 14 45 46
17 1 2 1 14 46 47
18 1 2 1 14 47 48
19 1 2 1 14 48 49
20 1 2 1 14 49 50
21 1 2 1 14 50 4
22 1 2 1 15 4 51
23 1 2 1 15 51 52
24 1 2 1 15 52 53
25 1 2 1 15 53 54
26 1 2 1 15 54 55
27 1 2 1 15 55 56
28 1 2 1 15 56 2
29 2 2 2 20 1 171 138
30 2 2 2 20 48 160 124
31 2 2 2 20 7 125 21
32 2 2 2 20 53 157 101
33 2 2 2 20 36 102 158
34 2 2 2 20 77 167 129
35 2 2 2 20 130 166 79
36 2 2 2 20 88 98 76
37 2 2 2 20 89 78 97
38 2 2 2 20 112 153 218
39 2 2 2 20 107 139 244
40 2 2 2 20 79 166 99
41 2 2 2 20 77 100 167
42 2 2 2 20 87 156 125
43 2 2 2 20 44 117 154
44 2 2 2 20 47 48 124
45 2 2 2 20 96 124 160
46 2 2 2 20 56 95 114
47 2 2 2 20 120 222 93
48 2 2 2 20 108 62 140
49 2 2 2 20 109 141 61
50 2 2 2 20 49 229 115
51 2 2 2 20 80 132 170
52 2 2 2 20 59 8 252
53 2 2 2 20 87 125 217
54 2 2 2 20 85 107 183
55 2 2 2 20 23 22 122
56 2 2 2 20 19 18 123
57 2 2 2 20 57 139 218
58 2 2 2 20 106 216 180
59 2 2 2 20 71 140 165
60 2 2 2 20 72 162 141
61 2 2 2 20 112 213 73
62 2 2 2 20 89 148 130
63 2 2 2 20 88 129 149
64 2 2 2 20 42 250 106
65 2 2 2 20 86 156 144
66 2 2 2 20 87 128 156
67 2 2 2 20 44 154 250
68 2 2 2 20 86 125 156
69 2 2 2 20 87 113 146
70 2 2 2 20 107 235 139
71 2 2 2 20 112 227 153
72 2 2 2 20 96 240 124
73 2 2 2 20 42 106 180
74 2 2 2 20 84 139 235
75 2 2 2 20 105 159 178
76 2 2 2 20 120 93 152
77 2 2 2 20 93 170 132
78 2 2 2 20 58 218 153
79 2 2 2 20 92 180 216
80 2 2 2 20 59 252 121
81 2 2 2 20 38 199 189
82 2 2 2 20 46 120 45
83 2 2 2 20 9 136 10
84 2 2 2 20 32 31 137
85 2 2 2 20 59 121 233
86 2 2 2 20 159 65 178
87 2 2 2 20 64 187 142
88 2 2 2 20 39 40 116
89 2 2 2 20 145 159 85
90 2 2 2 20 51 188 202
91 2 2 2 20 45 120 152
92 2 2 2 20 140 62 165
93 2 2 2 20 141 162 61
94 2 2 2 20 93 212 152
95 2 2 2 20 49 50 229
96 2 2 2 20 85 159 107
97 2 2 2 20 53 101 192
98 2 2 2 20 36 193 102
99 2 2 2 20 184 73 213
100 2 2 2 20 44 5 117
101 2 2 2 20 81 221 182
102 2 2 2 20 139 213 218
103 2 2 2 20 71 164 241
104 2 2 2 20 72 242 161
105 2 2 2 20 85 183 186
106 2 2 2 20 78 131 175
107 2 2 2 20 114 62 243
108 2 2 2 20 54 157 53
109 2 2 2 20 36 158 35
110 2 2 2 20 63 108 144
111 2 2 2 20 109 65 145
112 2 2 2 20 106 133 216
113 2 2 2 20 56 114 55
114 2 2 2 20 63 156 128
115 2 2 2 20 30 29 148
116 2 2 2 20 12 11 149
117 2 2 2 20 136 88 177
118 2 2 2 20 89 137 176
119 2 2 2 20 57 6 139
120 2 2 2 20 23 122 134
121 2 2 2 20 18 135 123
122 2 2 2 20 71 165 164
123 2 2 2 20 72 161 162
124 2 2 2 20 89 130 79
125 2 2 2 20 77 129 88
126 2 2 2 20 82 118 181
127 2 2 2 20 87 191 128
128 2 2 2 20 84 198 184
129 2 2 2 20 114 223 62
130 2 2 2 20 133 69 168
131 2 2 2 20 96 160 187
132 2 2 2 20 3 199 38
133 2 2 2 20 117 152 212
134 2 2 2 20 1 173 172
135 2 2 2 20 133 73 216
136 2 2 2 20 87 146 191
137 2 2 2 20 157 243 62
138 2 2 2 20 49 115 160
139 2 2 2 20 20 183 6
140 2 2 2 20 51 202 4
141 2 2 2 20 63 144 156
142 2 2 2 20 87 217 113
143 2 2 2 20 93 132 212
144 2 2 2 20 92 190 180
145 2 2 2 20 5 152 117
146 2 2 2 20 23 134 24
147 2 2 2 20 17 135 18
148 2 2 2 20 67 131 78
149 2 2 2 20 147 201 66
150 2 2 2 20 95 231 114
151 2 2 2 20 39 116 234
152 2 2 2 20 21 125 185
153 2 2 2 20 184 198 66
154 2 2 2 20 154 212 69
155 2 2 2 20 133 168 73
156 2 2 2 20 71 211 140
157 2 2 2 20 72 141 210
158 2 2 2 20 127 65 206
159 2 2 2 20 91 189 199
160 2 2 2 20 68 76 237
161 2 2 2 20 68 161 76
162 2 2 2 20 67 78 164
163 2 2 2 20 58 153 8
164 2 2 2 20 115 187 160
165 2 2 2 20 127 178 65
166 2 2 2 20 107 159 235
167 2 2 2 20 143 216 73
168 2 2 2 20 88 136 98
169 2 2 2 20 89 97 137
170 2 2 2 20 190 92 201
171 2 2 2 20 115 142 187
172 2 2 2 20 108 196 62
173 2 2 2 20 109 61 197
174 2 2 2 20 74 110 134
175 2 2 2 20 75 135 111
176 2 2 2 20 97 138 171
177 2 2 2 20 78 175 97
178 2 2 2 20 90 202 188
179 2 2 2 20 41 180 190
180 2 2 2 20 143 184 66
181 2 2 2 20 94 175 131
182 2 2 2 20 80 209 132
183 2 2 2 20 7 217 125
184 2 2 2 20 98 174 76
185 2 2 2 20 163 203 61
186 2 2 2 20 132 69 212
187 2 2 2 20 43 250 42
188 2 2 2 20 145 65 159
189 2 2 2 20 80 170 155
190 2 2 2 20 83 132 209
191 2 2 2 20 82 181 155
192 2 2 2 20 158 61 203
193 2 2 2 20 40 190 116
194 2 2 2 20 25 150 26
195 2 2 2 20 15 151 16
196 2 2 2 20 105 178 204
197 2 2 2 20 63 205 108
198 2 2 2 20 109 206 65
199 2 2 2 20 190 201 116
200 2 2 2 20 94 138 175
201 2 2 2 20 69 247 168
202 2 2 2 20 79 241 164
203 2 2 2 20 77 161 242
204 2 2 2 20 105 235 159
205 2 2 2 20 91 204 178
206 2 2 2 20 122 74 134
207 2 2 2 20 75 123 135
208 2 2 2 20 143 73 184
209 2 2 2 20 22 185 122
210 2 2 2 20 19 123 186
211 2 2 2 20 88 149 177
212 2 2 2 20 89 176 148
213 2 2 2 20 44 250 43
214 2 2 2 20 24 134 194
215 2 2 2 20 17 195 135
216 2 2 2 20 90 126 246
217 2 2 2 20 33 34 119
218 2 2 2 20 86 185 125
219 2 2 2 20 63 128 246
220 2 2 2 20 126 101 205
221 2 2 2 20 102 127 206
222 2 2 2 20 5 45 152
223 2 2 2 20 68 237 232
224 2 2 2 20 1 138 173
225 2 2 2 20 90 246 128
226 2 2 2 20 117 212 154
227 2 2 2 20 112 73 227
228 2 2 2 20 91 178 127
229 2 2 2 20 116 201 147
230 2 2 2 20 83 247 132
231 2 2 2 20 104 81 182
232 2 2 2 20 82 155 179
233 2 2 2 20 52 192 188
234 2 2 2 20 37 189 193
235 2 2 2 20 64 191 146
236 2 2 2 20 30 148 176
237 2 2 2 20 11 177 149
238 2 2 2 20 39 234 3
239 2 2 2 20 64 146 169
240 2 2 2 20 49 160 48
241 2 2 2 20 4 202 229
242 2 2 2 20 4 229 50
243 2 2 2 20 51 52 188
244 2 2 2 20 37 38 189
245 2 2 2 20 82 169 146
246 2 2 2 20 113 220 146
247 2 2 2 20 64 142 228
248 2 2 2 20 153 209 252
249 2 2 2 20 79 99 241
250 2 2 2 20 77 242 100
251 2 2 2 20 133 255 69
252 2 2 2 20 157 62 196
253 2 2 2 20 158 197 61
254 2 2 2 20 98 172 173
255 2 2 2 20 13 167 14
256 2 2 2 20 27 166 28
257 2 2 2 20 21 185 22
258 2 2 2 20 19 186 20
259 2 2 2 20 103 219 174
260 2 2 2 20 74 211 110
261 2 2 2 20 75 111 210
262 2 2 2 20 83 153 227
263 2 2 2 20 32 137 171
264 2 2 2 20 9 172 136
265 2 2 2 20 1 32 171
266 2 2 2 20 9 1 172
267 2 2 2 20 104 182 232
268 2 2 2 20 155 170 70
269 2 2 2 20 3 234 199
270 2 2 2 20 68 163 162
271 2 2 2 20 84 184 213
272 2 2 2 20 68 162 161
273 2 2 2 20 67 164 165
274 2 2 2 20 90 188 126
275 2 2 2 20 91 127 189
276 2 2 2 20 92 143 201
277 2 2 2 20 112 218 213
278 2 2 2 20 126 192 101
279 2 2 2 20 102 193 127
280 2 2 2 20 46 230 120
281 2 2 2 20 42 180 41
282 2 2 2 20 82 179 169
283 2 2 2 20 147 66 204
284 2 2 2 20 33 182 2
285 2 2 2 20 24 194 25
286 2 2 2 20 17 16 195
287 2 2 2 20 20 186 183
288 2 2 2 20 37 193 36
289 2 2 2 20 52 53 192
290 2 2 2 20 126 188 192
291 2 2 2 20 127 193 189
292 2 2 2 20 34 35 203
293 2 2 2 20 85 186 123
294 2 2 2 20 86 122 185
295 2 2 2 20 80 155 181
296 2 2 2 20 74 253 211
297 2 2 2 20 75 210 254
298 2 2 2 20 15 14 207
299 2 2 2 20 27 26 208
300 2 2 2 20 99 166 208
301 2 2 2 20 167 100 207
302 2 2 2 20 91 147 204
303 2 2 2 20 143 66 201
304 2 2 2 20 121 80 181
305 2 2 2 20 47 124 230
306 2 2 2 20 103 138 94
307 2 2 2 20 26 150 208
308 2 2 2 20 15 207 151
309 2 2 2 20 41 190 40
310 2 2 2 20 10 177 11
311 2 2 2 20 30 176 31
312 2 2 2 20 56 2 221
313 2 2 2 20 63 246 205
314 2 2 2 20 6 244 139
315 2 2 2 20 132 247 69
316 2 2 2 20 108 205 196
317 2 2 2 20 109 197 206
318 2 2 2 20 89 79 214
319 2 2 2 20 77 88 215
320 2 2 2 20 161 215 76
321 2 2 2 20 78 214 164
322 2 2 2 20 77 215 161
323 2 2 2 20 79 164 214
324 2 2 2 20 86 144 238
325 2 2 2 20 145 85 239
326 2 2 2 20 90 128 228
327 2 2 2 20 104 232 237
328 2 2 2 20 35 158 203
329 2 2 2 20 155 70 179
330 2 2 2 20 2 182 221
331 2 2 2 20 219 237 174
332 2 2 2 20 110 194 134
333 2 2 2 20 135 195 111
334 2 2 2 20 82 146 220
335 2 2 2 20 83 209 153
336 2 2 2 20 25 194 150
337 2 2 2 20 16 151 195
338 2 2 2 20 126 205 246
339 2 2 2 20 64 228 191
340 2 2 2 20 121 209 80
341 2 2 2 20 94 81 219
342 2 2 2 20 99 225 241
343 2 2 2 20 100 242 226
344 2 2 2 20 29 249 148
345 2 2 2 20 12 149 248
346 2 2 2 20 82 220 118
347 2 2 2 20 98 173 174
348 2 2 2 20 10 136 177
349 2 2 2 20 31 176 137
350 2 2 2 20 90 142 202
351 2 2 2 20 104 219 81
352 2 2 2 20 55 243 54
353 2 2 2 20 88 76 215
354 2 2 2 20 89 214 78
355 2 2 2 20 110 150 194
356 2 2 2 20 111 195 151
357 2 2 2 20 106 255 133
358 2 2 2 20 72 210 226
359 2 2 2 20 71 225 211
360 2 2 2 20 64 169 187
361 2 2 2 20 47 230 46
362 2 2 2 20 91 199 147
363 2 2 2 20 90 228 142
364 2 2 2 20 119 232 182
365 2 2 2 20 119 203 163
366 2 2 2 20 34 203 119
367 2 2 2 20 154 69 255
368 2 2 2 20 101 157 196
369 2 2 2 20 102 197 158
370 2 2 2 20 28 166 249
371 2 2 2 20 13 248 167
372 2 2 2 20 8 153 252
373 2 2 2 20 85 123 239
374 2 2 2 20 86 238 122
375 2 2 2 20 29 28 249
376 2 2 2 20 12 248 13
377 2 2 2 20 140 211 253
378 2 2 2 20 141 254 210
379 2 2 2 20 97 175 138
380 2 2 2 20 56 221 95
381 2 2 2 20 57 218 58
382 2 2 2 20 111 226 210
383 2 2 2 20 110 211 225
384 2 2 2 20 68 232 163
385 2 2 2 20 121 181 233
386 2 2 2 20 73 168 227
387 2 2 2 20 92 216 143
388 2 2 2 20 105 204 198
389 2 2 2 20 27 208 166
390 2 2 2 20 14 167 207
391 2 2 2 20 162 163 61
392 2 2 2 20 198 204 66
393 2 2 2 20 33 119 182
394 2 2 2 20 122 238 74
395 2 2 2 20 75 239 123
396 2 2 2 20 71 241 225
397 2 2 2 20 72 226 242
398 2 2 2 20 83 227 168
399 2 2 2 20 169 179 96
400 2 2 2 20 115 229 142
401 2 2 2 20 118 233 181
402 2 2 2 20 121 252 209
403 2 2 2 20 110 225 150
404 2 2 2 20 111 151 226
405 2 2 2 20 94 200 81
406 2 2 2 20 101 196 205
407 2 2 2 20 102 206 197
408 2 2 2 20 67 165 223
409 2 2 2 20 84 213 139
410 2 2 2 20 170 93 222
411 2 2 2 20 55 114 243
412 2 2 2 20 106 154 255
413 2 2 2 20 7 60 245
414 2 2 2 20 116 147 234
415 2 2 2 20 59 251 60
416 2 2 2 20 83 168 247
417 2 2 2 20 94 131 200
418 2 2 2 20 169 96 187
419 2 2 2 20 165 62 223
420 2 2 2 20 170 222 70
421 2 2 2 20 108 253 144
422 2 2 2 20 145 254 109
423 2 2 2 20 96 179 240
424 2 2 2 20 99 208 150
425 2 2 2 20 100 151 207
426 2 2 2 20 74 238 253
427 2 2 2 20 75 254 239
428 2 2 2 20 142 229 202
429 2 2 2 20 106 250 154
430 2 2 2 20 6 183 244
431 2 2 2 20 174 237 76
432 2 2 2 20 54 243 157
433 2 2 2 20 108 140 253
434 2 2 2 20 109 254 141
435 2 2 2 20 84 235 198
436 2 2 2 20 103 94 219
437 2 2 2 20 179 70 240
438 2 2 2 20 97 171 137
439 2 2 2 20 136 172 98
440 2 2 2 20 105 198 235
441 2 2 2 20 130 249 166
442 2 2 2 20 167 248 129
443 2 2 2 20 67 231 131
444 2 2 2 20 191 228 128
445 2 2 2 20 99 150 225
446 2 2 2 20 100 226 151
447 2 2 2 20 81 200 221
448 2 2 2 20 147 199 234
449 2 2 2 20 220 224 118
450 2 2 2 20 95 200 131
451 2 2 2 20 220 113 224
452 2 2 2 20 67 223 231
453 2 2 2 20 119 163 232
454 2 2 2 20 120 230 236
455 2 2 2 20 124 236 230
456 2 2 2 20 222 236 70
457 2 2 2 20 7 245 217
458 2 2 2 20 107 244 183
459 2 2 2 20 95 221 200
460 2 2 2 20 60 251 224
461 2 2 2 20 236 240 70
462 2 2 2 20 130 148 249
463 2 2 2 20 129 248 149
464 2 2 2 20 95 131 231
465 2 2 2 20 60 224 245
466 2 2 2 20 144 253 238
467 2 2 2 20 145 239 254
468 2 2 2 20 59 233 251
469 2 2 2 20 120 236 222
470 2 2 2 20 114 231 223
471 2 2 2 20 103 174 173
472 2 2 2 20 113 217 245
473 2 2 2 20 118 224 251
474 2 2 2 20 124 240 236
475 2 2 2 20 113 245 224
476 2 2 2 20 118 251 233
477 2 2 2 20 104 237 219
478 2 2 2 20 103 173 138
479 2 2 3 21 18 258 279
480 2 2 3 21 266 275 278
481 2 2 3 21 27 260 26
482 2 2 3 21 15 260 14
483 2 2 3 21 27 261 260
484 2 2 3 21 14 260 261
485 2 2 3 21 21 275 266
486 2 2 3 21 18 270 258
487 2 2 3 21 20 6 265
488 2 2 3 21 7 21 266
489 2 2 3 21 27 28 261
490 2 2 3 21 13 14 261
491 2 2 3 21 28 263 261
492 2 2 3 21 13 261 263
493 2 2 3 21 17 18 279
494 2 2 3 21 277 265 278
495 2 2 3 21 256 278 265
496 2 2 3 21 59 272 268
497 2 2 3 21 59 60 272
498 2 2 3 21 256 265 269
499 2 2 3 21 19 20 276
500 2 2 3 21 26 260 282
501 2 2 3 21 15 283 260
502 2 2 3 21 258 262 284
503 2 2 3 21 9 267 32
504 2 2 3 21 269 265 285
505 2 2 3 21 258 270 262
506 2 2 3 21 29 263 28
507 2 2 3 21 12 13 263
508 2 2 3 21 29 271 263
509 2 2 3 21 12 263 271
510 2 2 3 21 24 25 281
511 2 2 3 21 257 278 275
512 2 2 3 21 19 270 18
513 2 2 3 21 262 276 257
514 2 2 3 21 23 284 22
515 2 2 3 21 20 277 276
516 2 2 3 21 17 273 16
517 2 2 3 21 262 270 276
518 2 2 3 21 260 259 282
519 2 2 3 21 260 283 259
520 2 2 3 21 24 281 264
521 2 2 3 21 22 284 262
522 2 2 3 21 268 256 269
523 2 2 3 21 57 58 269
524 2 2 3 21 59 268 8
525 2 2 3 21 266 256 272
526 2 2 3 21 7 266 272
527 2 2 3 21 30 271 29
528 2 2 3 21 12 271 11
529 2 2 3 21 30 274 271
530 2 2 3 21 11 271 274
531 2 2 3 21 268 272 256
532 2 2 3 21 7 272 60
533 2 2 3 21 21 22 275
534 2 2 3 21 24 264 280
535 2 2 3 21 30 31 274
536 2 2 3 21 10 11 274
537 2 2 3 21 10 31 267
538 2 2 3 21 277 278 257
539 2 2 3 21 25 26 282
540 2 2 3 21 15 16 283
541 2 2 3 21 22 262 275
542 2 2 3 21 23 24 280
543 2 2 3 21 262 257 275
544 2 2 3 21 266 278 256
545 2 2 3 21 258 280 264
546 2 2 3 21 19 276 270
547 2 2 3 21 6 285 265
548 2 2 3 21 10 274 31
549 2 2 3 21 17 279 273
550 2 2 3 21 259 273 281
551 2 2 3 21 20 265 277
552 2 2 3 21 57 269 285
553 2 2 3 21 57 285 6
554 2 2 3 21 258 264 279
555 2 2 3 21 58 8 286
556 2 2 3 21 269 286 268
557 2 2 3 21 8 268 286
558 2 2 3 21 58 286 269
559 2 2 3 21 259 283 273
560 2 2 3 21 16 273 283
561 2 2 3 21 264 281 273
562 2 2 3 21 276 277 257
563 2 2 3 21 264 273 279
564 2 2 3 21 258 284 280
565 2 2 3 21 259 281 282
566 2 2 3 21 23 280 284
567 2 2 3 21 25 282 281
568 2 2 3 21 9 10 267
569 2 2 3 21 32 267 31
570 2 2 3 21 9 32 1
$EndElements
