5 5
1.8779   -0.5583   -0.2099    0.2696    0.1097
0.9407   -0.3114   -1.6989    0.4943    1.1287
0.7873   -0.5700    0.6076   -1.4831   -0.2900
-0.8759   -1.0257   -0.1178   -1.0203    1.2616
0.3199   -0.9087    0.6992   -0.4470    0.4754
