$MeshFormat
2.2 0 8
$EndMeshFormat
$PhysicalNames
3
3 1 "Omega"
2 2 "Gamma_1"
2 3 "Gamma_2"
$EndPhysicalNames
$Nodes
45
1 0 1 2
2 0.5 1 2
3 1 1 2
4 0 1.5 2
5 0.5 1.5 2
6 1 1.5 2
7 0 2 2
8 0.5 2 2
9 1 2 2
10 0 2.5 2
11 0.5 2.5 2
12 1 2.5 2
13 0 3 2
14 0.5 3 2
15 1 3 2
16 0 1 3
17 0.5 1 3
18 1 1 3
19 0 1.5 3
20 0.5 1.5 3
21 1 1.5 3
22 0 2 3
23 0.5 2 3
24 1 2 3
25 0 2.5 3
26 0.5 2.5 3
27 1 2.5 3
28 0 3 3
29 0.5 3 3
30 1 3 3
31 0 1 4
32 0.5 1 4
33 1 1 4
34 0 1.5 4
35 0.5 1.5 4
36 1 1.5 4
37 0 2 4
38 0.5 2 4
39 1 2 4
40 0 2.5 4
41 0.5 2.5 4
42 1 2.5 4
43 0 3 4
44 0.5 3 4
45 1 3 4
$EndNodes
$Elements
28
1 5 2 1 1 1 2 5 4 16 17 20 19
2 5 2 1 1 2 3 6 5 17 18 21 20
3 5 2 1 1 4 5 8 7 19 20 23 22
4 5 2 1 1 5 6 9 8 20 21 24 23
5 5 2 1 1 7 8 11 10 22 23 26 25
6 5 2 1 1 8 9 12 11 23 24 27 26
7 5 2 1 1 10 11 14 13 25 26 29 28
8 5 2 1 1 11 12 15 14 26 27 30 29
9 5 2 1 1 16 17 20 19 31 32 35 34
10 5 2 1 1 17 18 21 20 32 33 36 35
11 5 2 1 1 19 20 23 22 34 35 38 37
12 5 2 1 1 20 21 24 23 35 36 39 38
13 5 2 1 1 22 23 26 25 37 38 41 40
14 5 2 1 1 23 24 27 26 38 39 42 41
15 5 2 1 1 25 26 29 28 40 41 44 43
16 5 2 1 1 26 27 30 29 41 42 45 44
17 3 2 2 2 1 4 5 2
18 3 2 2 2 2 5 6 3
19 3 2 2 2 4 7 8 5
20 3 2 2 2 5 8 9 6
21 3 2 2 2 7 10 11 8
22 3 2 2 2 8 11 12 9
23 3 2 2 2 10 13 14 11
24 3 2 2 2 11 14 15 12
25 3 2 3 3 14 13 28 29
26 3 2 3 3 15 14 29 30
27 3 2 3 3 29 28 43 44
28 3 2 3 3 30 29 44 45
$EndElements
