$MeshFormat
2.2 0 8
$EndMeshFormat
$PhysicalNames
2
3 1 "Omega"
2 2 "x=0"
$EndPhysicalNames
$Nodes
14
1 0 0 0
2 1 0 0
3 1 1 0
4 0 1 0
5 0 0 1
6 1 0 1
7 1 1 1
8 0 1 1
9 0.5 0.5 0
10 0.5 0.5 1
11 0.5 0 0.5
12 0.5 1 0.5
13 0 0.5 0.5
14 1 0.5 0.5
$EndNodes
$Elements
28
1 4 2 1 1 9 14 11 10
2 4 2 1 1 9 12 14 10
3 4 2 1 1 9 10 11 13
4 4 2 1 1 9 13 12 10
5 4 2 1 1 10 8 5 13
6 4 2 1 1 9 3 2 14
7 4 2 1 1 14 6 10 7
8 4 2 1 1 12 7 10 8
9 4 2 1 1 9 4 13 1
10 4 2 1 1 12 8 13 4
11 4 2 1 1 11 14 2 6
12 4 2 1 1 14 12 3 7
13 4 2 1 1 9 4 3 12
14 4 2 1 1 11 5 10 6
15 4 2 1 1 11 13 5 1
16 4 2 1 1 9 1 11 2
17 4 2 1 1 12 8 10 13
18 4 2 1 1 9 4 12 13
19 4 2 1 1 14 10 12 7
20 4 2 1 1 9 3 14 12
21 4 2 1 1 11 10 14 6
22 4 2 1 1 11 13 10 5
23 4 2 1 1 9 2 11 14
24 4 2 1 1 9 13 11 1
25 2 2 2 2 2 1 9
26 2 2 2 2 1 4 9
27 2 2 2 2 9 3 2
28 2 2 2 2 9 4 3
$EndElements
