\begin{tikzpicture}[font=\tiny]
\umlclass{IntgBilinearForm}{const Domain* domain\_p \\ const OperatorOnUnknown* opu\_p \\ const OperatorOnUnknown* opv\_p \\ AlgebraicOperator aop\_ \\ std::map<Number, Quadrature*> quadratures\_}{}
\umlclass[x=9]{DoubleIntgBilinearForm}{const Domain* domainx\_p \\ const Domain* domainy\_p \\ const OperatorOnUnknown* opu\_p \\ const OperatorOnUnknown* opv\_p \\ AlgebraicOperator aop\_}{}
\umlclass[x=5, y=-3.5]{BasicBilinearForm}{const Unknown* u\_p \\ const Unknown* v\_p}{}
\umlclass[x=5, y=-6]{SuBilinearForm}{std::vector<std::pair<BasicBilinearForm*, Complex> > blfs\_}{}
\umlclass[x=5, y=-8.5]{BilinearForm}{std::map<std::pair<const Unknown*, const Unknown*>, SuBilinearForm> mlcblf\_}{}

\umlHVinherit{IntgBilinearForm}{BasicBilinearForm}
\umlHVinherit{DoubleIntgBilinearForm}{BasicBilinearForm}
\umldep{SuBilinearForm}{BasicBilinearForm}
\umldep{BilinearForm}{SuBilinearForm}

\end{tikzpicture}
