\definecolor{xlife}{RGB}{0,127,127}%
\begin{tikzpicture}
\begin{scope}
\begin{scope}[rotate=30]
\coordinate (c) at (0,0);
\coordinate (v1) at (2,0);
\coordinate (v2) at (0,2);
\node[ellipse, draw=black, dashed, help lines, minimum size=4cm, minimum height=4cm] (e) at (c) {};
\draw (e.55) arc[start angle=25, end angle=300, x radius=2cm, y radius=2cm];
\draw (e.330) -- (c) node[midway, right, red!50!black] {$sn_4$} -- (e.55) node[midway, left, red!50!black] {$sn_1$};
\draw[dashed] (c) -- (v1) node[coordinate, name=a1,pos=0.7] {};
\draw[dashed] (c) -- (v1) node[coordinate, name=a2,pos=0.3] {};
\draw[->,green!50!black] (a1) arc[start angle=0, end angle=25, x radius=1.4cm, y radius=1.4cm] node[midway,above] {$angle_1$};
\draw[->,green!50!black] (a2) arc[start angle=0, end angle=300, x radius=0.6cm, y radius=0.6cm] node[midway,left] {$angle_2$};
\fill[xlife!75!black] (c) circle (3pt) node[above] {c};
\fill[xlife!75!black] (v1) circle (3pt) node[right] {$v_1$};
\fill[xlife!75!black] (v2) circle (3pt) node[above] {$v_2$};
\fill[xlife!50!white] (e.55) circle (3pt);
\fill[xlife!50!white] (e.192) circle (3pt);
\fill[xlife!50!white] (e.330) circle (3pt);
\draw (e.124) node[red!50!black, above left] {$sn_2$};
\draw (e.261) node[red!50!black, below left] {$sn_3$};
\end{scope}
\end{scope}
\begin{scope}[xshift=6cm]
\begin{scope}[rotate=30]
\coordinate (c) at (0,0);
\coordinate (v1) at (2,0);
\coordinate (v2) at (0,2);
\node[ellipse, draw=black, dashed, help lines, minimum size=4cm, minimum height=4cm] (e) at (c) {};
\draw (e.55) arc[start angle=25, end angle=100, x radius=2cm, y radius=2cm];
\draw (e.130) -- (c) node[midway, left, red!50!black] {$sn_3$} -- (e.55) node[midway, right, red!50!black] {$sn_1$};
\draw[dashed] (c) -- (v1) node[coordinate, name=a1,pos=0.7] {};
\draw[dashed] (c) -- (v1) node[coordinate, name=a2,pos=0.3] {};
\draw[->,green!50!black] (a1) arc[start angle=0, end angle=25, x radius=1.4cm, y radius=1.4cm] node[midway,above] {$angle_1$};
\draw[->,green!50!black] (a2) arc[start angle=0, end angle=100, x radius=0.6cm, y radius=0.6cm] node[midway,above] {$angle_2$};
\fill[xlife!75!black] (c) circle (3pt) node[below] {c};
\fill[xlife!75!black] (v1) circle (3pt) node[right] {$v_1$};
\fill[xlife!75!black] (v2) circle (3pt) node[above] {$v_2$};
\fill[xlife!50!white] (e.55) circle (3pt);
\fill[xlife!50!white] (e.130) circle (3pt);
\draw (e.92) node[red!50!black, above] {$sn_2$};
\end{scope}
\end{scope}
\end{tikzpicture}
