\definecolor{xlife}{RGB}{0,127,127}%
\begin{tikzpicture}
\coordinate (v1) at (0,0);
\coordinate (v2) at (6,0);
\coordinate (v3) at (6,3);
\coordinate (v4) at (0,3);
\coordinate (c) at (3,1.5);
\draw (v1) -- (v2) node[midway, name=n1, black, below] {$n_1$} node[midway,above,red!50!black] {$sn_1$} -- (v3) node[midway, name=n2, black, right] {$n_2$} node[midway,left,red!50!black] {$sn_2$} -- (v4) node[midway, name=n3, black, above] {$n_3$} node[midway,below,red!50!black] {$sn_3$} -- (v1) node[midway, name=n4, black, left] {$n_4$} node[midway,right,red!50!black] {$sn_4$};
\draw[dashed] (v1) -- (v3);
\draw[dashed] (v2) -- (v4);
\fill[xlife] (v1) circle (3pt) node[below left] {$v_1$};
\fill[xlife] (v2) circle (3pt) node[below right] {$v_2$};
\fill[xlife] (v3) circle (3pt) node[above right] {$v_3$};
\fill[xlife] (v4) circle (3pt) node[above left] {$v_4$};
\fill[xlife] (c) circle (3pt) node[above] {$c$};
\end{tikzpicture}
