\begin{tikzpicture}
\tikzstyle{side}=[help lines, font=\tiny];
\coordinate (s1) at (5,0);
\coordinate (s2) at (5,5);
\coordinate (s3) at (0,5);
\coordinate (s4) at (0,0);
\coordinate (s5) at (5,5./3.);
\coordinate (s6) at (10./3.,5);
\coordinate (s7) at (0,10./3.);
\coordinate (s8) at (5./3.,0);
\coordinate (s9) at (5,10./3.);
\coordinate (s10) at (5./3.,5);
\coordinate (s11) at (0,5./3.);
\coordinate (s12) at (10./3.,0);
\coordinate (s13) at (10./3.,5./3.);
\coordinate (s14) at (10./3.,10./3.);
\coordinate (s15) at (5./3.,10./3.);
\coordinate (s16) at (5./3.,5./3.);
\draw (s1) -- node[pos=0.05, left=-0.5ex, side] {2} node[pos=0.95, left=-0.5ex, side] {1} (s2);
\draw (s2) -- node[pos=0.05, below=-0.5ex, side] {2} node[pos=0.95, below=-0.5ex, side] {1} (s3);
\draw (s3) -- node[pos=0.05, right=-0.5ex, side] {2} node[pos=0.95, right=-0.5ex, side] {1} (s4);
\draw (s4) -- node[pos=0.05, above=-0.5ex, side] {2} node[pos=0.95, above=-0.5ex, side] {1} (s1);
\draw (s1) node[below right] {1};
\draw (s2) node[above right] {2};
\draw (s3) node[above left] {3};
\draw (s4) node[below left] {4};
\draw (s5) node[right] {5} node[left=-0.5ex, side] {4};
\draw (s6) node[above] {6} node[below=-0.5ex, side] {4};
\draw (s7) node[left] {7} node[right=-0.5ex, side] {4};
\draw (s8) node[below] {8} node[above=-0.5ex, side] {4};
\draw (s9) node[right] {9} node[left=-0.5ex, side] {3};
\draw (s10) node[above] {10} node[below=-0.5ex, side] {3};
\draw (s11) node[left] {11} node[right=-0.5ex, side] {3};
\draw (s12) node[below] {12} node[above=-0.5ex, side] {3};
\draw (s13) node[below] {13};
\draw (s14) node[below] {14};
\draw (s15) node[below] {15};
\draw (s16) node[below] {16};
\foreach \i in {1,2,...,16} {
  \fill (s\i) circle (0.2ex);	
}
\end{tikzpicture}
