\begin{tikzpicture}
\tikzstyle{side}=[help lines, font=\tiny];
\coordinate (s1) at (5,0);
\coordinate (s2) at (5,5);
\coordinate (s3) at (0,5);
\coordinate (s4) at (0,0);
\coordinate (s5) at (5,5./6.);
\coordinate (s6) at (25./6.,5);
\coordinate (s7) at (0,25./6.);
\coordinate (s8) at (5./6.,0);
\coordinate (s9) at (5,10./6.);
\coordinate (s10) at (20./6.,5);
\coordinate (s11) at (0,20./6.);
\coordinate (s12) at (10./6.,0);
\coordinate (s13) at (5,15./6.);
\coordinate (s14) at (15./6.,5);
\coordinate (s15) at (0,15./6.);
\coordinate (s16) at (15./6.,0);
\coordinate (s17) at (5,20./6.);
\coordinate (s18) at (10./6.,5);
\coordinate (s19) at (0,10./6.);
\coordinate (s20) at (20./6.,0);
\coordinate (s21) at (5,25./6.);
\coordinate (s22) at (5./6.,5);
\coordinate (s23) at (0,5./6.);
\coordinate (s24) at (25./6.,0);
\coordinate (s25) at (25./6.,5./6.);
\coordinate (s26) at (25./6.,25./6.);
\coordinate (s27) at (5./6.,25./6.);
\coordinate (s28) at (5./6.,5./6.);
\coordinate (s29) at (25./6.,10./6.);
\coordinate (s30) at (20./6.,25./6.);
\coordinate (s31) at (5./6.,20./6.);
\coordinate (s32) at (10./6.,5./6.);
\coordinate (s33) at (25./6.,15./6.);
\coordinate (s34) at (15./6.,25./6.);
\coordinate (s35) at (5./6.,15./6.);
\coordinate (s36) at (15./6.,5./6.);
\coordinate (s37) at (25./6.,20./6.);
\coordinate (s38) at (10./6.,25./6.);
\coordinate (s39) at (5./6.,10./6.);
\coordinate (s40) at (20./6.,5./6.);
\coordinate (s41) at (20./6.,10./6.);
\coordinate (s42) at (20./6.,20./6.);
\coordinate (s43) at (10./6.,20./6.);
\coordinate (s44) at (10./6.,10./6.);
\coordinate (s45) at (20./6.,15./6.);
\coordinate (s46) at (15./6.,20./6.);
\coordinate (s47) at (10./6.,15./6.);
\coordinate (s48) at (15./6.,10./6.);
\coordinate (s49) at (15./6.,15./6.);
\draw (s1) -- node[pos=0.05, left=-0.5ex, side] {2} node[pos=0.95, left=-0.5ex, side] {1} (s2);
\draw (s2) -- node[pos=0.05, below=-0.5ex, side] {2} node[pos=0.95, below=-0.5ex, side] {1} (s3);
\draw (s3) -- node[pos=0.05, right=-0.5ex, side] {2} node[pos=0.95, right=-0.5ex, side] {1} (s4);
\draw (s4) -- node[pos=0.05, above=-0.5ex, side] {2} node[pos=0.95, above=-0.5ex, side] {1} (s1);
\draw (s1) node[below right] {1};
\draw (s2) node[above right] {2};
\draw (s3) node[above left] {3};
\draw (s4) node[below left] {4};
\draw (s5) node[right] {5} node[left=-0.5ex, side] {7};
\draw (s6) node[above] {6} node[below=-0.5ex, side] {7};
\draw (s7) node[left] {7} node[right=-0.5ex, side] {7};
\draw (s8) node[below] {8} node[above=-0.5ex, side] {7};
\draw (s9) node[right] {9} node[left=-0.5ex, side] {6};
\draw (s10) node[above] {10} node[below=-0.5ex, side] {6};
\draw (s11) node[left] {11} node[right=-0.5ex, side] {6};
\draw (s12) node[below] {12} node[above=-0.5ex, side] {6};
\draw (s13) node[right] {13} node[left=-0.5ex, side] {5};
\draw (s14) node[above] {14} node[below=-0.5ex, side] {5};
\draw (s15) node[left] {15} node[right=-0.5ex, side] {5};
\draw (s16) node[below] {16} node[above=-0.5ex, side] {5};
\draw (s17) node[right] {17} node[left=-0.5ex, side] {4};
\draw (s18) node[above] {18} node[below=-0.5ex, side] {4};
\draw (s19) node[left] {19} node[right=-0.5ex, side] {4};
\draw (s20) node[below] {20} node[above=-0.5ex, side] {4};
\draw (s21) node[right] {21} node[left=-0.5ex, side] {3};
\draw (s22) node[above] {22} node[below=-0.5ex, side] {3};
\draw (s23) node[left] {23} node[right=-0.5ex, side] {3};
\draw (s24) node[below] {24} node[above=-0.5ex, side] {3};
\draw (s25) node[below] {25};
\draw (s26) node[below] {26};
\draw (s27) node[below] {27};
\draw (s28) node[below] {28};
\draw (s29) node[below] {29};
\draw (s30) node[below] {30};
\draw (s31) node[below] {31};
\draw (s32) node[below] {32};
\draw (s33) node[below] {33};
\draw (s34) node[below] {34};
\draw (s35) node[below] {35};
\draw (s36) node[below] {36};
\draw (s37) node[below] {37};
\draw (s38) node[below] {38};
\draw (s39) node[below] {39};
\draw (s40) node[below] {40};
\draw (s41) node[below] {41};
\draw (s42) node[below] {42};
\draw (s43) node[below] {43};
\draw (s44) node[below] {44};
\draw (s45) node[below] {45};
\draw (s46) node[below] {46};
\draw (s47) node[below] {47};
\draw (s48) node[below] {48};
\draw (s49) node[below] {49};
\foreach \i in {1,2,...,49} {
  \fill (s\i) circle (0.2ex);	
}
\end{tikzpicture}
