\begin{tikzpicture}
\tikzstyle{side}=[help lines, font=\tiny];
\coordinate (s1) at (5,0);
\coordinate (s2) at (0,5);
\coordinate (s3) at (0,0);
\coordinate (s4) at (10./3.,5./3.);
\coordinate (s5) at (0,10./3.);
\coordinate (s6) at (5./3.,0);
\coordinate (s7) at (5./3.,10./3.);
\coordinate (s8) at (0,5./3.);
\coordinate (s9) at (10./3.,0);
\coordinate (s10) at (5./3.,5./3.);
\draw (s1) -- node[pos=0.05, below=-0.1ex, left=-0.1ex, side] {2} node[pos=0.92, below=-0.1ex, left=-0.1ex, side] {1} (s2);
\draw (s2) -- node[pos=0.1, right=-0.5ex, side] {2} node[pos=0.95, right=-0.5ex, side] {1} (s3);
\draw (s3) -- node[pos=0.05, above=-0.5ex, side] {2} node[pos=0.9, above=-0.5ex, side] {1} (s1);
\draw (s1) node[below right] {1};
\draw (s2) node[above left] {2};
\draw (s3) node[below left] {3};
\draw (s4) node[above right] {4} node[below=-0.1ex, left=-0.1ex, side] {4};
\draw (s5) node[left] {5}  node[right=-0.3ex, side] {4};
\draw (s6) node[below] {6} node[above=-0.3ex, side] {4};
\draw (s7) node[above right] {7} node[below=-0.1ex, left=-0.1ex, side] {3};
\draw (s8) node[left] {8} node[right=-0.3ex, side] {3};
\draw (s9) node[below] {9} node[above=-0.3ex, side] {3};
\draw (s10) node[below] {10};
\foreach \i in {1,2,...,10} {
  \fill (s\i) circle (0.2ex);	
}
\end{tikzpicture}
